Fib#  Name            Ty  Piv  RA(rads)    DEC(rads)   X        Y        Mag   
1     PARKED          U   10   0.0         0.0         -40067   268993   0.0   
2     PARKED          U   9    0.0         0.0         -35895   269282   0.0   
3     PARKED          U   8    0.0         0.0         -31680   269562   0.0   
4     FIBRE NOT IN U  N   7    0.23197762  -0.4426801  -27903   269830   0.0   
5     RGBSYAZ021904   P   6    0.23103214  -0.4639239  -261     10083    14.0  
6     PARKED          U   5    0.0         0.0         -19088   270778   0.0   
7     PARKED          U   4    0.0         0.0         -14836   271090   0.0   
8     PARKED          U   3    0.0         0.0         -10606   271206   0.0   
9     PARKED          U   2    0.0         0.0         -6363    271541   0.0   
10    PARKED          U   1    0.0         0.0         -2197    271762   0.0   
11    RGBSYAZ025174   P   20   0.23108159  -0.4635177  5156     10532    15.4  
12    PARKED          U   19   0.0         0.0         -77820   259692   0.0   
13    PARKED          U   18   0.0         0.0         -73726   260587   0.0   
14    AGBSYAZ024409   P   17   0.23074707  -0.4636263  3601     6579     14.6  
15    PARKED          U   16   0.0         0.0         -65406   262643   0.0   
16    PARKED          U   15   0.0         0.0         -61314   263779   0.0   
17    PARKED          U   14   0.0         0.0         -57146   264701   0.0   
18    PARKED          U   13   0.0         0.0         -52993   265781   0.0   
19    PARKED          U   12   0.0         0.0         -48851   266709   0.0   
20    PARKED          U   11   0.0         0.0         -44880   267892   0.0   
21    PARKED          U   30   0.0         0.0         -121266  243010   0.0   
22    PARKED          U   29   0.0         0.0         -117410  244565   0.0   
23    PARKED          U   28   0.0         0.0         -113423  246227   0.0   
24    FIBRE NOT IN U  N   27   0.22544236  -0.4442380  -109811  248074   0.0   
25    PARKED          U   26   0.0         0.0         -105525  249477   0.0   
26    PARKED          U   25   0.0         0.0         -101692  250860   0.0   
27    PARKED          U   24   0.0         0.0         -97589   252658   0.0   
28    PARKED          U   23   0.0         0.0         -93646   254033   0.0   
29    PARKED          U   22   0.0         0.0         -89722   255787   0.0   
30    PARKED          U   21   0.0         0.0         -85896   257619   0.0   
31    AGBSYAZ030871   P   40   0.23394538  -0.4664116  -32594   45774    14.6  
32    PARKED          U   39   0.0         0.0         -153880  223679   0.0   
33    PARKED          U   38   0.0         0.0         -150145  225924   0.0   
34    PARKED          U   37   0.0         0.0         -146568  228304   0.0   
35    PARKED          U   36   0.0         0.0         -142896  230273   0.0   
36    PARKED          U   35   0.0         0.0         -139250  232384   0.0   
37    PARKED          U   34   0.0         0.0         -135550  234590   0.0   
38    RHBSYAZ031292   P   33   0.23268365  -0.4652286  -17160   30260    15.1  
39    PARKED          U   32   0.0         0.0         -128339  238954   0.0   
40    PARKED          U   31   0.0         0.0         -124742  241236   0.0   
41    GUIDE022        F   50   0.23819090  -0.4735412  -128128  99985    12.6  
42    PARKED          U   49   0.0         0.0         -187043  196459   0.0   
43    PARKED          U   48   0.0         0.0         -184049  199177   0.0   
44    FIBRE NOT IN U  N   47   0.21975229  -0.4475279  -180842  202122   0.0   
45    SKY042          S   46   0.24220152  -0.4728592  -118407  148856   99.9  
46    PARKED          U   45   0.0         0.0         -174229  207608   0.0   
47    PARKED          U   44   0.0         0.0         -171056  210474   0.0   
48    PARKED          U   43   0.0         0.0         -167652  213056   0.0   
49    PARKED          U   42   0.0         0.0         -164571  215960   0.0   
50    FIBRE NOT IN U  N   41   0.22126696  -0.4463153  -162019  219057   0.0   
51    RGBSYAZ015342   P   60   0.23136448  -0.4648259  -12195   14371    14.8  
52    BBLUSTE001833   P   59   0.23248658  -0.4678099  -51741   28868    13.6  
53    PARKED          U   58   0.0         0.0         -212932  168185   0.0   
54    PARKED          U   57   0.0         0.0         -210139  171435   0.0   
55    PARKED          U   56   0.0         0.0         -207319  174512   0.0   
56    PARKED          U   55   0.0         0.0         -204499  177893   0.0   
57    RGBSSTE000213   P   54   0.23168300  -0.4658524  -25803   18536    14.9  
58    PARKED          U   53   0.0         0.0         -198764  184180   0.0   
59    RGBSSTE001629   P   52   0.23329161  -0.4670201  -40925   38179    15.6  
60    FIBRE NOT IN U  N   51   0.21870132  -0.4483343  -193998  190861   0.0   
61    BAGBYAZ031029   P   70   0.23341597  -0.4660000  -27219   39280    14.4  
62    PARKED          U   69   0.0         0.0         -239087  128969   0.0   
63    BBLUYAZ031174   P   68   0.23238477  -0.4655881  -22054   26828    11.5  
64    PARKED          U   67   0.0         0.0         -234662  136268   0.0   
65    PARKED          U   66   0.0         0.0         -232509  139822   0.0   
66    PARKED          U   65   0.0         0.0         -230373  143525   0.0   
67    RHBSYAZ011595   P   64   0.23112668  -0.4662634  -31469   12072    15.3  
68    RGBSYAZ012223   P   63   0.23062926  -0.4659640  -27633   6036     15.2  
69    PARKED          U   62   0.0         0.0         -224333  154144   0.0   
70    PARKED          U   61   0.0         0.0         -221108  157885   0.0   
71    PARKED          U   80   0.0         0.0         -257363  86318    0.0   
72    PARKED          U   79   0.0         0.0         -256012  90393    0.0   
73    SKY014          S   78   0.23466169  -0.4748180  -146361  57913    99.9  
74    BAGBSTE001797   P   77   0.23044382  -0.4673632  -46404   4333     14.2  
75    PARKED          U   76   0.0         0.0         -250911  102110   0.0   
76    BHBSYAZ022830   P   75   0.23071216  -0.4638207  1001     6227     15.5  
77    BBLUYAZ031296   P   74   0.23204297  -0.4652244  -17305   22611    12.6  
78    AGBSYAZ016610   P   73   0.23086342  -0.4645895  -9198    8323     14.0  
79    RGBSYAZ016419   P   72   0.23157755  -0.4646195  -9365    16839    15.5  
80    BHBSYAZ014452   P   71   0.23081470  -0.4650614  -15543   7929     15.4  
81    PARKED          U   90   0.0         0.0         -267393  44775    0.0   
82    BGBSYAZ012027   P   89   0.23049763  -0.4660547  -28893   4502     13.8  
83    SKY046          S   88   0.23291709  -0.4776348  -186128  38200    99.9  
84    PARKED          U   87   0.0         0.0         -264737  57199    0.0   
85    PARKED          U   86   0.0         0.0         -263802  61290    0.0   
86    PARKED          U   85   0.0         0.0         -262748  65558    0.0   
87    RHBSYAZ020140   P   84   0.23105686  -0.4641290  -2994    10457    15.1  
88    PARKED          U   83   0.0         0.0         -261054  73751    0.0   
89    PARKED          U   82   0.0         0.0         -259909  77845    0.0   
90    PARKED          U   81   0.0         0.0         -259046  81971    0.0   
91    GUIDE028        F   100  0.23122776  -0.4776087  -186192  17756    12.8  
92    PARKED          U   99   0.0         0.0         -271593  6554     0.0   
93    PARKED          U   98   0.0         0.0         -271262  10702    0.0   
94    AGBSSTE001793   P   97   0.23027219  -0.4673881  -46813   2297     14.2  
95    SKY016          S   96   0.23018711  -0.4755198  -157311  4388     99.9  
96    PARKED          U   95   0.0         0.0         -270085  23483    0.0   
97    SKY015          S   94   0.23245967  -0.4753430  -154179  31617    99.9  
98    PARKED          U   93   0.0         0.0         -269652  31982    0.0   
99    PARKED          U   92   0.0         0.0         -269256  36206    0.0   
100   PARKED          U   91   0.0         0.0         -268814  40179    0.0   
101   PARKED          U   110  0.0         0.0         -268510  -40281   0.0   
102   PARKED          U   109  0.0         0.0         -268622  -35848   0.0   
103   PARKED          U   108  0.0         0.0         -269469  -31800   0.0   
104   PARKED          U   107  0.0         0.0         -269732  -27571   0.0   
105   PARKED          U   106  0.0         0.0         -270279  -23302   0.0   
106   AGBSYAZ020908   P   105  0.23035582  -0.4640369  -1986    2057     14.1  
107   RGBSSTE001508   P   104  0.22969623  -0.4682916  -59114   -4215    14.5  
108   PARKED          U   103  0.0         0.0         -270692  -10625   0.0   
109   PARKED          U   102  0.0         0.0         -271289  -6365    0.0   
110   AGBSYAZ018498   P   101  0.23001766  -0.4643258  -5958    -1882    13.7  
111   PARKED          U   120  0.0         0.0         -258752  -81133   0.0   
112   PARKED          U   119  0.0         0.0         -259819  -77104   0.0   
113   PARKED          U   118  0.0         0.0         -260879  -73036   0.0   
114   SKY018          S   117  0.22571252  -0.4748180  -149367  -49660   99.9  
115   RGBSYAZ013369   P   116  0.23046418  -0.4654564  -20930   3880     14.9  
116   AGBSYAZ017762   P   115  0.23052017  -0.4644216  -7089    4169     14.1  
117   RGBSYAZ017798   P   114  0.22982641  -0.4644170  -7253    -4114    15.3  
118   RGBSYAZ014258   P   113  0.22983222  -0.4651211  -16660   -3783    15.4  
119   PARKED          U   112  0.0         0.0         -266950  -48203   0.0   
120   SKY047          S   111  0.22745712  -0.4776348  -187970  -27732   99.9  
121   PARKED          U   130  0.0         0.0         -243820  -121597  0.0   
122   PARKED          U   129  0.0         0.0         -245332  -117698  0.0   
123   BAGBYAZ014802   P   128  0.22953552  -0.4649638  -14664   -7368    14.5  
124   PARKED          U   127  0.0         0.0         -248384  -109727  0.0   
125   PARKED          U   126  0.0         0.0         -249846  -105629  0.0   
126   PARKED          U   125  0.0         0.0         -251508  -101728  0.0   
127   PARKED          U   124  0.0         0.0         -253238  -97876   0.0   
128   PARKED          U   123  0.0         0.0         -254820  -93985   0.0   
129   PARKED          U   122  0.0         0.0         -256511  -90095   0.0   
130   BHBSYAZ015315   P   121  0.23061180  -0.4648325  -12539   5422     15.4  
131   PARKED          U   140  0.0         0.0         -220959  -157962  0.0   
132   SKY020          S   139  0.22178626  -0.4727976  -123482  -97705   99.9  
133   PARKED          U   138  0.0         0.0         -225663  -150837  0.0   
134   PARKED          U   137  0.0         0.0         -227851  -147263  0.0   
135   BAGBYAZ014218   P   136  0.22916900  -0.4651343  -17031   -11686   14.6  
136   PARKED          U   135  0.0         0.0         -232327  -139958  0.0   
137   SKY019          S   134  0.22364867  -0.4739609  -138551  -74814   99.9  
138   PARKED          U   133  0.0         0.0         -236520  -132756  0.0   
139   PARKED          U   132  0.0         0.0         -239091  -129139  0.0   
140   PARKED          U   131  0.0         0.0         -240860  -125420  0.0   
141   GUIDE018        F   150  0.21917844  -0.4739256  -140629  -129392  12.6  
142   RGBSYAZ007869   P   149  0.22801926  -0.4657310  -25402   -25188   15.0  
143   PARKED          U   148  0.0         0.0         -199283  -184206  0.0   
144   PARKED          U   147  0.0         0.0         -202120  -180917  0.0   
145   PARKED          U   146  0.0         0.0         -204907  -177620  0.0   
146   SKY049          S   145  0.22009692  -0.4745802  -149151  -117975  99.9  
147   PARKED          U   144  0.0         0.0         -210307  -171009  0.0   
148   PARKED          U   143  0.0         0.0         -213109  -167843  0.0   
149   PARKED          U   142  0.0         0.0         -215983  -164563  0.0   
150   PARKED          U   141  0.0         0.0         -218726  -161466  0.0   
151   PARKED          U   160  0.0         0.0         -161614  -218392  0.0   
152   PARKED          U   159  0.0         0.0         -164892  -215671  0.0   
153   PARKED          U   158  0.0         0.0         -168282  -213054  0.0   
154   PARKED          U   157  0.0         0.0         -171352  -210126  0.0   
155   PARKED          U   156  0.0         0.0         -174638  -207449  0.0   
156   FIBRE NOT IN U  N   155  0.21979534  -0.4768322  -178043  -205078  0.0   
157   SKY050          S   154  0.21817270  -0.4728592  -126518  -142044  99.9  
158   PARKED          U   153  0.0         0.0         -184334  -199095  0.0   
159   SKY021          S   152  0.22018273  -0.4713634  -104716  -117633  99.9  
160   PARKED          U   151  0.0         0.0         -190643  -193465  0.0   
161   RGBSYAZ015658   P   170  0.22946716  -0.4647583  -11929   -8269    14.8  
162   SKY022          S   169  0.21888683  -0.4697020  -82762   -133989  99.9  
163   PARKED          U   168  0.0         0.0         -132788  -236570  0.0   
164   PARKED          U   167  0.0         0.0         -136395  -234295  0.0   
165   SKY051          S   166  0.21661863  -0.4708655  -100015  -161789  99.9  
166   PARKED          U   165  0.0         0.0         -143751  -229852  0.0   
167   PARKED          U   164  0.0         0.0         -147119  -227224  0.0   
168   PARKED          U   163  0.0         0.0         -151074  -225403  0.0   
169   BHBSYAZ017595   P   162  0.22915882  -0.4644439  -7814    -12071   15.5  
170   BHBSYAZ017699   P   161  0.22960824  -0.4644300  -7490    -6712    15.3  
171   RGBSYAZ023021   P   180  0.23007439  -0.4637965  1116     -1392    15.1  
172   PARKED          U   179  0.0         0.0         -90118   -256107  0.0   
173   PARKED          U   178  0.0         0.0         -94135   -254418  0.0   
174   PARKED          U   177  0.0         0.0         -97956   -252762  0.0   
175   BHBSYAZ019581   P   176  0.22922499  -0.4641928  -4453    -11375   15.5  
176   PARKED          U   175  0.0         0.0         -105861  -249255  0.0   
177   PARKED          U   174  0.0         0.0         -109778  -247605  0.0   
178   RGBSYAZ007999   P   173  0.22874576  -0.4653606  -20216   -16665   15.4  
179   PARKED          U   172  0.0         0.0         -117670  -244447  0.0   
180   PARKED          U   171  0.0         0.0         -121055  -242907  0.0   
181   PARKED          U   190  0.0         0.0         -44589   -268247  0.0   
182   SKY023          S   189  0.21736112  -0.4659047  -32057   -154095  99.9  
183   PARKED          U   188  0.0         0.0         -52888   -266052  0.0   
184   PARKED          U   187  0.0         0.0         -57048   -265102  0.0   
185   PARKED          U   186  0.0         0.0         -61191   -263955  0.0   
186   PARKED          U   185  0.0         0.0         -65544   -263269  0.0   
187   PARKED          U   184  0.0         0.0         -69669   -262334  0.0   
188   RHBSYAZ006764   P   183  0.22381156  -0.4653298  -21586   -75711   15.3  
189   PARKED          U   182  0.0         0.0         -78009   -260439  0.0   
190   FIBRE NOT IN U  N   181  0.22756554  -0.4807749  -82186   -259683  0.0   
191   GUIDE026        F   200  0.21671316  -0.4628500  8983     -163464  12.7  
192   PARKED          U   199  0.0         0.0         -6315    -271474  0.0   
193   SKY024          S   198  0.21717640  -0.4638842  -4799    -157222  99.9  
194   BBLUYAZ008876   P   197  0.22830070  -0.4638683  -435     -22535   12.4  
195   PARKED          U   196  0.0         0.0         -18967   -270221  0.0   
196   RGBSYAZ009088   P   195  0.22808253  -0.4635916  3175     -25235   15.4  
197   PARKED          U   194  0.0         0.0         -27660   -269327  0.0   
198   PARKED          U   193  0.0         0.0         -31913   -269062  0.0   
199   PARKED          U   192  0.0         0.0         -36049   -268697  0.0   
200   PARKED          U   191  0.0         0.0         -40221   -268338  0.0   
201   PARKED          U   210  0.0         0.0         40419    -269189  0.0   
202   RHBSYAZ002330   P   209  0.22937189  -0.4612821  34463    -10709   15.3  
203   PARKED          U   208  0.0         0.0         31911    -269372  0.0   
204   BAGBYAZ007913   P   207  0.22669281  -0.4656058  -24196   -41098   14.7  
205   PARKED          U   206  0.0         0.0         23456    -269934  0.0   
206   PARKED          U   205  0.0         0.0         19076    -270405  0.0   
207   PARKED          U   204  0.0         0.0         14697    -270702  0.0   
208   PARKED          U   203  0.0         0.0         10502    -271108  0.0   
209   PARKED          U   202  0.0         0.0         6371     -271451  0.0   
210   AGBSYAZ020268   P   201  0.23012747  -0.4641148  -3117    -630     14.1  
211   PARKED          U   220  0.0         0.0         81641    -259051  0.0   
212   BAGBYAZ009411   P   219  0.22752330  -0.4630592  10114    -32162   14.8  
213   PARKED          U   218  0.0         0.0         73394    -260977  0.0   
214   BAGBSTE001706   P   217  0.22598523  -0.4632063  7599     -50494   14.1  
215   SKY025          S   216  0.21738730  -0.4618637  22566    -155579  99.9  
216   PARKED          U   215  0.0         0.0         60907    -263826  0.0   
217   BHBSYAZ023018   P   214  0.22947225  -0.4637965  901      -8567    15.4  
218   BBLUYAZ006797   P   213  0.22350759  -0.4651544  -19349   -79447   13.3  
219   PARKED          U   212  0.0         0.0         48491    -266747  0.0   
220   PARKED          U   211  0.0         0.0         44910    -267851  0.0   
221   PARKED          U   230  0.0         0.0         121376   -243039  0.0   
222   AGBSYAZ005536   P   229  0.22379993  -0.4608952  37793    -77708   14.1  
223   BAGBYAZ027546   P   228  0.22968605  -0.4630918  10394    -6297    14.2  
224   PARKED          U   227  0.0         0.0         109594   -247659  0.0   
225   AGBSYAZ024529   P   226  0.22957551  -0.4636111  3419     -7407    14.3  
226   BGBSYAZ009280   P   225  0.22845778  -0.4632969  7229     -20887   13.4  
227   PARKED          U   224  0.0         0.0         97600    -252591  0.0   
228   PARKED          U   223  0.0         0.0         93716    -254144  0.0   
229   PARKED          U   222  0.0         0.0         89727    -255937  0.0   
230   PARKED          U   221  0.0         0.0         85881    -257285  0.0   
231   PARKED          U   240  0.0         0.0         157734   -220664  0.0   
232   AGBSYAZ024850   P   239  0.22987513  -0.4635681  4080     -3847    13.9  
233   PARKED          U   238  0.0         0.0         150478   -225116  0.0   
234   PARKED          U   237  0.0         0.0         146869   -227380  0.0   
235   SKY026          S   236  0.21895228  -0.4580665  74492    -138302  99.9  
236   PARKED          U   235  0.0         0.0         139537   -231754  0.0   
237   PARKED          U   234  0.0         0.0         135815   -233985  0.0   
238   PARKED          U   233  0.0         0.0         132238   -236386  0.0   
239   PARKED          U   232  0.0         0.0         128777   -238601  0.0   
240   PARKED          U   231  0.0         0.0         125025   -240863  0.0   
241   GUIDE010        F   250  0.22563471  -0.4572333  87612    -57255   12.4  
242   PARKED          U   249  0.0         0.0         187808   -196468  0.0   
243   BBLUYAZ009540   P   248  0.22815307  -0.4628036  13758    -24702   11.5  
244   PARKED          U   247  0.0         0.0         181224   -201933  0.0   
245   BBLUYAZ003748   P   246  0.22615031  -0.4607089  41059    -49534   12.5  
246   PARKED          U   245  0.0         0.0         174745   -207478  0.0   
247   RGBSYAZ005719   P   244  0.22541509  -0.4598391  52510    -58752   15.5  
248   PARKED          U   243  0.0         0.0         168104   -212820  0.0   
249   BAGBSTE001701   P   242  0.22570379  -0.4618764  25284    -54391   14.1  
250   PARKED          U   241  0.0         0.0         161383   -218052  0.0   
251   PARKED          U   260  0.0         0.0         218637   -161390  0.0   
252   PARKED          U   259  0.0         0.0         215648   -164641  0.0   
253   SKY028          S   258  0.22186116  -0.4549709  117396   -104356  99.9  
254   PARKED          U   257  0.0         0.0         210130   -171108  0.0   
255   PARKED          U   256  0.0         0.0         207416   -174372  0.0   
256   PARKED          U   255  0.0         0.0         204387   -177347  0.0   
257   BBLUYAZ009677   P   254  0.22723605  -0.4625078  17374    -35810   13.6  
258   PARKED          U   253  0.0         0.0         199091   -184090  0.0   
259   PARKED          U   252  0.0         0.0         196133   -187098  0.0   
260   PARKED          U   251  0.0         0.0         193742   -190063  0.0   
261   PARKED          U   270  0.0         0.0         240992   -125278  0.0   
262   PARKED          U   269  0.0         0.0         238572   -128759  0.0   
263   SKY058          S   268  0.22242694  -0.4517922  161499   -99386   99.9  
264   PARKED          U   267  0.0         0.0         234030   -136042  0.0   
265   PARKED          U   266  0.0         0.0         231853   -139749  0.0   
266   RHBSYAZ003851   P   265  0.22653428  -0.4604591  44532    -45022   15.5  
267   PARKED          U   264  0.0         0.0         227364   -147105  0.0   
268   SKY029          S   263  0.22371412  -0.4538076  133785   -82330   99.9  
269   BAGBYAZ005721   P   262  0.22602668  -0.4598262  52838    -51385   14.2  
270   PARKED          U   261  0.0         0.0         220884   -157964  0.0   
271   RHBSYAZ002982   P   280  0.22930499  -0.4581626  76273    -12728   15.2  
272   PARKED          U   279  0.0         0.0         255979   -89894   0.0   
273   PARKED          U   278  0.0         0.0         254133   -93762   0.0   
274   BBLUYAZ002999   P   277  0.22904755  -0.4580800  77294    -15851   11.9  
275   BBLUYAZ002445   P   276  0.22924681  -0.4609134  39370    -12351   13.1  
276   PARKED          U   275  0.0         0.0         249081   -105578  0.0   
277   PARKED          U   274  0.0         0.0         247755   -109511  0.0   
278   BBLUYAZ009728   P   273  0.22887593  -0.4623690  19802    -16236   13.4  
279   PARKED          U   272  0.0         0.0         244314   -117378  0.0   
280   PARKED          U   271  0.0         0.0         242706   -121118  0.0   
281   RHBSYAZ003944   P   290  0.22740112  -0.4602352  47819    -34727   15.2  
282   PARKED          U   289  0.0         0.0         266471   -48271   0.0   
283   PARKED          U   288  0.0         0.0         265433   -52294   0.0   
284   SKY031          S   287  0.22794072  -0.4524255  153975   -31562   99.9  
285   FIBRE NOT IN U  N   286  0.25548185  -0.4664437  263582   -61008   0.0   
286   BAGBYAZ003778   P   285  0.22780691  -0.4606430  42498    -29688   14.7  
287   PARKED          U   284  0.0         0.0         261142   -69123   0.0   
288   PARKED          U   283  0.0         0.0         260450   -73288   0.0   
289   PARKED          U   282  0.0         0.0         259471   -77410   0.0   
290   RGBSYAZ032345   P   281  0.23202697  -0.4632141  9543     21708    13.8  
291   GUIDE025        F   300  0.23147720  -0.4505990  180571   10766    12.7  
292   RGBSYAZ028562   P   299  0.22957551  -0.4627964  14295    -7694    14.4  
293   BAGBYAZ004812   P   298  0.22819089  -0.4578834  79645    -26225   14.6  
294   SKY032          S   297  0.23018711  -0.4522487  157122   -4360    99.9  
295   PARKED          U   296  0.0         0.0         269869   -18919   0.0   
296   PARKED          U   295  0.0         0.0         269513   -23165   0.0   
297   BAGBYAZ002679   P   294  0.22995658  -0.4597854  54703    -4287    14.3  
298   RGBSYAZ003702   P   293  0.22857268  -0.4607736  40996    -20458   15.0  
299   PARKED          U   292  0.0         0.0         268647   -35881   0.0   
300   PARKED          U   291  0.0         0.0         268528   -39759   0.0   
301   SKY001          S   310  0.23243349  -0.4524255  155499   22993    99.9  
302   PARKED          U   309  0.0         0.0         269055   36377    0.0   
303   PARKED          U   308  0.0         0.0         269372   32052    0.0   
304   PARKED          U   307  0.0         0.0         269698   27844    0.0   
305   PARKED          U   306  0.0         0.0         270022   23498    0.0   
306   PARKED          U   305  0.0         0.0         270360   19328    0.0   
307   PARKED          U   304  0.0         0.0         270577   15049    0.0   
308   PARKED          U   303  0.0         0.0         270767   10782    0.0   
309   PARKED          U   302  0.0         0.0         270701   6630     0.0   
310   PARKED          U   301  0.0         0.0         270642   2552     0.0   
311   PARKED          U   320  0.0         0.0         258567   81756    0.0   
312   RGBSYAZ032094   P   319  0.23206479  -0.4636709  3449     22323    15.2  
313   AGBSYAZ029428   P   318  0.23068525  -0.4624420  19403    5429     14.5  
314   RGBSYAZ026969   P   317  0.23070416  -0.4632164  9058     5899     15.4  
315   PARKED          U   316  0.0         0.0         262448   65198    0.0   
316   PARKED          U   315  0.0         0.0         263552   61125    0.0   
317   RGBSYAZ027701   P   314  0.23027874  -0.4630570  11045    800      15.2  
318   RGBSYAZ032119   P   313  0.23234186  -0.4636392  3976     25619    15.0  
319   PARKED          U   312  0.0         0.0         266459   48622    0.0   
320   PARKED          U   311  0.0         0.0         267357   44524    0.0   
321   AGBSYAZ028230   P   330  0.22969042  -0.4628993  12954    -6274    14.5  
322   AGBSYAZ025094   P   329  0.23018493  -0.4635292  4708     -158     14.3  
323   PARKED          U   328  0.0         0.0         245891   113489   0.0   
324   PARKED          U   327  0.0         0.0         247407   109627   0.0   
325   PARKED          U   326  0.0         0.0         248970   105667   0.0   
326   RGBSYAZ030421   P   325  0.22984313  -0.4619468  25720    -4807    15.1  
327   RGBSYAZ028604   P   324  0.23114631  -0.4627815  15027    11050    15.0  
328   BBLUYAZ002217   P   323  0.23033982  -0.4616099  30381    988      12.8  
329   BHBSYAZ026863   P   322  0.22982059  -0.4632375  8493     -4614    15.4  
330   RGBSYAZ032767   P   321  0.23185535  -0.4619494  26366    19220    14.7  
331   BBLUSTE001859   P   340  0.23417518  -0.4583574  75315    45842    13.4  
332   PARKED          U   339  0.0         0.0         222873   154403   0.0   
333   PARKED          U   338  0.0         0.0         225129   150828   0.0   
334   PARKED          U   337  0.0         0.0         227235   147063   0.0   
335   PARKED          U   336  0.0         0.0         229491   143367   0.0   
336   RGBSYAZ025607   P   335  0.23094632  -0.4634552  5949     8899     15.4  
337   PARKED          U   334  0.0         0.0         234030   136204   0.0   
338   PARKED          U   333  0.0         0.0         236136   132517   0.0   
339   PARKED          U   331  0.0         0.0         240623   125342   0.0   
340   PARKED          U   332  0.0         0.0         238337   128939   0.0   
341   GUIDE008        F   350  0.23465733  -0.4602602  49882    52204    12.3  
342   BBLUYAZ032280   P   349  0.23265457  -0.4633264  8244     29241    10.2  
343   PARKED          U   348  0.0         0.0         198875   184154   0.0   
344   PARKED          U   347  0.0         0.0         201786   180987   0.0   
345   RHBSSTE001843   P   346  0.23310326  -0.4605515  45488    33677    15.4  
346   PARKED          U   345  0.0         0.0         207227   174399   0.0   
347   RGBSYAZ021600   P   344  0.23017983  -0.4639584  -1010    -72      13.8  
348   BBLUYAZ032000   P   343  0.23245313  -0.4638691  946      27038    12.3  
349   PARKED          U   342  0.0         0.0         215538   164664   0.0   
350   PARKED          U   341  0.0         0.0         218034   161278   0.0   
351   PARKED          U   360  0.0         0.0         161745   218807   0.0   
352   PARKED          U   359  0.0         0.0         164887   215809   0.0   
353   PARKED          U   358  0.0         0.0         167963   212848   0.0   
354   PARKED          U   357  0.0         0.0         171262   210367   0.0   
355   PARKED          U   356  0.0         0.0         174545   207499   0.0   
356   PARKED          U   355  0.0         0.0         177674   204650   0.0   
357   PARKED          U   354  0.0         0.0         180842   201876   0.0   
358   PARKED          U   353  0.0         0.0         184216   199277   0.0   
359   PARKED          U   352  0.0         0.0         187305   196326   0.0   
360   PARKED          U   351  0.0         0.0         190316   193358   0.0   
361   PARKED          U   370  0.0         0.0         125668   241162   0.0   
362   PARKED          U   369  0.0         0.0         129210   238842   0.0   
363   SKY006          S   368  0.24142194  -0.4580665  82017    133934   99.9  
364   PARKED          U   367  0.0         0.0         136409   234373   0.0   
365   PARKED          U   366  0.0         0.0         139931   232071   0.0   
366   PARKED          U   365  0.0         0.0         143664   229907   0.0   
367   PARKED          U   364  0.0         0.0         147232   227650   0.0   
368   PARKED          U   363  0.0         0.0         150863   225306   0.0   
369   PARKED          U   362  0.0         0.0         154386   223190   0.0   
370   PARKED          U   361  0.0         0.0         158041   220877   0.0   
371   PARKED          U   380  0.0         0.0         86091    257714   0.0   
372   PARKED          U   379  0.0         0.0         89977    256008   0.0   
373   PARKED          U   378  0.0         0.0         93945    254321   0.0   
374   PARKED          U   377  0.0         0.0         97993    252724   0.0   
375   PARKED          U   376  0.0         0.0         101836   250997   0.0   
376   BAGBYAZ031344   P   375  0.23202625  -0.4650911  -15530   22368    14.2  
377   PARKED          U   374  0.0         0.0         109742   247853   0.0   
378   PARKED          U   373  0.0         0.0         113779   246270   0.0   
379   PARKED          U   372  0.0         0.0         117606   244643   0.0   
380   PARKED          U   371  0.0         0.0         121241   242883   0.0   
381   BBLUYAZ031429   P   390  0.23280437  -0.4648810  -12463   31578    12.6  
382   BGBSYAZ018774   P   389  0.23133830  -0.4642918  -5064    13869    12.9  
383   PARKED          U   388  0.0         0.0         52930    266239   0.0   
384   PARKED          U   387  0.0         0.0         57073    264951   0.0   
385   PARKED          U   386  0.0         0.0         61239    264128   0.0   
386   RHBSYAZ031888   P   385  0.23375121  -0.4640772  -1405    42614    15.5  
387   PARKED          U   384  0.0         0.0         69376    261828   0.0   
388   PARKED          U   383  0.0         0.0         73387    260717   0.0   
389   PARKED          U   382  0.0         0.0         77564    259878   0.0   
390   BBLUYAZ032440   P   381  0.23415991  -0.4629580  13651    47114    13.4  
391   PARKED          F   400  0.0         0.0         2724     272224   0.0   
392   BBLUSTE001846   P   399  0.23342106  -0.4612904  35711    37728    13.0  
393   AGBSYAZ032013   P   398  0.23283564  -0.4638422  1417     31585    13.8  
394   PARKED          U   397  0.0         0.0         15252    270716   0.0   
395   RGBSYAZ031345   P   396  0.23380794  -0.4650861  -14890   43636    15.5  
396   RGBSYAZ017382   P   395  0.23131575  -0.4644711  -7477    13665    13.9  
397   PARKED          U   394  0.0         0.0         27887    269366   0.0   
398   BBLUYAZ032687   P   393  0.23415119  -0.4622026  23753    46755    12.8  
399   RGBSYAZ031599   P   392  0.23220223  -0.4645713  -8512    24280    14.6  
400   PARKED          U   391  0.0         0.0         40484    268240   0.0   

