id,observed,selected,type,cat,raj2000_2mass,dej2000_2mass,id_gaia_dr2,id_2mass,id_yazan,id_stetson,v,u_v,b,u_b,i,u_i,u,u_u,j,u_j,h,u_h,k,u_k,fei_h,u_fei_h,feii_h,u_feii_h,vel_rad,u_vel_rad,t_eff,u_t_eff,pm_ra,u_pm_ra,pm_de,u_pm_de,pm_speed_from_mean
AGBSYAZ018498,1,1,AGBS,YAZ,13.179058,-26.603914000000003,2342907546187214848,00524297-2636140,18498.0,14239.0,13.74,0.004,14.744000000000002,0.005,12.610999999999999,0.005,-9.301,0.098,11.777999999999999,0.024,11.173,0.024,11.082,0.025,-1.2930000000000001,0.2415698656703689,-1.0590000000000002,0.3098644865098289,-44.4,0.63,4621.58,50,4.128,0.045,-5.737,0.027,0.09258677893926916
AGBSYAZ032013,1,0,AGBS,YAZ,13.340517000000002,-26.576203999999997,2344405360196844544,00532172-2634343,32013.0,29145.0,13.88,0.004,14.879000000000001,0.005,12.765999999999998,0.005,-9.383,0.038,12.095,0.026,11.597000000000001,0.022,11.540999999999999,0.021,,,,,11.33,0.57,,50,33.449,0.040,10.701,0.029,33.52757491969624
AGBSYAZ020908,1,1,AGBS,YAZ,13.198425,-26.587359999999997,2342907584843615360,00524762-2635144,20908.0,18364.0,14.147,0.004,15.073,0.005,13.095999999999998,0.005,-9.296,0.13699999999999998,12.329,0.029,11.789000000000001,0.028,11.667,0.023,-1.245,0.172754160586656,-1.4069999999999998,0.183109257002479,-43.7,0.2,4773.24,50,4.090,0.040,-5.511,0.030,0.18389154713589606
AGBSYAZ017762,1,1,AGBS,YAZ,13.207831,-26.609403999999998,2342904561186653568,00524987-2636338,17762.0,20303.0,14.139000000000001,0.004,15.058,0.005,13.097000000000001,0.005,-9.401,0.040999999999999995,12.331,0.023,11.845,0.025,11.734000000000002,0.023,-1.24,0.06896375859826699,-1.206,0.08845903006477099,-46.03,0.37,4841.21,50,4.144,0.052,-5.734,0.033,0.08057357574312604
AGBSYAZ020268,1,1,AGBS,YAZ,13.185315,-26.591821999999997,2342907546187248000,00524447-2635305,20268.0,15586.0,14.14,0.004,15.049000000000001,0.005,13.102,0.005,-9.487,-0.037000000000000005,12.380999999999998,0.026,11.82,0.024,11.745,0.025,-1.297,0.101607086367044,-1.215,0.06462197768561401,-43.33,0.63,4850.47,50,4.159,0.044,-5.725,0.033,0.06528154452371399
AGBSYAZ016610,1,1,AGBS,YAZ,13.227506,-26.619019,2342904355028294784,00525460-2637084,16610.0,23449.0,14.052999999999999,0.004,14.96,0.005,13.01,0.005,-9.381,0.049,12.275,0.024,11.78,0.025,11.648,0.023,-1.2570000000000001,0.071021123618259,-1.219,0.076837490849194,-49.57,0.8,4841.21,50,4.286,0.044,-5.594,0.030,0.12187049231666774
AGBSYAZ024850,1,1,AGBS,YAZ,13.170862,-26.560501000000002,2342907855424884864,00524100-2633378,24850.0,12572.0,13.949000000000002,0.004,14.856,0.005,12.907,0.005,-9.452,-0.025,12.152999999999999,0.024,11.597000000000001,0.025,11.489,0.021,-1.3940000000000001,0.22996521476084106,-1.172,0.21744194627532198,-45.13,0.6,4791.12,50,4.154,0.039,-5.566,0.027,0.10617064740874138
AGBSSTE001793,1,0,AGBS,STE,13.19364,-26.779365999999996,2342713280521035008,00524647-2646457,,17350.0,14.287,0.0021,15.190999999999999,0.0034,13.337,0.0052,15.821,0.0193,12.638,0.023,12.175,0.027,12.054,0.026,,,,,21.33,0.47,,50,-0.411,0.047,-5.333,0.031,4.611158696267206
AGBSYAZ030871,1,0,AGBS,YAZ,13.404077,-26.723416999999998,2342714586191130368,00533697-2643243,30871.0,29772.0,14.625,0.005,15.489,0.006,13.785,0.006999999999999999,-9.467,0.025,13.411,0.023,13.04,0.022,12.937999999999999,0.027,,,,,-1.87,0.43,,50,16.240,0.059,-5.679,0.039,12.051927480525462
AGBSYAZ024529,1,1,AGBS,YAZ,13.153726,-26.562959999999997,2342907894081112064,00523689-2633466,24529.0,9590.0,14.362,0.004,15.205,0.005,13.368,0.005,-9.418,0.042,12.629000000000001,0.043,12.116,0.041,11.907, ,-1.4080000000000001,0.259044397739075,-1.156,0.21168136431911105,-46.33,0.53,4795.61,50,4.110,0.042,-5.685,0.031,0.0802285948014969
AGBSYAZ028230,1,1,AGBS,YAZ,13.160303,-26.522178999999998,2342908890513635968,00523847-2631198,28230.0,10625.0,14.549000000000001,0.004,15.335,0.005,13.610999999999999,0.005,-9.45,0.027000000000000003,12.888,0.027,12.448,0.022,12.347000000000001,0.029,-1.219,0.203066491573573,-1.025,0.41832523232528096,-42.17,0.43,5038.67,50,4.249,0.047,-5.615,0.032,0.07980631852462658
AGBSYAZ029428,1,1,AGBS,YAZ,13.217295000000002,-26.495981,2342908615635797376,00525215-2629455,29428.0,22035.0,14.585999999999999,0.004,15.362,0.005,13.655999999999999,0.005,-9.399,0.076,12.942,0.03,12.514000000000001,0.029,12.492,0.03,-1.112,0.184054339802135,-0.938000000000001,0.220327029662727,-45.0,0.87,5152.54,50,4.240,0.041,-5.661,0.031,0.0522171181110433
AGBSYAZ024409,1,1,AGBS,YAZ,13.220849,-26.563833000000002,2342907722282622336,00525300-2633497,24409.0,22529.0,14.664000000000001,0.004,15.427999999999999,0.005,13.751,0.005,-9.425,0.059000000000000004,13.067,0.028,12.617,0.03,12.530999999999999,0.029,-1.016,0.14136477637657802,-1.1440000000000001,0.07049113419430901,-45.37,0.67,5110.67,50,4.141,0.048,-5.750,0.035,0.0958117455311064
AGBSYAZ022288,0,0,AGBS,YAZ,13.222767000000001,-26.578381,2342904763048461184,00525346-2634421,22288.0,22817.0,14.567,0.004,15.317,0.006,13.638,0.005,-9.201,0.25,12.948,0.024,12.509,0.03,12.388,0.027,,,,,,,,50,4.192,0.054,-5.609,0.044,0.057686047319968875
AGBSYAZ025015,0,0,AGBS,YAZ,13.228782999999998,-26.558989,2342908100239743616,00525490-2633323,25015.0,23626.0,14.325,0.004,15.075,0.005,13.423,0.005,-9.452,0.0,12.773,0.028,12.279000000000002,0.027,12.215,0.027,,,,,,,,50,4.204,0.042,-5.779,0.031,0.11356888034015895
AGBSYAZ005536,1,0,AGBS,YAZ,12.822774,-26.407353999999998,2342971631395738624,00511746-2624264,5536.0,1071.0,14.11,0.006999999999999999,14.842,0.012,13.389000000000001,0.008,-7.5379999999999985,1.702,13.0,0.026,12.67,0.027,12.649000000000001,0.027,,,,,10.13,0.67,,50,0.886,0.039,-5.723,0.029,3.302561381724101
AGBSYAZ025094,1,1,AGBS,YAZ,13.188614000000001,-26.558271,2342907958504111360,00524526-2633297,25094.0,16309.0,14.356,0.004,15.083,0.005,13.467,0.005,-9.46,-0.006,12.805,0.022,12.380999999999998,0.028,12.28,0.026,-1.247,0.3501785258978631,-0.902,0.393600050813005,-45.47,0.87,5172.17,50,4.235,0.044,-5.517,0.030,0.1567404695419906
BAGBYAZ014218,1,1,BAGB,YAZ,13.130410000000001,-26.650232,2342905518961521152,00523129-2639008,14218.0,6714.0,14.597000000000001,0.004,15.288,0.005,13.734000000000002,0.005,-9.539,-0.055999999999999994,13.097999999999999,0.032,12.693,0.038,12.600999999999999,0.034,-1.2,0.077466121627457,-1.151,0.067535176019612,-43.8,0.87,5261.74,50,4.236,0.051,-5.645,0.034,0.05254467825856782
BAGBYAZ018557,0,0,BAGB,YAZ,13.161119,-26.603464000000002,2342906141734509056,00523866-2636124,18557.0,10764.0,14.41,0.004,15.09,0.005,13.558,0.005,-9.447000000000001,0.008,12.98,0.023,12.552999999999999,0.025,12.469000000000001,0.026,,,,,,,,50,4.241,0.047,-5.665,0.032,0.05294382378006204
BAGBYAZ009411,1,0,BAGB,YAZ,13.036122,-26.531340000000004,2342919404593444480,00520866-2631528,9411.0,3089.0,14.867,0.004,15.547,0.006,14.103,0.006,-9.365,0.127,13.567,0.029,13.2,0.035,13.209000000000001,0.034,,,,,22.0,0.47,,50,24.096,0.051,-1.802,0.036,20.279548507796108
BAGBYAZ007913,1,0,BAGB,YAZ,12.988531,-26.67725200000001,2342900094420468224,00515724-2640381,7913.0,2540.0,14.710999999999999,0.004,15.376,0.006,13.945,0.005,-9.219,0.242,13.474,0.036,13.073,0.037,13.003,0.046,,,,,-3.7,0.53,,50,12.406,0.055,-3.874,0.035,8.411151607495013
BAGBYAZ014802,1,0,BAGB,YAZ,13.151419,-26.640466999999997,2342905935576108928,00523634-2638256,14802.0,9255.0,14.588,0.004,15.239,0.005,13.880999999999998,0.005,-9.532,-0.053,13.421,0.032,13.095999999999998,0.035,13.125,0.045,,,,,-23.7,0.4,,50,1.417,0.052,-4.133,0.034,3.167122070014226
BAGBYAZ004812,1,0,BAGB,YAZ,13.074386,-26.234790999999998,2344429034056571776,00521785-2614052,4812.0,3895.0,14.693,0.004,15.344000000000001,0.006,13.927,0.005,-9.767999999999999,-0.256,13.456,0.024,13.059000000000001,0.03,13.093,0.033,,,,,66.27,0.5,,50,7.757,0.051,-12.876,0.036,8.044459511859706
BAGBYAZ031344,1,0,BAGB,YAZ,13.294134,-26.647762,2342903392955627648,00531059-2638519,31344.0,28246.0,14.231,0.004,14.874,0.005,13.488,0.005,-9.374,0.053,13.116,0.03,12.741,0.023,12.767000000000001,0.026,,,,,28.67,0.3,,50,-7.452,0.058,-8.125,0.036,11.896865190640176
BAGBYAZ003778,1,0,BAGB,YAZ,13.052364,-26.392899,2342925688128288000,00521256-2623344,3778.0,3381.0,14.716,0.004,15.355,0.006,13.995,0.005,-9.201,0.257,13.464,0.023,13.122,0.028,13.115,0.04,,,,,-13.93,0.33,,50,-16.535,0.048,-15.837,0.035,23.08428038152125
BAGBYAZ002679,1,0,BAGB,YAZ,13.175521,-26.343763,2344424395491894912,00524212-2620375,2679.0,13532.0,14.302999999999999,0.004,14.912,0.005,13.581,0.006,-9.378,0.054000000000000006,13.07,0.024,12.777000000000001,0.027,12.72,0.03,,,,,17.3,0.53,,50,8.576,0.039,-3.743,0.032,4.791023470051228
BAGBYAZ031029,1,0,BAGB,YAZ,13.373739000000002,-26.699839,2342714929788498816,00532969-2641594,31029.0,29509.0,14.458,0.004,15.036,0.005,13.764000000000001,0.005,-9.368,0.076,13.491,0.026,13.213,0.029,13.120999999999999,0.024,,,,,22.17,0.23,,50,3.941,0.057,-1.035,0.038,4.638138396524899
BAGBYAZ005721,1,0,BAGB,YAZ,12.950377,-26.346103999999997,2342926723217710976,00514809-2620459,5721.0,2135.0,14.252,0.006,14.818,0.009000000000000001,13.565,0.008,-9.066,0.327,13.093,0.024,12.784,0.032,12.777999999999999,0.032,-0.7100000000000011,0.9139715531678207,-1.6219999999999999,0.06,-35.87,0.8,5958.26,50,0.825,0.038,-22.962,0.030,17.619387040418154
BAGBYAZ027546,1,0,BAGB,YAZ,13.160047,-26.53320900000001,2342908787434422016,00523841-2631595,27546.0,10582.0,14.210999999999999,0.004,14.76,0.005,13.550999999999998,0.006,-9.4,0.02,13.052999999999999,0.026,12.775,0.023,12.722999999999999,0.032,,,,,30.9,0.63,,50,21.958,0.042,-8.358,0.030,17.972589773144538
BAGBSTE001797,1,0,BAGB,STE,13.203458,-26.777939,2342713280521035136,00524882-2646405,,19374.0,14.24,0.0024,14.770999999999999,0.0061,13.607000000000001,0.0049,14.707,0.0146,13.17,0.024,12.865,0.028,12.86,0.034,,,,,4.4,0.4,,50,-0.275,0.047,-13.194,0.032,8.751087793799824
BAGBYAZ015845,0,0,BAGB,YAZ,13.209660999999999,-26.626692,2342904526826920704,00525031-2637360,15845.0,20642.0,14.224,0.004,14.751,0.005,13.540999999999999,0.005,-9.125,0.268,13.044,0.026,12.761,0.027,12.681,0.03,,,,,,,,50,9.111,0.047,-8.542,0.031,5.701170867374767
BAGBSTE001706,1,0,BAGB,STE,12.948008,-26.539768,2342919919989518336,00514752-2632231,,2104.0,14.177,0.0015,14.686,0.0066,13.554,0.0053,14.642,0.0078,13.095,0.024,12.864,0.026,12.815999999999999,0.033,,,,,29.97,0.6,,50,-0.737,0.047,-1.539,0.031,6.4259702274649495
BAGBSTE001701,1,0,BAGB,STE,12.931889,-26.46357,2342923390323091584,00514365-2627488,,1979.0,14.133,0.0026,14.655,0.0042,13.519,0.0064,14.616,0.0076,13.065,0.024,12.860999999999999,0.03,12.75,0.033,,,,,17.5,0.47,,50,12.275,0.044,-5.445,0.030,8.089955357111396
BBLUYAZ006797,1,0,BBLU,YAZ,12.806046,-26.651388,2342911742371767168,00511345-2639049,6797.0,928.0,13.339,0.009000000000000001,14.324000000000002,0.012,12.304,0.009000000000000001,-10.261,-0.8079999999999999,11.732000000000001,0.023,11.285,0.024,11.216,0.023,,,,,28.27,0.6,,50,14.504,0.039,-39.370,0.025,35.24685222371007
BBLUYAZ009540,1,0,BBLU,YAZ,13.072191,-26.516696999999997,2342919335873968000,00521732-2631001,9540.0,3836.0,11.514000000000001,0.005,12.494000000000002,0.006,10.44,0.006,-8.963,0.18,9.672,0.022,9.136000000000001,0.024,9.01,0.021,,,,,-12.23,0.6,,50,20.799,0.062,3.070,0.042,18.76832571384853
BBLUYAZ002445,1,0,BBLU,YAZ,13.134857,-26.408394,2342921809775325952,00523236-2624302,2445.0,7169.0,13.118,0.004,13.987,0.006999999999999999,12.079,0.006999999999999999,-8.936,0.355,11.398,0.023,10.907,0.028,10.792,0.023,,,,,-13.23,0.57,,50,4.375,0.054,-10.323,0.043,4.6601975896728085
BBLUYAZ032000,1,0,BBLU,YAZ,13.318567000000002,-26.577744,2342904217589341056,00531645-2634398,32000.0,,12.392000000000001,0.004,13.26,0.005,11.45,0.006,-9.205,0.04,10.92,0.024,10.475,0.022,10.392999999999999,0.019,,,,,43.97,0.6,,50,-32.696,0.060,-120.425,0.046,120.5401863371978
BBLUYAZ002999,1,0,BBLU,YAZ,13.123456,-26.246056,2344428862257880448,00522962-2614458,2999.0,,11.953,0.006999999999999999,12.759,0.008,11.014000000000001,0.008,-7.898,1.17,10.475,0.023,10.033,0.026,9.942,0.019,,,,,-3.57,0.67,,50,112.078,0.057,-4.243,0.042,107.89931217036532
BBLUYAZ002217,1,0,BBLU,YAZ,13.197516,-26.44830300000001,2344410926474455552,00524740-2626538,2217.0,18183.0,12.83,0.005,13.617,0.006,11.978,0.006,-9.015,0.249,11.380999999999998,0.026,11.040999999999999,0.025,10.97,0.023,,,,,29.93,0.53,,50,9.290,0.053,-17.577,0.042,12.95717387948519
BBLUSTE001833,1,0,BBLU,STE,13.32051,-26.803532,2342712382872793600,00531692-2648127,,28854.0,13.637,0.0023,14.443,0.006999999999999999,12.773,0.0079,14.832,0.0341,12.116,0.026,11.739,0.022,11.609000000000002,0.021,,,,,3.77,0.4,,50,29.850,0.044,-36.408,0.032,40.044609854722
BBLUYAZ031296,1,0,BBLU,YAZ,13.295094,-26.655401,2342903289876412672,00531082-2639194,31296.0,,12.689,0.004,13.425999999999998,0.005,11.901,0.005,-9.222000000000001,0.044000000000000004,11.488,0.029,11.17,0.023,11.09,0.023,,,,,19.7,0.67,,50,52.805,0.072,-16.423,0.052,49.79263171019808
BBLUYAZ032779,0,0,BBLU,YAZ,13.290157999999998,-26.467365,2344409930042044544,00530963-2628025,32779.0,28120.0,11.075,0.006,11.761,0.019,10.495,0.006999999999999999,-8.808,0.253,10.185,0.03,9.902999999999999,0.029,9.852,0.027,,,,,,,,50,3.834,0.062,18.840,0.052,24.509110424193665
BBLUYAZ032440,1,0,BBLU,YAZ,13.416360000000001,-26.525545,2344405841233185408,00533992-2631319,32440.0,29873.0,13.482000000000001,0.005,14.154000000000002,0.006999999999999999,12.681,0.006,-9.272,0.073,12.267999999999999,0.027,12.042,0.024,11.957,0.026,,,,,-2.9,0.5,,50,12.655,0.036,11.459,0.027,19.10427452295628
BBLUYAZ031174,1,0,BBLU,YAZ,13.314661,-26.676237,2342715548263788416,00531551-2640344,31174.0,28746.0,11.581,0.005,12.228,0.006,10.852,0.006,-9.07,0.065,10.535,0.026,10.172,0.022,10.156,0.021,,,,,16.0,0.37,,50,-16.043,0.081,-24.112,0.058,27.377565340910877
BBLUYAZ009728,1,0,BBLU,YAZ,13.113629999999999,-26.491796,2342920882062193792,00522727-2629304,9728.0,5475.0,13.402000000000001,0.005,14.039000000000001,0.009000000000000001,12.640999999999998,0.006999999999999999,-8.818999999999997,0.47,12.058,0.023,11.703,0.026,11.648,0.021,,,,,36.27,0.53,,50,0.119,0.038,-10.181,0.030,6.077634286641529
BBLUYAZ032280,1,0,BBLU,YAZ,13.330129999999999,-26.546652,2344406219190302976,00531923-2632479,32280.0,29000.0,10.196,0.005,10.796,0.006999999999999999,9.587,0.006999999999999999,-8.801,0.166,9.321,0.026,9.05,0.022,8.982999999999997,0.019,,,,,1.87,0.33,,50,25.499,0.106,-10.814,0.087,21.923767252052297
BBLUSTE001859,1,0,BBLU,STE,13.417235999999999,-26.261946000000002,2344419825646713216,00534013-2615430,,29883.0,13.46,0.0023,14.038,0.003,12.659,0.0067,,,12.252,0.029,12.007,0.024,11.925,0.026,,,,,12.77,0.4,,50,50.644,0.044,-6.963,0.026,46.47400753784229
BBLUYAZ003748,1,0,BBLU,YAZ,12.957472000000001,-26.396679,2342924764712758528,00514979-2623480,3748.0,2218.0,12.542,0.006,13.120999999999999,0.006999999999999999,11.889000000000001,0.006999999999999999,-9.402999999999999,-0.145,11.470999999999998,0.023,11.175999999999998,0.024,11.112,0.021,,,,,-17.13,0.37,,50,5.335,0.055,-28.279,0.041,22.64151505289745
BBLUYAZ032687,1,0,BBLU,YAZ,13.415885000000001,-26.482262,2344407623644034944,00533981-2628561,32687.0,29869.0,12.808,0.005,13.385,0.008,12.061,0.006999999999999999,-8.905,0.32899999999999996,11.75,0.03,11.459000000000001,0.024,11.352,0.021,,,,,21.6,0.4,,50,1.599,0.056,-45.715,0.046,40.132050363978394
BBLUYAZ031429,1,0,BBLU,YAZ,13.338729,-26.635721000000004,2342716059364222592,00532129-2638085,31429.0,29121.0,12.654000000000002,0.004,13.227,0.005,11.989,0.005,-9.177999999999999,0.068,11.677999999999999,0.024,11.379000000000001,0.022,11.367,0.021,,,,,13.33,0.37,,50,-2.144,0.542,12.541,0.583,19.277193691702735
BBLUSTE001846,1,0,BBLU,STE,13.374022,-26.429997999999998,2344408761810945792,00532976-2625479,,29523.0,12.992,0.002,13.599,0.0156,12.345999999999998,0.0048,13.601,0.0196,11.905,0.026,11.589,0.023,11.549000000000001,0.021,,,,,20.0,0.37,,50,22.580,0.049,-7.374,0.040,18.47100799962364
BBLUYAZ008876,1,0,BBLU,YAZ,13.080649000000001,-26.577696000000003,2342907275605811584,00521935-2634397,8876.0,4074.0,12.477,0.004,12.979000000000001,0.006,11.863,0.005,-9.247,-0.017,11.422,0.021,11.15,0.021,11.103,0.025,,,,,-2.83,0.5,,50,-5.299,0.075,-1.301,0.045,10.443309663736251
BBLUYAZ009552,0,0,BBLU,YAZ,13.069717,-26.515606,2342919335873967488,00521673-2630561,9552.0,3779.0,13.181,0.004,13.679,0.005,12.562000000000001,0.005,-8.825,0.4320000000000001,12.073,0.04,11.797,0.059,11.735,0.04,,,,,,,,50,10.811,0.051,8.182,0.038,15.350748947820193
BBLUYAZ009677,1,0,BBLU,YAZ,13.019652,-26.49975,2342920224929486464,00520471-2629591,9677.0,2881.0,13.63,0.006,14.081,0.006999999999999999,13.058,0.009000000000000001,-7.478,1.6869999999999998,12.487,0.024,12.232999999999999,0.03,12.175,0.027,,,,,-12.17,0.53,,50,8.857,0.118,-6.071,0.082,4.6864060290940515
BGBSYAZ025188,0,0,BGBS,YAZ,13.171357999999998,-26.557552,2342907928440967296,00524112-2633271,25188.0,12662.0,12.591,0.004,14.314,0.005,10.747,0.006999999999999999,-9.457,-0.10099999999999999,9.693,0.024,8.818999999999997,0.04,8.589,0.023,,,,,,,,50,4.203,0.058,-5.683,0.042,0.022207065083260282
BGBSYAZ016112,0,0,BGBS,YAZ,13.1927,-26.623901,2342903045061492224,00524624-2637260,16112.0,17176.0,12.845,0.004,14.315,0.005,11.294,0.005,-9.439,-0.079,10.237,0.023,9.488,0.024,9.337,0.025,,,,,,,,50,4.141,0.062,-5.632,0.045,0.05839787354304168
BGBSYAZ018774,1,1,BGBS,YAZ,13.25472,-26.601963,2342904492467246592,00530113-2636070,18774.0,26287.0,12.982999999999999,0.004,14.377,0.005,11.526,0.006,-9.351,0.008,10.57,0.024,9.799,0.024,9.617,0.021,-1.28,0.60697281652476,-0.6759999999999999,0.723492225251937,-39.27,0.83,4128.13,50,4.277,0.057,-5.659,0.043,0.08924122278899603
BGBSYAZ016946,0,0,BGBS,YAZ,13.180375,-26.61589600000001,2342903118077555840,00524329-2636572,16946.0,14494.0,13.01,0.004,14.347999999999999,0.005,11.605,0.005,-9.434,-0.068,10.628,0.023,9.896,0.024,9.77,0.025,,,,,,,,50,4.142,0.063,-5.693,0.043,0.05312939569561001
BGBSYAZ018807,0,0,BGBS,YAZ,13.243548,-26.601723,2342904488170510592,00525845-2636062,18807.0,25357.0,13.202,0.004,14.503,0.005,11.827,0.005,-9.397,-0.019,10.892000000000001,0.024,10.186,0.025,10.011000000000001,0.021,,,,,,,,50,4.246,0.056,-5.746,0.042,0.09831954376918453
BGBSYAZ020675,0,0,BGBS,YAZ,13.220298000000001,-26.588942,2342904732985400704,00525287-2635201,20675.0,22456.0,13.222999999999999,0.004,14.497,0.005,11.883,0.005,-9.426,-0.045,10.905,0.024,10.197000000000001,0.027,10.075,0.023,,,,,,,,50,4.166,0.060,-5.596,0.047,0.0739266781318641
BGBSYAZ009280,1,1,BGBS,YAZ,13.089655,-26.544959999999996,2342907481764234368,00522151-2632418,9280.0,4364.0,13.477,0.004,14.665999999999999,0.006,12.18,0.005,-9.347999999999999,0.044000000000000004,11.220999999999998,0.024,10.578,0.026,10.402000000000001,0.023,-1.3459999999999999,0.13955644019535599,-1.22,0.363979395021202,-47.47,0.73,4312.27,50,4.121,0.038,-5.704,0.026,0.07682376313171249
BGBSYAZ018887,0,0,BGBS,YAZ,13.218782999999998,-26.601158,2342904659969201024,00525250-2636041,18887.0,22238.0,13.515999999999998,0.004,14.692,0.005,12.253,0.005,-9.308,0.083,11.368,0.024,10.675,0.025,10.552999999999999,0.023,,,,,,,,50,4.044,0.036,-5.748,0.026,0.16550654638867654
BGBSYAZ019473,0,0,BGBS,YAZ,13.192748000000002,-26.597057,2342907580546992128,00524625-2635494,19473.0,17189.0,13.562999999999999,0.004,14.738,0.005,12.309000000000001,0.005,-9.419,-0.013000000000000001,11.41,0.024,10.729000000000001,0.027,10.622,0.025,,,,,,,,50,4.149,0.037,-5.646,0.025,0.0441539895393819
BGBSYAZ022433,0,0,BGBS,YAZ,13.21998,-26.577454,2342904763048460416,00525279-2634388,22433.0,22418.0,13.627,0.004,14.784,0.005,12.378,0.005,-9.429,-0.017,11.51,0.024,10.798,0.024,10.674000000000001,0.023,,,,,,,,50,4.238,0.036,-5.683,0.028,0.05256070227672628
BGBSYAZ023085,0,0,BGBS,YAZ,13.167472,-26.573151,2342907859721395072,00524019-2634233,23085.0,11883.0,13.54,0.004,14.695,0.005,12.270999999999999,0.005,-9.321,0.07200000000000001,11.373,0.026,10.690999999999999,0.027,10.545,0.023,,,,,,,,50,4.224,0.036,-6.007,0.025,0.34233716229322925
BGBSYAZ012027,1,1,BGBS,YAZ,13.206557,-26.702971,2342901778047787264,00524957-2642106,12027.0,20035.0,13.834000000000001,0.004,14.977,0.005,12.617,0.006,-9.43,0.002,11.788, ,11.175999999999998,0.03,11.05, ,-1.21,0.073817342135842,-1.253,0.27073234014428305,-45.17,0.7,4521.77,50,4.251,0.043,-5.702,0.029,0.07221893652113512
BGBSYAZ020219,0,0,BGBS,YAZ,13.16209,-26.592153999999997,2342906141734490880,00523890-2635317,20219.0,10929.0,13.71,0.004,14.828,0.005,12.472000000000001,0.005,-9.329,0.079,11.609000000000002,0.024,10.923,0.024,10.802,0.021,,,,,,,,50,4.346,0.040,-5.763,0.026,0.1850436536053368
BGBSYAZ020943,0,0,BGBS,YAZ,13.194732,-26.587133,2342907584843612800,00524673-2635136,20943.0,17602.0,13.735,0.004,14.82,0.005,12.533,0.006,-9.171,0.221,11.657,0.026,11.01,0.027,10.857000000000001,0.023,,,,,,,,50,4.217,0.035,-5.665,0.026,0.028962699289576493
BHBSYAZ017555,0,0,BHBS,YAZ,13.178354,-26.610994,2342906073015051520,00524280-2636395,17555.0,14072.0,15.312999999999999,0.004,15.482999999999999,0.005,15.039000000000001,0.006999999999999999,-9.243,0.242,14.86,0.049,14.644,0.064,14.619000000000002,0.104,,,,,,,,50,4.858,0.139,-5.608,0.096,0.6724750013374642
BHBSYAZ016725,0,0,BHBS,YAZ,13.160801999999999,-26.618154999999998,2342906038655311616,00523859-2637053,16725.0,10713.0,15.323,0.004,15.472000000000001,0.005,15.071,0.006,-9.475,0.032,14.835,0.044,14.67,0.068,14.706,0.101,,,,,,,,50,4.255,0.075,-5.557,0.050,0.12837525607059555
BHBSYAZ014452,1,0,BHBS,YAZ,13.224697,-26.646057,2342904251949017088,00525392-2638458,14452.0,23067.0,15.395999999999999,0.004,15.527999999999999,0.005,15.192,0.006,-9.474,0.039,15.034,0.045,14.993,0.079,14.95,0.138,,,,,,,,50,4.237,0.083,-5.737,0.058,0.08576771600102889
BHBSYAZ025621,0,0,BHBS,YAZ,13.197698999999998,-26.553971999999998,2342907992863856640,00524744-2633142,25621.0,18219.0,15.333,0.004,15.458,0.005,15.120999999999999,0.006,-9.471,0.035,14.932,0.045,14.755,0.071,14.873,0.125,,,,,,,,50,4.470,0.071,-5.578,0.052,0.2955013510569009
BHBSYAZ020468,0,0,BHBS,YAZ,13.196232,-26.590326,2342907580546994816,00524709-2635251,20468.0,17876.0,15.35,0.004,15.468,0.005,15.144,0.006,-9.34,0.154,14.856,0.054,14.841,0.085,14.847000000000001,0.126,,,,,,,,50,4.417,0.080,-5.577,0.059,0.2458139991145017
BHBSYAZ015315,1,0,BHBS,YAZ,13.213085000000001,-26.632944000000002,2342904320668491904,00525114-2637585,15315.0,21299.0,15.414000000000001,0.004,15.513,0.005,15.239,0.006,-9.432,0.076,15.071,0.058,14.989,0.091,15.229000000000001,0.184,,,,,,,,50,4.283,0.113,-5.561,0.070,0.14195550100622362
BHBSYAZ016124,0,0,BHBS,YAZ,13.163001999999999,-26.623808,2342906038655316864,00523912-2637257,16124.0,11089.0,15.347999999999999,0.004,15.439,0.005,15.17,0.006999999999999999,-9.373,0.122,14.994000000000002,0.044,14.854000000000001,0.075,14.735,0.121,,,,,,,,50,1.729,0.300,-6.105,0.169,2.4978601570676315
BHBSYAZ017595,1,0,BHBS,YAZ,13.12982,-26.61068,2342906210453970944,00523115-2636384,17595.0,6670.0,15.544,0.004,15.635,0.005,15.374,0.006,-9.385,0.131,15.205,0.044,15.062999999999999,0.111,14.957,0.162,,,,,229.1,357.3,,50,4.281,0.091,-5.645,0.063,0.09538782915099013
BHBSYAZ017699,1,0,BHBS,YAZ,13.155595000000002,-26.609884,2342906103078199936,00523734-2636355,17699.0,9869.0,15.363,0.004,15.449000000000002,0.005,15.195,0.006,-9.536,-0.024,14.969000000000001,0.082,14.942,0.105,14.880999999999998,0.142,,,,,46.37,286.83,,50,4.250,0.085,-5.618,0.058,0.07868656042961683
BHBSYAZ023018,1,0,BHBS,YAZ,13.147782000000001,-26.573584000000004,2342907894081122560,00523546-2634249,23018.0,8743.0,15.482999999999999,0.004,15.561,0.005,15.341,0.006,-9.402000000000001,0.10800000000000001,15.017999999999999,0.068,15.04,0.138,15.104000000000001,0.165,,,,,-12.6,124.8,,50,4.275,0.082,-5.657,0.063,0.08744439467835967
BHBSYAZ021934,0,0,BHBS,YAZ,13.177881,-26.580646999999995,2342907653562974464,00524269-2634503,21934.0,13981.0,15.513,0.004,15.572000000000001,0.005,15.399000000000001,0.006,-9.52,0.003,15.357000000000001,0.075,15.21,0.107,15.424000000000001,0.208,,,,,,,,50,4.297,0.086,-5.632,0.065,0.11427020633306564
BHBSYAZ015231,0,0,BHBS,YAZ,13.211575,-26.634173999999998,2342904320668416512,00525077-2638030,15231.0,21020.0,15.350999999999999,0.004,15.390999999999998,0.005,15.261,0.006,-9.412,0.083,15.186,0.06,15.081,0.105,15.25,0.163,,,,,,,,50,4.283,0.098,-5.726,0.069,0.11199998145033427
BHBSYAZ022830,1,0,BHBS,YAZ,13.218836999999999,-26.574972,2342907722281113984,00525252-2634298,22830.0,22251.0,15.592,0.004,15.632,0.005,15.508,0.006,-9.451,0.07200000000000001,15.349,0.081,15.595999999999998,0.176,14.585999999999999, ,,,,,114.07,329.67,,50,4.242,0.092,-5.703,0.076,0.06508371979010802
BHBSYAZ024480,0,0,BHBS,YAZ,13.169907,-26.563307000000002,2342907855424884224,00524077-2633479,24480.0,12382.0,15.585999999999999,0.004,15.616,0.005,15.497,0.006,-9.318,0.19,15.378,0.109,15.474,0.157,14.960999999999999,0.149,,,,,,,,50,4.272,0.083,-5.565,0.061,0.13174095815425638
BHBSYAZ026863,1,0,BHBS,YAZ,13.167757,-26.541555,2342908787434423040,00524026-2632295,26863.0,11942.0,15.395999999999999,0.004,15.423,0.005,14.927,0.006,-9.241,0.24100000000000002,14.508,0.052,14.038, ,13.864, ,,,,,-26.8,92.47,,50,4.217,0.066,-5.809,0.049,0.1453536379159516
BHBSYAZ019581,1,0,BHBS,YAZ,13.133625,-26.596290999999997,2342906313533174528,00523207-2635466,19581.0,7050.0,15.577,0.004,15.600999999999999,0.005,15.504000000000001,0.006,-9.511000000000001,0.015,15.478,0.06,15.568,0.161,15.03,0.149,,,,,,,,50,4.220,0.089,-5.569,0.060,0.10264243532324173
BHBSYAZ020642,0,0,BHBS,YAZ,13.190979,-26.589157,2342907584841769984,00524583-2635209,20642.0,16819.0,15.585,0.004,15.593,0.005,15.525,0.006,-9.242,0.257,15.470999999999998,0.093,15.418,0.152,15.454,0.247,,,,,,,,50,4.266,0.082,-5.558,0.061,0.13362396591153824
RGBSYAZ032345,1,1,RGBS,YAZ,13.294156,-26.540215000000003,2344406459708471040,00531059-2632247,32345.0,28249.0,13.882,0.004,14.985,0.005,12.675999999999998,0.005,-9.378,0.05,11.86,0.029,11.210999999999999,0.022,11.11,0.019,-1.272,0.102415819090607,-1.189,0.290268840904428,-44.73,0.53,4531.02,50,4.182,0.039,-5.687,0.029,0.02133186528305275
RGBSYAZ017382,1,1,RGBS,YAZ,13.253422,-26.612240000000003,2342904423747772416,00530082-2636440,17382.0,26189.0,13.959000000000001,0.004,15.039000000000001,0.005,12.783,0.005,-9.386000000000001,0.049,11.965,0.024,11.34,0.027,11.229000000000001,0.021,-1.194,0.08072174428244201,-1.248,0.151396829557293,-42.53,0.63,4563.82,50,4.287,0.040,-5.677,0.029,0.09947121272340376
RGBSYAZ024406,0,0,RGBS,YAZ,13.166595999999998,-26.563854,2342907855424881152,00523998-2633498,24406.0,11715.0,13.947000000000001,0.004,15.027000000000001,0.005,12.745,0.005,-9.472999999999999,-0.031,11.842,0.029,11.195,0.024,11.085999999999999,0.023,,,,,,,,50,4.185,0.038,-5.625,0.027,0.04166654662955966
RGBSYAZ023430,0,0,RGBS,YAZ,13.208888,-26.57077,2342907722282623744,00525013-2634147,23430.0,20505.0,13.888,0.004,14.966,0.005,12.700999999999999,0.005,-9.445,-0.011000000000000001,11.839,0.024,11.200999999999999,0.024,11.095,0.023,,,,,,,,50,4.386,0.038,-5.587,0.029,0.21331048794170349
RGBSYAZ021600,1,1,RGBS,YAZ,13.188315,-26.582857,2342907653563082368,00524519-2634582,21600.0,16244.0,13.892999999999999,0.004,14.965,0.005,12.719000000000001,0.005,-9.435,-0.002,11.839,0.026,11.207,0.025,11.104000000000001,0.023,-1.249,0.08772684879784501,-1.185,0.236729803784821,-42.73,0.6,4517.93,50,4.156,0.038,-5.672,0.028,0.0325381727664697
RGBSYAZ020982,0,0,RGBS,YAZ,13.177183,-26.586908,2342907614906719104,00524252-2635128,20982.0,13847.0,13.898,0.004,14.962,0.005,12.725,0.005,-9.352,0.07200000000000001,11.867,0.024,11.222999999999999,0.024,11.125,0.021,,,,,,,,50,4.209,0.038,-5.653,0.027,0.024927179261359376
RGBSYAZ021904,1,1,RGBS,YAZ,13.237182999999998,-26.580885,2342904698625661824,00525692-2634511,21904.0,24658.0,14.056,0.004,15.109000000000002,0.005,12.898,0.005,-9.478,-0.026000000000000002,12.064,0.023,11.421,0.022,11.347000000000001,0.025,-1.214,0.07211102550927999,-1.1740000000000002,0.29418361613115,-45.03,0.43,4580.46,50,4.200,0.041,-5.708,0.029,0.04312766913334468
RGBSYAZ020395,0,0,RGBS,YAZ,13.219195000000001,-26.590858,2342904732985401344,00525260-2635270,20395.0,22304.0,14.095,0.004,15.135,0.005,12.955,0.005,-9.415,0.033,12.139000000000001,0.028,11.474,0.027,11.365,0.025,,,,,,,,50,4.265,0.042,-5.645,0.031,0.07988344175063958
RGBSYAZ024664,0,0,RGBS,YAZ,13.220678,-26.56188,2342908100239742592,00525296-2633427,24664.0,22509.0,14.214,0.004,15.249,0.005,13.114,0.005,-9.542,-0.07,12.29,0.041,11.671,0.037,11.558,0.034,,,,,,,,50,4.126,0.043,-5.755,0.030,0.10805893154654367
RGBSYAZ016984,0,0,RGBS,YAZ,13.207542000000002,-26.615546999999996,2342904526826917504,00524981-2636559,16984.0,20249.0,14.235999999999999,0.004,15.264000000000001,0.005,13.100999999999999,0.005,-9.475,-0.008,12.293,0.036,11.675,0.034,11.587,0.032,,,,,,,,50,4.277,0.045,-5.655,0.031,0.08966837177905483
RGBSYAZ023870,0,0,RGBS,YAZ,13.195426999999999,-26.567771999999998,2342907756640331008,00524690-2634039,23870.0,17732.0,14.413,0.004,15.389000000000001,0.005,13.31,0.005,-9.357999999999999,0.111,12.495,0.037,11.890999999999998,0.032,11.787,0.03,,,,,,,,50,4.179,0.057,-5.338,0.046,0.3286780476435425
RGBSYAZ022328,0,0,RGBS,YAZ,13.225045999999999,-26.578094,2342904763048461952,00525401-2634411,22328.0,23116.0,14.488,0.004,15.460999999999999,0.005,13.394,0.005,-9.462,0.025,12.578,0.024,11.985,0.025,11.87,0.026,,,,,,,,50,4.253,0.045,-5.518,0.034,0.16211917660728095
RGBSYAZ028562,1,1,RGBS,YAZ,13.153706,-26.516281,2342908890513634688,00523688-2630586,28562.0,9585.0,14.48,0.004,15.437000000000001,0.005,13.395999999999999,0.005,-9.424,0.057,12.572000000000001,0.027,11.985,0.025,11.918,0.021,-1.239,0.137753402861781,-1.115,0.145907504947484,-44.6,0.6,4701.74,50,4.092,0.044,-5.590,0.031,0.12284734237697682
RGBSYAZ021609,0,0,RGBS,YAZ,13.217716000000001,-26.5828,2342904732985395456,00525225-2634580,21609.0,22093.0,14.626,0.004,15.581,0.005,13.552999999999999,0.005,-9.554,-0.046,12.765999999999998,0.023,12.19,0.025,12.061,0.023,,,,,,,,50,4.279,0.045,-5.548,0.035,0.14940336095927714
RGBSYAZ031599,1,1,RGBS,YAZ,13.304216,-26.617979,2342904011430916480,00531301-2637047,31599.0,28525.0,14.654000000000002,0.004,15.607999999999999,0.005,13.568,0.005,-9.462,0.04,12.888,0.026,12.305,0.022,12.225999999999999,0.024,-1.09,0.216480946043756,-1.298,0.239633052812003,-44.73,0.6,4820.1,50,4.186,0.046,-5.745,0.035,0.0784749108591339
RGBSYAZ021026,0,0,RGBS,YAZ,13.207381,-26.58662,2342907683626216960,00524977-2635118,21026.0,20220.0,14.468,0.004,15.421,0.005,13.385,0.005,-9.128,0.322,12.546,0.023,11.97,0.022,11.908,0.026,,,,,,,,50,4.391,0.046,-5.547,0.034,0.2355202439676028
RGBSSTE001508,1,0,RGBS,STE,13.160623999999999,-26.831137,2342707164487606272,00523854-2649520,,10664.0,14.574000000000002,0.002,15.520999999999999,0.0079,13.668,0.0144,16.476,0.0281,12.932,0.026,12.485,0.028,12.382,0.027,,,,,7.2,0.6,,50,-11.318,0.041,-9.092,0.032,15.87992991155329
RGBSYAZ032767,1,1,RGBS,YAZ,13.284317999999999,-26.467752,2344409930042044416,00530823-2628039,32767.0,27905.0,14.708,0.005,15.657,0.012,13.64,0.006,-9.527999999999999,-0.015,12.914000000000001,0.027,12.327,0.027,12.274000000000001,0.023,-1.1740000000000002,0.25321137415211,-0.928000000000001,0.631855204932269,-46.9,0.47,4814.63,50,4.281,0.045,-5.626,0.048,0.10138460410801263
RGBSSTE000213,1,0,RGBS,STE,13.274445000000002,-26.691381,2342715479544311296,00530586-2641289,,27452.0,14.948,0.0018,15.880999999999998,0.0034,13.975,0.003,16.531,0.0169,13.357999999999999,0.028,12.868,0.025,12.812000000000001,0.033,,,,,15.17,0.7,,50,10.629,0.056,-7.058,0.039,6.589506035001301
RGBSYAZ019758,0,0,RGBS,YAZ,13.190139000000002,-26.595274,2342907584843530368,00524563-2635429,19758.0,16637.0,14.814,0.004,15.741,0.005,13.76,0.005,-9.579,-0.052000000000000005,12.98,0.032,12.414000000000001,0.03,12.342,0.032,,,,,,,,50,4.146,0.047,-5.693,0.034,0.049700111750712254
RGBSYAZ014973,0,0,RGBS,YAZ,13.168942000000001,-26.637853999999997,2342903083717827200,00524054-2638162,14973.0,12182.0,14.777999999999999,0.004,15.703,0.005,13.722000000000001,0.005,-9.488,0.026000000000000002,12.988,0.024,12.4,0.028,12.305,0.027,,,,,,,,50,4.144,0.051,-5.576,0.035,0.1007111348708802
RGBSYAZ019602,0,0,RGBS,YAZ,13.210606,-26.59617,2342904629906125568,00525054-2635462,19602.0,20855.0,14.693,0.004,15.618,0.005,13.634,0.006,-9.41,0.08800000000000001,12.884,0.032,12.335999999999999,0.032,12.23,0.033,,,,,,,,50,4.126,0.047,-5.433,0.036,0.2416622176175311
RGBSYAZ018985,0,0,RGBS,YAZ,13.131247,-26.600452,2342906313533176960,00523149-2636016,18985.0,6794.0,14.71,0.004,15.630999999999998,0.005,13.659,0.005,-9.568999999999999,-0.054000000000000006,12.880999999999998,0.024,12.32,0.028,12.234000000000002,0.03,,,,,,,,50,4.208,0.050,-5.653,0.034,0.024094027489500618
RGBSYAZ015342,1,0,RGBS,YAZ,13.256223,-26.632568,2342903633473793920,00530149-2637572,15342.0,26391.0,14.857999999999999,0.004,15.777000000000001,0.005,13.817,0.006,-9.441,0.076,13.137,0.026,12.594000000000001,0.03,12.539000000000001,0.032,,,,,-25.6,0.57,,50,-15.182,0.053,-8.111,0.037,19.523710747812927
RGBSYAZ015322,0,0,RGBS,YAZ,13.22056,-26.632845,2342904320668492160,00525293-2637582,15322.0,22483.0,14.940999999999999,0.004,15.859000000000002,0.005,13.899000000000001,0.005,-9.513,0.019,13.167,0.028,12.613,0.024,12.54,0.03,,,,,,,,50,4.147,0.062,-5.608,0.038,0.07152545408256819
RGBSYAZ021688,0,0,RGBS,YAZ,13.168548999999999,-26.58227,2342907825361664128,00524045-2634561,21688.0,12115.0,14.888,0.004,15.799000000000001,0.005,13.845,0.005,-9.6,-0.065,13.067,0.026,12.533,0.025,12.415999999999999,0.027,,,,,,,,50,4.123,0.048,-5.751,0.036,0.10661438657058817
RGBSYAZ020881,0,0,RGBS,YAZ,13.192520000000002,-26.587513,2342907584843612416,00524620-2635150,20881.0,17155.0,14.717,0.004,15.626,0.005,13.672,0.005,-9.218,0.262,12.819,0.047,12.235,0.046,12.113,0.039,,,,,,,,50,4.211,0.045,-5.618,0.033,0.05369108573106585
RGBSYAZ015658,1,1,RGBS,YAZ,13.147515,-26.628695,2342905935576100736,00523540-2637433,15658.0,8707.0,14.842,0.004,15.747,0.005,13.790999999999999,0.005,-9.506,0.015,13.044,0.024,12.497,0.028,12.405999999999999,0.029,-1.18,0.15877342346879098,-1.033,0.449026725262539,-43.27,0.37,4812.81,50,4.195,0.051,-5.753,0.035,0.08672397867057363
RGBSYAZ018804,0,0,RGBS,YAZ,13.158161999999999,-26.601801000000002,2342906141734502528,00523795-2636064,18804.0,10265.0,14.88,0.004,15.780999999999999,0.005,13.835999999999999,0.005,-9.495,0.027999999999999997,13.062000000000001,0.026,12.56,0.03,12.424000000000001,0.03,,,,,,,,50,4.205,0.053,-5.767,0.036,0.10186263223025084
RGBSYAZ019315,0,0,RGBS,YAZ,13.212019,-26.598162,2342904629906127232,00525088-2635533,19315.0,21110.0,15.001,0.004,15.902000000000001,0.006,14.014000000000001,0.006,-8.877,0.597,13.26,0.023,12.717,0.027,12.627,0.033,,,,,,,,50,4.123,0.052,-5.826,0.042,0.17221710915870345
RGBSYAZ032119,1,1,RGBS,YAZ,13.312218,-26.564575,2344406184830568960,00531493-2633524,32119.0,28699.0,15.059000000000001,0.004,15.956,0.005,14.02,0.006,-9.495,0.046,13.363,0.026,12.82,0.022,12.767999999999999,0.029,-1.075,0.112361025271221,-0.98,0.423274142843619,-44.53,0.53,4949.57,50,4.191,0.052,-5.717,0.038,0.050531866471424686
RGBSYAZ022425,0,0,RGBS,YAZ,13.170638,-26.577507,2342907825361660544,00524095-2634390,22425.0,12528.0,14.647,0.004,15.543,0.005,13.606,0.005,-9.37,0.11699999999999999,12.770999999999999,0.029,12.248,0.031,12.17,0.032,,,,,,,,50,4.325,0.045,-5.518,0.033,0.20202786689654975
RGBSYAZ013369,1,1,RGBS,YAZ,13.204609,-26.66869,2342902740120458624,00524910-2640072,13369.0,19645.0,14.925999999999998,0.004,15.819,0.005,13.907,0.006,-9.509,0.02,13.237,0.026,12.661,0.031,12.595999999999998,0.029,-1.169,0.06000833275471,-1.17,0.296141857899217,-47.47,0.3,4911.79,50,4.139,0.056,-5.675,0.039,0.04980061353069238
RGBSYAZ031334,0,0,RGBS,YAZ,13.325542,-26.64937,2342716025004493184,00531813-2638577,31334.0,28935.0,15.270999999999999,0.004,16.158,0.005,14.257,0.006,-9.568999999999999,-0.001,13.742,0.03,13.197000000000001,0.029,13.12,0.035,,,,,,,,50,22.321,0.066,17.044,0.045,29.061521411183673
RGBSYAZ016681,0,0,RGBS,YAZ,13.150429,-26.618456,2342906107372568960,00523610-2637064,16681.0,9115.0,14.874,0.004,15.761,0.005,13.83,0.005,-9.552999999999999,-0.026000000000000002,13.065,0.028,12.482000000000001,0.025,12.392999999999999,0.026,,,,,,,,50,3.783,0.110,-4.801,0.070,0.9556517732073488
RGBSYAZ005719,1,0,RGBS,YAZ,12.915315,-26.346844,2342973521181367808,00513967-2620486,5719.0,1823.0,15.537,0.005,16.424,0.006,14.547,0.006,-9.462,0.122,13.877,0.028,13.389000000000001,0.021,13.352,0.044,,,,,20.47,0.73,,50,14.920,0.058,-15.792,0.042,14.754620086284216
RGBSYAZ015317,0,0,RGBS,YAZ,13.163835,-26.632938,2342903083717822848,00523932-2637585,15317.0,11232.0,14.98,0.004,15.862,0.005,13.960999999999999,0.005,-9.384,0.13699999999999998,13.213,0.028,12.697000000000001,0.025,12.620999999999999,0.029,,,,,,,,50,4.254,0.054,-5.631,0.037,0.07489709468493154
RGBSYAZ007869,1,1,RGBS,YAZ,13.064524,-26.684423,2342899544664775936,00521548-2641039,7869.0,3651.0,15.078,0.004,15.955,0.006,14.073,0.006,-9.486,0.054000000000000006,13.366,0.024,12.815,0.021,12.815999999999999,0.033,-1.111,0.068,-1.079,0.46290495784772095,-44.5,0.33,4978.15,50,4.240,0.059,-5.626,0.038,0.06588104153964901
RGBSYAZ023598,0,0,RGBS,YAZ,13.156767000000002,-26.56963,2342907889784614912,00523762-2634106,23598.0,10058.0,14.987,0.004,15.863,0.005,13.950999999999999,0.005,-9.241,0.266,13.165,0.029,12.602,0.027,12.542,0.027,,,,,,,,50,4.200,0.049,-5.601,0.036,0.06662776450377203
RGBSYAZ028604,1,1,RGBS,YAZ,13.243712,-26.51542700000001,2342908340757896704,00525849-2630555,28604.0,25373.0,15.014000000000001,0.004,15.89,0.005,14.015,0.005,-9.377,0.146,13.244000000000002,0.026,12.735999999999999,0.023,12.67,0.027,-1.073,0.276586333718786,-1.3430000000000002,0.109836241741968,-47.03,0.23,4898.41,50,4.187,0.050,-5.691,0.035,0.0244711656881826
RGBSYAZ027197,0,0,RGBS,YAZ,13.172320000000001,-26.53741500000001,2342908031520178560,00524135-2632146,27197.0,12852.0,15.132,0.004,16.003,0.005,14.119000000000002,0.005,-9.575,-0.021,13.327,0.029,12.837,0.027,12.802999999999999,0.029,,,,,,,,50,4.080,0.061,-5.622,0.041,0.11690165030860546
RGBSYAZ032094,1,1,RGBS,YAZ,13.296317000000002,-26.566384999999997,2342904973503575808,00531111-2633589,32094.0,28331.0,15.270999999999999,0.004,16.139,0.005,14.258,0.006,-9.522,0.04,13.581,0.032,13.092,0.031,12.992,0.033,-1.053,0.21840329667841601,-1.263,0.10404326023342401,-45.07,0.53,4961.34,50,4.250,0.056,-5.676,0.043,0.06263760475214362
RGBSYAZ022058,0,0,RGBS,YAZ,13.155103,-26.579909999999998,2342907825361657344,00523722-2634476,22058.0,9791.0,15.207,0.004,16.067999999999998,0.005,14.2,0.005,-9.551,0.006999999999999999,13.446,0.028,12.978,0.028,12.890999999999998,0.027,,,,,,,,50,3.988,0.053,-5.518,0.040,0.24919765153204465
RGBSYAZ015512,0,0,RGBS,YAZ,13.243453,-26.630505,2342904286308821760,00525842-2637498,15512.0,25342.0,15.4,0.004,16.26,0.005,14.412,0.006,-9.521,0.053,13.762,0.026,13.185,0.028,13.175999999999998,0.039,,,,,,,,50,4.309,0.066,-5.727,0.046,0.13518796292037025
RGBSYAZ016598,0,0,RGBS,YAZ,13.158844,-26.619137,2342906038655311872,00523812-2637088,16598.0,10374.0,15.366,0.004,16.219,0.005,14.402000000000001,0.005,-9.597000000000001,-0.019,13.725,0.029,13.235999999999999,0.032,13.184000000000001,0.034,,,,,,,,50,4.027,0.063,-5.665,0.041,0.16108643006205936
RGBSYAZ018543,0,0,RGBS,YAZ,13.234209,-26.603546,2342904664265935488,00525621-2636127,18543.0,24295.0,15.538,0.004,16.387999999999998,0.005,14.552,0.006,-9.585,0.008,13.832,0.024,13.359000000000002,0.032,13.265999999999998,0.04,,,,,,,,50,4.157,0.061,-5.676,0.046,0.032483130077199114
RGBSYAZ021965,0,0,RGBS,YAZ,13.184476,-26.58049,2342907653563077120,00524427-2634497,21965.0,15430.0,14.897,0.004,15.747,0.005,13.897,0.005,-9.466000000000001,0.052000000000000005,13.165,0.024,12.620999999999999,0.028,12.529000000000002,0.027,,,,,,,,50,4.027,0.076,-5.531,0.056,0.21052539802431566
RGBSYAZ022800,0,0,RGBS,YAZ,13.187201000000002,-26.57515,2342907649266464768,00524492-2634305,22800.0,15985.0,15.152000000000001,0.004,16.002,0.005,14.155999999999999,0.005,-9.434,0.106,13.413,0.028,12.895,0.024,12.805,0.03,,,,,,,,50,4.327,0.051,-5.723,0.039,0.1499512062836698
RGBSYAZ013893,0,0,RGBS,YAZ,13.172773999999999,-26.656483,2342902911919145344,00524146-2639233,13893.0,12941.0,15.41,0.004,16.259,0.005,14.423,0.005,-9.6,-0.018000000000000002,13.77,0.029,13.253,0.032,13.165,0.032,,,,,,,,50,3.991,0.066,-5.757,0.045,0.21684288770937094
RGBSYAZ016748,0,0,RGBS,YAZ,13.195958,-26.617826,2342904595546310912,00524702-2637041,16748.0,17829.0,15.347999999999999,0.004,16.195,0.005,14.363,0.005,-9.559,0.013000000000000001,13.675,0.022,13.164000000000001,0.027,13.128,0.033,,,,,,,,50,4.195,0.060,-5.539,0.040,0.1277402630036587
RGBSYAZ021966,0,0,RGBS,YAZ,13.142149,-26.580446000000002,2342906412315861632,00523411-2634496,21966.0,8005.0,15.277999999999999,0.004,16.125,0.005,14.284,0.006,-9.347000000000001,0.19699999999999998,13.534,0.035,13.007,0.044,12.936,0.035,,,,,,,,50,4.193,0.060,-5.704,0.043,0.037769328305713584
RGBSYAZ016419,1,1,RGBS,YAZ,13.268415,-26.620739,2342903667833531264,00530441-2637146,16419.0,27159.0,15.513,0.005,16.358,0.006999999999999999,14.547,0.008,-9.404,0.16899999999999998,13.870999999999999,0.029,13.374,0.039,13.329,0.04,-0.9740000000000001,0.31182687504447104,-1.28,0.16527552752903302,-46.9,0.7,5057.2,50,4.305,0.065,-5.656,0.045,0.1173962971380153
RGBSYAZ027701,1,1,RGBS,YAZ,13.193994,-26.531214000000002,2342908443837110528,00524655-2631523,27701.0,17452.0,15.199000000000002,0.004,16.042,0.005,14.209000000000001,0.006,-9.422,0.121,13.52,0.024,12.94,0.027,12.904000000000002,0.03,-1.0959999999999999,0.185000000000001,-1.271,0.092195444572929,-45.97,0.67,4945.66,50,4.096,0.055,-5.624,0.041,0.1014359847528
RGBSYAZ015431,0,0,RGBS,YAZ,13.182891,-26.631428000000003,2342903083717827712,00524389-2637531,15431.0,15075.0,15.565999999999999,0.004,16.408,0.005,14.591,0.006,-9.638,-0.037000000000000005,13.847999999999999,0.039,13.384,0.037,13.297,0.049,,,,,,,,50,4.323,0.075,-5.610,0.052,0.146293850115845
RGBSYAZ017527,0,0,RGBS,YAZ,13.13924,-26.611101,2342906004295551104,00523341-2636399,17527.0,7651.0,15.44,0.004,16.282,0.005,14.458,0.006,-9.595,-0.011000000000000001,13.759,0.027,13.254000000000001,0.034,13.212,0.038,,,,,,,,50,4.184,0.065,-5.572,0.044,0.0946405724313761
RGBSYAZ030421,1,1,RGBS,YAZ,13.169044,-26.46760200000001,2342909680787683584,00524057-2628033,30421.0,12207.0,15.189,0.005,16.03,0.01,14.199000000000002,0.006,-9.585,-0.027000000000000003,13.437999999999999,0.029,12.901,0.022,12.839,0.032,-1.2309999999999999,0.145907504947484,-1.0979999999999999,0.302019866896203,-45.07,0.2,4892.71,50,4.157,0.047,-5.739,0.038,0.07883224061679851
RGBSYAZ016850,0,0,RGBS,YAZ,13.206591,-26.616846000000002,2342904526826917760,00524958-2637006,16850.0,20055.0,15.470999999999998,0.004,16.308,0.005,14.482999999999999,0.005,-9.478,0.09699999999999999,13.741,0.033,13.235,0.039,13.142999999999999,0.038,,,,,,,,50,4.297,0.068,-5.627,0.048,0.11588013794948145
RGBSYAZ023021,1,1,RGBS,YAZ,13.182294,-26.573587,2342907653561101440,00524375-2634249,23021.0,14930.0,15.175999999999998,0.004,16.012999999999998,0.005,14.182,0.006,-9.209,0.31,13.433,0.035,12.919,0.035,12.809000000000001,0.034,-1.198,0.21744194627532198,-1.4069999999999998,0.09295697929687699,-44.0,0.43,4876.64,50,4.072,0.052,-5.707,0.038,0.12292400755893558
RGBSYAZ023383,0,0,RGBS,YAZ,13.229267000000002,-26.571121,2342904763048462976,00525502-2634160,23383.0,23692.0,15.593,0.004,16.43,0.005,14.659,0.006,-9.6,-0.001,13.95,0.03,13.366,0.034,13.377,0.043,,,,,,,,50,4.239,0.067,-5.576,0.049,0.10388807769412456
RGBSYAZ020372,0,0,RGBS,YAZ,13.165607000000001,-26.591079999999998,2342907614906712064,00523974-2635278,20372.0,11548.0,15.392000000000001,0.004,16.227999999999998,0.005,14.405999999999999,0.006,-9.58,-0.003,13.687999999999999,0.026,13.175999999999998,0.032,13.123,0.035,,,,,,,,50,4.238,0.063,-5.767,0.043,0.11216855762003687
RGBSYAZ020792,0,0,RGBS,YAZ,13.184039000000002,-26.588115999999996,2342907649266462208,00524416-2635172,20792.0,15343.0,15.284,0.004,16.12,0.006,14.321,0.006,-8.915,0.586,13.628,0.053,13.048,0.053,12.998,0.059,,,,,,,,50,4.215,0.057,-5.648,0.043,0.0326946970210211
RGBSYAZ022326,0,0,RGBS,YAZ,13.185653,-26.578117,2342907649266464000,00524455-2634412,22326.0,15670.0,15.28,0.004,16.116,0.005,14.286,0.006,-9.226,0.305,13.53,0.028,12.985999999999999,0.028,12.919,0.03,,,,,,,,50,4.278,0.053,-5.687,0.043,0.09221654180090134
RGBSYAZ024528,0,0,RGBS,YAZ,13.188179000000002,-26.562971,2342907962800710144,00524516-2633466,24528.0,16203.0,15.415999999999999,0.004,16.252,0.005,14.436,0.005,-9.586,-0.006,13.607999999999999,0.044,13.110999999999999,0.039,13.040999999999999,0.039,,,,,,,,50,4.352,0.055,-5.638,0.041,0.16638919515980544
RGBSSTE001629,1,0,RGBS,STE,13.366641,-26.758286,2342714070795040000,00532799-2645298,,29439.0,15.589,0.0026,16.439,0.0055,14.668,0.0033,16.817999999999998,0.0077,13.99,0.029,13.507,0.033,13.463,0.037,,,,,-73.33,0.4,,50,2.499,0.073,-13.783,0.052,8.290338085674929
RGBSYAZ017292,0,0,RGBS,YAZ,13.181156,-26.613001,2342903118077553536,00524347-2636468,17292.0,14669.0,15.537,0.004,16.369,0.005,14.555,0.006,-9.623,-0.027000000000000003,13.85,0.044,13.338,0.047,13.255999999999998,0.04,,,,,,,,50,4.160,0.066,-5.584,0.045,0.08719727212435101
RGBSYAZ023810,0,0,RGBS,YAZ,13.226657000000001,-26.568215999999996,2342907722282627840,00525439-2634055,23810.0,23343.0,15.478,0.004,16.31,0.005,14.520999999999999,0.006,-9.618,-0.028999999999999998,13.786,0.028,13.261,0.03,13.213,0.037,,,,,,,,50,4.256,0.060,-5.634,0.045,0.07531894325663609
RGBSYAZ014258,1,1,RGBS,YAZ,13.168431,-26.649481,2342902907622048640,00524042-2638581,14258.0,12088.0,15.432,0.004,16.262999999999998,0.005,14.465,0.005,-9.557,0.022000000000000002,13.78,0.023,13.293,0.032,13.231,0.033,-0.956,0.27463430230035,-1.224,0.11833849753989599,-47.47,0.53,5039.7,50,4.090,0.067,-5.607,0.044,0.11474317341295535
RGBSYAZ018532,0,0,RGBS,YAZ,13.144989,-26.603613,2342906313533287424,00523479-2636130,18532.0,8372.0,15.309000000000001,0.004,16.14,0.005,14.328,0.005,-9.603,-0.032,13.645999999999999,0.027,13.084000000000001,0.032,13.047,0.034,,,,,,,,50,4.210,0.062,-5.593,0.042,0.07674973720257824
RGBSYAZ023962,0,0,RGBS,YAZ,13.213848,-26.567139,2342907722282622592,00525132-2634017,23962.0,21429.0,15.492,0.004,16.320999999999998,0.005,14.530999999999999,0.006,-9.581,0.006,13.83,0.023,13.26,0.025,13.270999999999999,0.035,,,,,,,,50,4.343,0.064,-5.531,0.046,0.2058520062483092
RGBSYAZ025174,1,1,RGBS,YAZ,13.24001,-26.557610999999998,2342905179661984896,00525760-2633273,25174.0,24976.0,15.474,0.004,16.303,0.005,14.520999999999999,0.006,-9.597999999999999,-0.011000000000000001,13.833,0.06,13.309000000000001,0.058,13.228,0.064,-1.0390000000000001,0.089196412483911,-1.105,0.097616596949494,-43.47,0.93,4994.11,50,4.233,0.063,-5.790,0.047,0.13136648636395856
RGBSYAZ026969,1,1,RGBS,YAZ,13.218359,-26.540346000000003,2342908168959208704,00525240-2632252,26969.0,22196.0,15.455,0.004,16.284000000000002,0.005,14.495,0.006,-9.533,0.045,13.758,0.027,13.285,0.035,13.195,0.033,-1.0190000000000001,0.094493386011932,-1.092,0.43020460248584,-43.0,0.93,4980.14,50,4.232,0.059,-5.625,0.042,0.06046222006676257
RGBSYAZ025607,1,1,RGBS,YAZ,13.232270000000002,-26.554028000000002,2342908100239741440,00525574-2633145,25607.0,24048.0,15.452,0.004,16.279,0.005,14.494000000000002,0.005,-9.562999999999999,0.018000000000000002,13.76,0.03,13.235,0.039,13.215,0.033,-1.012,0.17557049866079402,-0.847,0.4143669871020129,-42.83,0.57,5003.14,50,4.202,0.059,-5.594,0.044,0.07387611288773765
RGBSYAZ025911,0,0,RGBS,YAZ,13.200314,-26.551304,2342907992863858432,00524807-2633046,25911.0,18744.0,15.470999999999998,0.004,16.297,0.005,14.512,0.006,-9.537,0.043,13.797,0.026,13.307,0.036,13.182,0.038,,,,,,,,50,4.245,0.061,-5.671,0.043,0.0570945296728108
RGBSYAZ009088,1,1,RGBS,YAZ,13.068177,-26.561844,2342907378685021056,00521636-2633426,9088.0,3751.0,15.454,0.004,16.278,0.006,14.494000000000002,0.006,-9.47,0.102,13.725999999999999,0.024,13.23,0.021,13.158,0.034,-1.0859999999999999,0.06264183905346299,-1.104,0.068,-44.4,0.37,4944.68,50,4.255,0.068,-5.669,0.045,0.06696578900831973
RGBSYAZ018172,0,0,RGBS,YAZ,13.187163,-26.606428,2342907546187217152,00524491-2636231,18172.0,15971.0,15.404000000000002,0.004,16.227,0.005,14.442,0.006,-9.524,0.048,13.742,0.028,13.217,0.03,13.152000000000001,0.033,,,,,,,,50,4.654,0.086,-5.295,0.057,0.595931023960457
RGBSYAZ024524,0,0,RGBS,YAZ,13.157295000000001,-26.562994,2342907928440851456,00523775-2633467,24524.0,10136.0,15.540999999999999,0.004,16.364,0.005,14.574000000000002,0.005,-9.647,-0.049,13.834000000000001,0.03,13.277999999999999,0.022,13.288,0.033,,,,,,,,50,4.218,0.063,-5.598,0.049,0.07479794574037853
RGBSYAZ024602,0,0,RGBS,YAZ,13.180935999999999,-26.562386,2342907958504104832,00524342-2633445,24602.0,14619.0,15.145999999999999,0.004,15.965,0.006,14.159,0.006999999999999999,-9.048,0.451,13.401,0.03,12.92,0.027,12.852,0.03,,,,,,,,50,4.301,0.063,-5.638,0.048,0.11647496253490185
RGBSYAZ017798,1,1,RGBS,YAZ,13.168067,-26.609137,2342906073015045504,00524033-2636328,17798.0,12010.0,15.34,0.004,16.157,0.005,14.368,0.006,-9.254,0.284,13.620999999999999,0.024,13.112,0.031,13.074000000000002,0.037,-1.067,0.086278618440492,-1.129,0.09840731680114,-47.23,0.2,4974.18,50,4.098,0.060,-5.670,0.041,0.09014488952810036
RGBSYAZ007999,1,0,RGBS,YAZ,13.106179,-26.663203999999997,2342905385820377728,00522548-2639475,7999.0,5069.0,15.417,0.005,16.223,0.01,14.439,0.006,-9.449,0.11599999999999999,13.765999999999998,0.024,13.235999999999999,0.032,13.15,0.032,,,,,49.67,95.4,,50,4.212,0.067,-5.647,0.043,0.03089534205450342
RGBSYAZ012223,1,0,RGBS,YAZ,13.214091,-26.697775,2342901812407525504,00525138-2641519,12223.0,21453.0,15.218,0.004,16.022000000000002,0.005,14.390999999999998,0.006,-9.519,0.033,13.915999999999999,0.026,13.513,0.032,13.463,0.04,,,,,8.67,0.57,,50,4.452,0.065,-4.800,0.047,0.9058519665588632
RGBSYAZ019738,0,0,RGBS,YAZ,13.196893,-26.59534600000001,2342907580546995584,00524725-2635432,19738.0,18041.0,15.52,0.004,16.322,0.006,14.55,0.006,-8.912,0.609,13.828,0.029,13.309000000000001,0.031,13.300999999999998,0.035,,,,,,,,50,4.180,0.059,-5.703,0.043,0.037332024528568215
RGBSYAZ031345,1,0,RGBS,YAZ,13.396194,-26.647476,2342715857501434112,00533508-2638509,31345.0,29708.0,15.529000000000002,0.004,16.328,0.005,14.652000000000001,0.006,-9.488,0.091,14.24,0.033,13.821,0.022,13.742,0.043,,,,,16.93,0.37,,50,15.096,0.077,-2.057,0.055,11.489630624636355
RGBSYAZ023447,0,0,RGBS,YAZ,13.195727999999999,-26.570688,2342907756642288384,00524697-2634144,23447.0,17787.0,15.589,0.004,16.386,0.005,14.63,0.006,-9.165,0.38799999999999996,13.905999999999999,0.03,13.383,0.035,13.379000000000001,0.043,,,,,,,,50,4.268,0.070,-4.914,0.055,0.7567845386569014
RGBSYAZ003702,1,0,RGBS,YAZ,13.096242,-26.400387,2342922806207672192,00522309-2624013,3702.0,4616.0,15.025,0.004,15.812000000000001,0.005,14.185,0.005,-9.447000000000001,0.077,13.613,0.03,13.216,0.03,13.165999999999999,0.034,0.06,0.788286749856929,-0.7260000000000011,0.601002495835084,-38.37,0.47,5424.61,50,-2.695,0.048,-13.625,0.038,10.522055897572221
RGBSYAZ020283,0,0,RGBS,YAZ,13.203687,-26.591735999999997,2342904629906121088,00524888-2635302,20283.0,19460.0,15.517000000000001,0.004,16.298,0.005,14.589,0.006,-9.48,0.096,13.9,0.029,13.401,0.031,13.356,0.039,,,,,,,,50,4.044,0.065,-5.755,0.049,0.16906117252462774
RGBSYAZ015914,0,0,RGBS,YAZ,13.146444,-26.625942,2342905935576098304,00523514-2637333,15914.0,8565.0,15.51,0.004,16.285999999999998,0.006,14.562000000000001,0.006,-9.065,0.46799999999999997,13.84,0.032,13.329,0.024,13.275,0.033,,,,,,,,50,4.219,0.068,-5.611,0.046,0.06357834828926434
RGBSYAZ025316,0,0,RGBS,YAZ,13.240727,-26.556492,2342905179660431616,00525777-2633233,25316.0,25054.0,15.530999999999999,0.006,16.305,0.006,14.599,0.008,-8.761000000000001,0.7440000000000001,13.87,0.032,13.399000000000001,0.031,13.26,0.043,,,,,,,,50,4.628,0.125,-5.474,0.096,0.4802156270639822
RGBSYAZ025454,0,0,RGBS,YAZ,13.153208,-26.555338,2342908684355089536,00523676-2633192,25454.0,9512.0,15.413,0.004,16.169,0.005,14.562999999999999,0.006,-9.579,-0.006,13.97,0.029,13.523,0.035,13.513,0.052,,,,,,,,50,16.682,0.060,13.692,0.044,23.040217517614778
RHBSYAZ011595,1,0,RHBS,YAZ,13.242579000000001,-26.714926000000002,2342901537529620352,00525821-2642537,11595.0,25247.0,15.335999999999999,0.004,16.027,0.005,14.569,0.006,-9.346,0.191,14.001,0.036,13.645,0.049,13.610999999999999,0.063,,,,,-45.03,1.27,,50,4.073,0.066,-5.622,0.046,0.12340219247660593
RHBSYAZ025995,0,0,RHBS,YAZ,13.195047,-26.550666999999997,2342907992863854208,00524681-2633024,25995.0,17669.0,15.414000000000001,0.004,16.05,0.005,14.607000000000001,0.006,-9.611,-0.044000000000000004,13.999,0.023,13.581,0.031,13.523,0.051,,,,,,,,50,4.296,0.062,-5.778,0.048,0.15513693799055592
RHBSYAZ003851,1,0,RHBS,YAZ,12.979452,-26.382365999999998,2342926276541112704,00515506-2622565,3851.0,2438.0,15.507,0.004,16.116,0.005,14.802999999999999,0.006,-9.427,0.129,14.285,0.03,13.942,0.043,13.95,0.07,,,,,46.17,0.4,,50,8.927,0.062,5.326,0.044,11.970529900597887
RHBSYAZ002982,1,0,RHBS,YAZ,13.138206,-26.250782,2344428140703384704,00523316-2615028,2982.0,7543.0,15.280999999999999,0.005,15.878,0.006999999999999999,14.539000000000001,0.006,-9.415,0.11699999999999999,14.027999999999999,0.032,13.687999999999999,0.034,13.712,0.046,,,,,0.1,0.37,,50,-5.661,0.059,-6.403,0.046,9.876573841062
RHBSYAZ020140,1,0,RHBS,YAZ,13.238593,-26.592634000000004,2342904698625669248,00525726-2635334,20140.0,24825.0,15.113,0.004,15.664000000000001,0.005,14.38,0.005,-9.47,0.047,13.860999999999999,0.028,13.462,0.034,13.460999999999999,0.04,,,,,28.8,72.97,,50,4.296,0.053,-5.549,0.040,0.1595793683163454
RHBSYAZ006764,1,0,RHBS,YAZ,12.823478999999999,-26.661440000000002,2342911501853598848,00511763-2639411,6764.0,1086.0,15.3,0.005,15.843,0.01,14.652000000000001,0.005,-8.683,0.774,14.366,0.035,14.072000000000001,0.05,13.978,0.062,,,,,35.8,0.33,,50,5.605,0.069,0.321,0.048,6.1529222151201095
RHBSSTE001843,1,0,RHBS,STE,13.355820000000001,-26.387657,2344412094705567232,00532539-2623155,,29335.0,15.390999999999998,0.0041,15.940999999999999,0.0049,14.748,0.0096,,,14.238,0.03,13.95,0.032,13.912,0.049,,,,,49.23,1.6,,50, , , , ,
RHBSYAZ031888,1,0,RHBS,YAZ,13.392948,-26.589665999999998,2344217549866873728,00533430-2635227,31888.0,29683.0,15.552999999999999,0.004,16.083,0.005,14.905,0.006,-9.456,0.10099999999999999,14.624,0.032,14.272,0.047,14.306,0.06,,,,,53.47,1.07,,50,3.310,0.080,-5.758,0.056,0.8828279894763029
RHBSYAZ003944,1,0,RHBS,YAZ,13.029114,-26.369539000000003,2342925967303601792,00520698-2622103,3944.0,2984.0,15.204,0.004,15.71,0.006,14.606,0.006,-9.288,0.21600000000000005,14.200999999999999,0.032,13.937999999999999,0.04,13.87,0.06,,,,,-3.57,0.3,,50,1.255,0.058,0.074,0.043,6.446463885528549
RHBSYAZ021266,0,0,RHBS,YAZ,13.179818,-26.58506400000001,2342907649266459136,00524315-2635062,21266.0,14384.0,15.084000000000001,0.006999999999999999,15.56,0.008,14.352,0.01,-7.723,1.6119999999999999,13.687000000000001,0.035,13.347000000000001,0.037,13.244000000000002,0.04,,,,,,,,50,4.218,0.054,-5.702,0.040,0.04638734006773342
RHBSYAZ031292,1,0,RHBS,YAZ,13.331789,-26.655635999999998,2342716029300125056,00531962-2639202,31292.0,29022.0,15.158,0.004,15.623,0.005,14.502,0.006,-9.482999999999999,0.033,14.2,0.032,13.831,0.022,13.895999999999999,0.041,,,,,,,,50,12.886,0.075,-14.945,0.048,12.717838503706956
RHBSYAZ002330,1,0,RHBS,YAZ,13.14206,-26.429523,2342921706696110976,00523409-2625462,2330.0,7990.0,15.297,0.004,15.697000000000001,0.006,14.745,0.006,-9.455,0.067,14.398,0.028,14.136,0.051,14.161,0.065,,,,,4.4,0.77,,50,1.182,0.059,-1.522,0.049,5.119944057676767
