Title: Detailed Abundances for a Large Sample of Giant Stars 
       in the Globular Cluster 47 Tucanae (NGC 104) 
Authors: Cordero M.J., Pilachowski C.A., Johnson C.I., McDonald I., 
         Zijlstra A.A., Simmerer J. 
Table: Atmospheric Parameters and Abundances
================================================================================
Byte-by-byte Description of file: apj488601t2_mrt.txt
--------------------------------------------------------------------------------
   Bytes Format Units   Label    Explanations
--------------------------------------------------------------------------------
   1-  6 A6     ---     Inst     Instrument
   8- 14 A7     ---     Name     Star identifier
  16- 19 I4     K       Teff     Effective temperature 
  21- 24 F4.2   [cm/s2] log(g)   Log of the surface gravity
  26- 30 F5.2   [-]     [Fe/H]   Metallicity
  32- 35 F4.2   km/s    Vt       Microturbulent velocity
  37- 42 F6.3   [-]     [O/Fe]   ? Log O/Fe number abundance ratio
  44- 50 F7.3   [-]     [Na/Fe]  ? Log Na/Fe number abundance ratio
  52- 57 F6.3   [-]     [Al/Fe]  ? Log Al/Fe number abundance ratio
  59- 62 F4.2   [-]     [Si/Fe]  ? Log Si/Fe number abundance ratio
  64- 68 F5.2   [-]     [Ca/Fe]  ? Log Ca/Fe number abundance ratio
  70- 74 F5.2   [-]     [Ti/Fe]  ? Log Ti/Fe number abundance ratio
  76- 80 F5.2   [-]     [Ni/Fe]  ? Log Ni/Fe number abundance ratio
  82- 89 F8.2   [-]     [La/Fe]  ? Log La/Fe number abundance ratio
  91- 94 F4.2   [-]     [Eu/Fe]  ? Log Eu/Fe number abundance ratio
  96- 97 A2     ---     Pop      Population code (1)
  99-103 F5.2   arcmin  R        ? Distance from 47 Tuc center (2)
--------------------------------------------------------------------------------
Note (1):
    P = primordial generation;
    I = intermediate generation;
   IE = intermediate-extreme generation.
Note (2): Where the 47 Tuc center is defined as 
          RA =  00:24:05.67 (J2000)
         Dec = -72:04:52.6  (J2000)
--------------------------------------------------------------------------------
Hydra  1628    4350 1.5  -0.73 1.6   0.29    0.2          0.18  0.14  0.31 -0.11     0.07      P   9.53 
Hydra  1646    4150 1.2  -0.72 1.75 -0.1     0.44         0.2   0.21  0.3   0.02     0.12      I   5.46 
Hydra  1669    4775 1.95 -0.79 2.35  0.21    0.735        0.39  0.39  0.58 -0.02     0.4       I   5.99 
Hydra  1735    4525 1.7  -0.73 1.75  0.255   0.32   0.37  0.02  0.2   0.21 -0.15     0.17 0.47 I   7.55 
Hydra  1747    4025 1.05 -0.81 2.    0.03    0.16         0.6   0.07  0.01 -0.01     0.1       P   6.85 
Hydra  1764    4550 1.35 -0.65 1.8  -0.21    0.31         0.06  0.14  0.32 -0.25    -0.02      I   6.13 
Hydra  2306    4325 1.35 -0.75 1.9   0.38    0.17         0.26  0.16  0.44  0.01     0.13      P  21.23 
Hydra  2426    3650 0.41 -0.72 1.6  -0.06    0.24         0.42  0.39  0.06  0.03    -0.04      P  16.53 
Hydra  2508    5525 2.2  -0.68 2.6           0.475        0.36  0.23  0.21  0.04               IE 12.6  
Hydra  2525    3950 0.97 -0.86 1.9   0.16   -0.05         0.65 -0.09  0.12  0.02     0.08      P  12.69 
Hydra  2608    4300 1.45 -0.71 1.55  0.315   0.175  0.38  0.17  0.28  0.4  -0.06     0.1  0.4  P  10.90 
Hydra  2618    4275 1.3  -0.84 1.8                  0.485                                 0.53     9.42 
Hydra  2620    3875 0.65 -0.82 2.                   0.35                                  0.42     9.63 
Hydra  2721    4025 0.9  -0.83 1.9           0.37   0.415       0.01  0.26 -0.16     0.2  0.57 IE  8.16 
Hydra  2731    4725 1.9  -0.67 1.7           0.15   0.32  0.21  0.31  0.37  0.03          0.41 P   8.41 
Hydra  2734    3700 0.55 -0.68 1.6  -0.06   -0.025        0.37  0.17 -0.11 -0.11    -0.1       P   7.66 
Hydra  2744    5300 2.15 -0.66 2.1           0.53         0.2   0.37  0.32 -0.02               IE  7.26 
Hydra  3622    4200 1.25 -0.84 1.8                  0.56                                  0.6     10.09 
Hydra  3708    3950 0.8  -0.78 1.9   0.22    0.37   0.36  0.31  0.23  0.46 -0.05     0.12 0.41 I   9.25 
Hydra  3709    4300 1.3  -0.72 1.85                 0.215                                 0.43     9.02 
Hydra  3730    3850 0.65 -0.81 1.6  -0.06    0.88   0.51  0.47  0.38  0.49  0.12     0.15 0.45 E   7.55 
Hydra  4312    3950 1.07 -0.81 1.8   0.3     0.11         0.58  0.31  0.18  0.09     0.09      P  19.45 
Hydra  4503    4025 1.   -0.78 1.5   0.06    0.27         0.62  0.26  0.18  0.07     0.05      P  13.10 
Hydra  4602    4400 1.55 -0.83 1.8           0.51                     0.42  0.   11111.        IE 10.82 
Hydra  4628    4250 1.25 -0.76 2.    0.34    0.14         0.3   0.22  0.3  -0.02     0.15      P   9.55 
Hydra  4719    4425 1.6  -0.77 1.85                 0.3                                   0.41     7.13 
Hydra  4728    3900 0.6  -0.83 1.7                  0.275                                 0.45     9.10 
Hydra  4729    4000 0.85 -0.77 2.15                 0.36                                  0.46     8.45 
Hydra  4745    4125 1.   -0.63 2.                   0.14                                  0.3      6.35 
Hydra  5404    4275 1.4  -0.77 1.6           0.06               0.31  0.02 -0.07     0.06      P  15.78 
Hydra  5601    4300 1.45 -0.84 1.9           0.275  0.57  0.25  0.32  0.54 -0.02               P   9.64 
Hydra  5623    4000 0.95 -0.82 2.                   0.385                                 0.51     9.88 
Hydra  5627    4250 1.25 -0.81 1.95                 0.3                                   0.5     11.90 
Hydra  5636    4400 1.45 -0.78 2.            0.205  0.52  0.18  0.03  0.22 -0.09     0.27 0.5  P  10.02 
Hydra  5703    4300 1.25 -0.67 1.95  0.245   0.045        0.01  0.08  0.14 -0.05     0.05      P   7.03 
Hydra  5717    4425 1.6  -0.75 1.75                 0.38                                  0.42     6.23 
Hydra  6519    4275 1.4  -0.7  1.9                  0.36  0.35  0.28  0.19  0.05     0.18 0.54    15.34 
Hydra  6536    4700 1.8  -0.75 2.25  0.47    0.335  0.25  0.27  0.26  0.22 -0.05          0.47 I  14.14 
Hydra  6616    4475 1.75 -0.74 1.9           0.51   0.47        0.3                       0.44 IE 11.79 
Hydra  6717    4500 1.55 -0.69 2.25                 0.44                                  0.43     6.37 
Hydra  6719    4375 1.25 -0.79 1.6           0.49   0.535 0.26  0.24  0.54  0.2                IE  8.13 
Hydra  6732    4225 1.3  -0.84 1.9   0.12    0.365              0.46  0.59 -0.02     0.26 0.27 I   6.42 
Hydra  6747    3900 0.75 -0.71 2.2                  0.495                                 0.27     6.99 
Hydra  6764    4050 1.   -0.84 2.15                 0.775                                 0.51     8.8  
Hydra  6768    4325 1.3  -0.67 1.95          0.39         0.21  0.07  0.44  0.       0.09      IE  8.95 
Hydra  7510    4600 1.75 -0.68 1.8   0.31    0.18         0.21  0.31  0.25 -0.07     0.17      P  14.54 
Hydra  7714    5075 2.05 -0.69 1.8           0.48         0.12  0.26  0.24 -0.02     0.33 0.54 IE  8.01 
Hydra  7723    4250 1.35 -0.75 1.5   0.31    0.35   0.63  0.19  0.36  0.36  0.03     0.23 0.56 I   9.12 
Hydra  7725    4725 1.8  -0.69 2.                   0.36                                  0.56     8.04 
Hydra  8406    4075 1.05 -0.69 1.8   0.165   0.21         0.35  0.2   0.37 -0.11     0.13      P  16.31 
Hydra  8517    4300 1.35 -0.76 1.95  0.25    0.23         0.41  0.35  0.42  0.05     0.2       P  15.15 
Hydra  8602    4275 1.4  -0.71 1.55          0.1          0.29  0.27  0.34  0.02     0.1       P  11.99 
Hydra  8636    4050 0.95 -0.85 1.7   0.27    0.425        0.28  0.28  0.38 -0.12     0.24      I   9.53 
Hydra  8640    4250 1.3  -0.77 1.7                  0.43                                  0.36    11.66 
Hydra  8648    4450 1.65 -0.75 1.8                  0.3                                   0.49          
Hydra  8704    3875 0.65 -0.81 1.9                  0.1                                   0.46     6.4  
Hydra  8705    4075 1.   -0.76 1.85                 0.38                                  0.42     6.58 
Hydra  8707    4100 1.05 -0.7  1.95                 0.4                                   0.46     7.00 
Hydra  8711    4775 1.8  -0.72 2.    0.05    0.44         0.24  0.18  0.27 -0.14     0.21      I   6.90 
Hydra  8725    4600 1.7  -0.78 1.9   0.51    0.43         0.28        0.34 -0.05     0.09      I   8.49 
Hydra  8740    4150 1.2  -0.79 1.8   0.32    0.56         0.4   0.22  0.48  0.03     0.21      I   9.19 
Hydra  8741    4475 1.55 -0.65 1.75                -0.09                                  0.42     9.41 
Hydra  D 145   3875 0.65 -0.76 2.1  -0.14    0.22   0.53  0.41  0.33  0.17 -0.09     0.1  0.45 P   5.66 
Hydra  D 15    4250 1.25 -0.7  1.95                 0.47                                  0.23     5.79 
Hydra  D 22    4725 1.8  -0.63 1.95                 0.1                                   0.32     5.59 
Hydra  D 241   4325 1.35 -0.7  1.8   0.075   0.27         0.28  0.04  0.38 -0.04     0.07      P   5.49 
Hydra  D 326   4400 1.55 -0.82 1.8   0.04    0.43   0.49  0.53  0.34  0.32 -0.01     0.31      I   6.04 
Hydra  D 331   3950 0.75 -0.79 2.   -0.005   0.505  0.32  0.45  0.32  0.29  0.03     0.11 0.45 I   5.04 
Hydra  D 490   4780 2.05 -0.55 1.85                 0.18                                  0.39     5.52 
Hydra  D 509   3950 0.85 -0.76 1.75  0.26    0.27   0.27  0.47  0.21  0.34  0.01     0.14 0.41 P   5.69 
Hydra  D 571   4250 1.3  -0.74 1.9                  0.37                                  0.54     6.00 
Hydra  D 629   4275 1.3  -0.83 1.85                 0.2                                   0.57     5.30 
Hydra  D 684   4250 1.35 -0.75 1.85                 0.13                                  0.49     4.65 
Hydra  E 318   4250 1.3  -0.9  1.75                 0.64                                  0.59     3.68 
Hydra  E 329   4375 1.55 -0.79 1.6           0.435        0.22  0.26  0.39  0.01     0.28      IE  3.44 
Hydra  E 533   4500 1.7  -0.84 1.75                 0.51                                           3.53 
Hydra  E 538   3975 1.   -0.71 1.75                 0.455                                 0.4      4.52 
FLAMES 1628    4400 1.23 -1.00 1.80  0.35    0.43   0.62  0.27  0.47  0.54 -0.01     0.14 0.39 I   9.55 
FLAMES 1669    4615 2.10 -0.72 1.60  0.07    0.59   0.55  0.22  0.29  0.28 -0.03     0.29 0.49 I   5.98 
FLAMES 1703    4575 2.00 -0.79 1.55  0.36    0.31   0.37  0.36  0.37  0.43  0.07     0.23 0.43 P   8.09 
FLAMES 1714    4450 1.75 -0.82 1.65  0.32    0.28   0.47  0.29  0.29  0.41  0.03     0.23 0.51 P   7.77 
FLAMES 1716    4700 2.47 -0.66 1.35  0.25    0.25   0.36  0.21  0.21  0.18 -0.05     0.35      P   7.72 
FLAMES 1750    4775 2.16 -0.76 1.60          0.46   0.51  0.19  0.32  0.37  0.04     0.25 0.25 E   7.88 
FLAMES 1766    4820 2.45 -0.75 1.60  0.32    0.20   0.47  0.18  0.25  0.34  0.09     0.19 0.64 P   7.87 
FLAMES 2703    4635 1.83 -0.83 1.60 -0.08    0.21         0.26  0.34  0.37 -0.08     0.22 0.37 P   8.85 
FLAMES 2722    4640 2.08 -0.70 1.40          0.39   0.19  0.27  0.27  0.22 -0.02     0.19 0.29 E   7.99 
FLAMES 2731    4595 1.89 -0.81 1.60  0.23    0.22   0.40  0.25  0.25  0.38 -0.04     0.15 0.40 P   8.43 
FLAMES 2737    4525 1.78 -0.82 1.55  0.22    0.25   0.36  0.19  0.36  0.36 -0.04     0.14 0.41 P   6.92 
FLAMES 2739    4435 1.69 -0.81 1.70  0.11    0.38   0.38  0.32  0.29  0.23 -0.04     0.15 0.30 I   6.30 
FLAMES 3603    4795 2.50 -0.66 1.75  0.11    0.55   0.48  0.26  0.15  0.24 -0.02     0.35 0.65 I  11.45 
FLAMES 3609    4515 2.01 -0.66 1.50  0.36    0.06   0.41  0.32  0.25  0.32 -0.04     0.30 0.35 P  11.49 
FLAMES 3622    4205 1.14 -0.87 1.75  0.32    0.24   0.54  0.31  0.33  0.41  0.02     0.18 0.38 P  10.11 
FLAMES 3751    4545 1.85 -0.87 1.55  0.32    0.15   0.30  0.16  0.25  0.14 -0.04     0.11 0.31 P   7.55 
FLAMES 3760    4650 2.11 -0.76 1.55  0.31    0.21   0.34  0.13  0.31  0.36  0.02     0.25 0.40 P   8.87 
FLAMES 4213    4240 1.31 -0.80 1.75  0.02    0.41   0.35  0.32  0.31  0.40 -0.07     0.17 0.34 I   2.60 
FLAMES 4626    4500 1.73 -0.81 1.70  0.16    0.51   0.56  0.30  0.34  0.39 -0.04     0.25 0.50 I   9.82 
FLAMES 4628    4275 1.30 -0.85 2.10  0.43    0.21   0.51  0.39  0.21  0.49  0.01     0.17 0.39 P   9.55 
FLAMES 4634    4750 2.35 -0.82 1.65  0.22    0.12         0.29  0.36  0.25  0.09     0.08      P  10.09 
FLAMES 4636    4475 2.05 -0.71 1.60  0.21    0.56   0.31  0.36  0.24  0.24  0.11     0.30 0.50 I  10.62 
FLAMES 4705    4530 2.03 -0.76 1.75  0.50    0.14   0.41  0.23  0.28  0.38  0.02     0.25 0.45 P   7.64 
FLAMES 4710    4475 1.60 -0.78 1.65  0.08    0.13   0.35  0.22  0.40  0.46 -0.02     1.02 0.50 P   7.04 
FLAMES 4717    4700 2.22 -0.72 1.65  0.32    0.55         0.17  0.35  0.45 -0.02     0.33 0.31 I   6.85 
FLAMES 4731    4675 2.04 -0.75 1.60          0.52   0.45  0.30  0.36  0.38 -0.01     0.09 0.39 E   6.72 
FLAMES 4748    4385 1.56 -0.76 1.65 -0.16    0.54   0.46  0.37  0.35  0.33 -0.01     0.06 0.40 I   6.60 
FLAMES 5601    4315 1.58 -0.78 1.70  0.33    0.26   0.36  0.27  0.29  0.35 -0.02     0.20 0.37 P   9.64 
FLAMES 5637    4590 2.04 -0.71 1.60          0.47   0.24  0.14  0.22  0.35 -0.09          0.50 E   9.40 
FLAMES 5702    4500 1.98 -0.85 1.65  0.05    0.50   0.35  0.42  0.29  0.42  0.02     0.27 0.49 I   6.45 
FLAMES 5717    4435 1.66 -0.90 1.85  0.03    0.82   0.50  0.38  0.33  0.47 -0.02     0.29 0.49 I   6.21 
FLAMES 5720    4495 2.04 -0.76 1.75 -0.39    0.65   0.31  0.30  0.27  0.34  0.00     0.28 0.57 E   7.12 
FLAMES 5725    5000 2.01 -0.81 1.45  0.31    0.01   0.31  0.32  0.22  0.23 -0.06          0.27 P   6.50 
FLAMES 5727    4710 2.32 -0.70 1.50          0.35         0.32  0.29  0.35  0.02     0.29      E   7.32 
FLAMES 5736    4570 2.00 -0.67 1.45          0.42   0.22  0.27  0.26  0.16 -0.01     0.11 0.16 E   7.30 
FLAMES 5743    4475 1.82 -0.84 1.75  0.15    0.44   0.39  0.29  0.28  0.43  0.05     0.31 0.28 I   8.59 
FLAMES 6614    4625 2.14 -0.80 1.95          0.60   0.50  0.22  0.27  0.46  0.00          0.52 E  11.40 
FLAMES 6616    4470 1.69 -0.80 1.80  0.60    0.48   0.38  0.28  0.31  0.30  0.06     0.36 0.34 I  11.76 
FLAMES 6623    4500 1.80 -0.83 1.65 -0.08    0.54   0.33  0.33  0.17  0.33 -0.02     0.30 0.42 I  10.90 
FLAMES 6628    4570 2.03 -0.87 1.80  0.27    0.28   0.35  0.30  0.30  0.42 -0.04     0.26 0.51 P  11.54 
FLAMES 6644    4685 2.00 -0.82 1.75        222.00   0.34  0.29  0.42  0.45 -0.03               E  11.01 
FLAMES 6712    4545 1.91 -0.70 1.55  0.17    0.30   0.30  0.21  0.31  0.31  0.00     0.27 0.45 P   7.66 
FLAMES 6715    4720 2.78 -0.65 1.65          0.28   0.25  0.27  0.15  0.23 -0.01     0.57      E   7.31 
FLAMES 6720    4665 2.14 -0.81 1.65  0.31    0.19   0.36  0.29  0.29  0.19 -0.10          0.40 P   8.77 
FLAMES 6727    4495 2.08 -0.72 1.70  0.17    0.64   0.44  0.35  0.22  0.34  0.03     0.36 0.50 I   7.51 
FLAMES 6740    4550 1.52 -0.71 1.60 -0.39    0.47   0.36  0.10  0.27  0.25 -0.17     0.08 0.25 E   6.74 
FLAMES 7606    4725 2.70 -0.61 1.60         -0.04   0.31  0.20  0.11  0.16  0.04     0.40 0.50 E  11.70 
FLAMES 7629    4620 2.14 -0.69 1.65  0.08    0.59   0.48  0.15  0.24  0.37 -0.04     0.30 0.45 I  11.62 
FLAMES 7711    4690 2.40 -0.70 1.65          0.26   0.40  0.20  0.26  0.39 -0.05     0.42 0.49 E   7.14 
FLAMES 7716    4725 2.12 -0.70 1.50          0.28   0.42  0.18  0.26  0.27 -0.11          0.44 E   7.52 
FLAMES 7723    4300 1.61 -0.69 1.70  0.31    0.20   0.44  0.22  0.28  0.42  0.00     0.18 0.48 P   9.09 
FLAMES 7739    4750 2.18 -0.72 1.50 -0.23    0.38   0.22  0.10  0.21  0.29 -0.01     0.33 0.46 I   8.64 
FLAMES 8602    4350 1.74 -0.82 1.80  0.42    0.21   0.38  0.30  0.22  0.33  0.04     0.27 0.49 P  11.98 
FLAMES 8614    4550 1.93 -0.86 1.70  0.28    0.21   0.38  0.21  0.20  0.34 -0.06     0.20 0.43 P  10.37 
FLAMES 8620    4600 2.17 -0.77 1.65  0.27    0.46   0.39  0.34  0.30  0.40  0.04     0.23 0.61 I  11.17 
FLAMES 8632    4820 2.67 -0.62 1.55  0.32    0.11   0.29  0.12  0.18  0.39  0.02     0.31 0.54 P  10.10 
FLAMES 8640    4275 1.17 -0.91 1.85  0.31    0.29   0.36  0.23  0.33  0.43  0.01     0.06 0.35 P  11.65 
FLAMES 8644    4400 1.88 -0.70 1.65  0.37    0.25   0.30  0.25  0.25  0.32  0.00     0.29 0.54 P  10.70 
FLAMES 8648    4485 1.62 -0.82 1.85          0.47   0.30  0.15  0.20  0.42 -0.05     0.22 0.54 E  10.01 
FLAMES 8709    4700 2.27 -0.70 1.40  0.00    0.39   0.25  0.32  0.29  0.37  0.08     0.19 0.44 I   7.18 
FLAMES 8715    4600 2.16 -0.92 1.40  0.02    0.11         0.31  0.29  0.22  0.02          0.49 P   8.82 
FLAMES 8737    4800 2.64 -0.61 1.40 -0.09    0.02   0.19  0.09  0.14  0.27 -0.06               P   7.67 
FLAMES D 15    4175 1.26 -0.82 1.75 -0.08    0.66   0.52  0.38  0.30  0.33  0.03     0.10 0.41 I   5.79 
FLAMES D 20    4700 2.45 -0.77 1.40  0.32    0.42   0.27  0.27  0.32  0.26 -0.07     0.21 0.26 I   5.38 
FLAMES D 217   4725 2.39 -0.65 1.45          0.40   0.30  0.39  0.30  0.35  0.00     0.29 0.29 E   5.85 
FLAMES D 229   4395 1.52 -0.76 1.65  0.19    0.27   0.46  0.32  0.37  0.36  0.02     0.15 0.35 P   5.53 
FLAMES D 23    4700 2.35 -0.65 1.60  0.35    0.25   0.38  0.12  0.24  0.38  0.00     0.34 0.44 P   5.46 
FLAMES D 240   4470 1.70 -0.78 1.60  0.13    0.41   0.42  0.29  0.35  0.33 -0.03     0.17 0.47 I   5.17 
FLAMES D 286   5150 2.26 -0.78 1.65 -0.08    0.31   0.18  0.32  0.17  0.05 -0.05     0.27 0.52 I   5.94 
FLAMES D 289   4525 2.15 -0.70 1.50          0.57   0.33  0.47  0.30  0.31  0.02     0.34 0.54 E   5.06 
FLAMES D 326   4370 1.75 -0.81 1.80  0.11    0.38   0.38  0.37  0.28  0.39  0.04     0.35 0.55 I   6.06 
FLAMES D 332   4640 2.15 -0.71 1.65  0.46    0.23   0.31  0.19  0.27  0.43  0.05     0.25      P   5.12 
FLAMES D 336   4175 1.17 -0.91 1.80  0.00    0.59   0.48  0.44  0.35  0.41  0.04     0.22 0.45 I   5.93 
FLAMES D 399   4275 1.53 -0.77 1.70  0.01    0.46   0.49  0.39  0.25  0.40 -0.07     0.21 0.46 I   5.29 
FLAMES D 444   4515 1.80 -0.84 1.55  0.36    0.21   0.29  0.26  0.38  0.39  0.04     0.13 0.38 P   5.48 
FLAMES D 458   4790 2.46 -0.66 1.65  0.00    0.45   0.38  0.16  0.21  0.33  0.11     0.45 0.60 I   6.06 
FLAMES D 460   4675 2.02 -0.85 1.55  0.25    0.15         0.19  0.29  0.49 -0.06     0.29      P   5.43 
FLAMES D 490   4600 2.04 -0.85 1.60          0.55   0.36  0.29  0.25  0.29  0.09     0.19 0.57 E   5.50 
FLAMES D 495   4750 2.30 -0.75 1.55          0.52         0.28  0.38  0.34  0.09     0.08 0.33 E   5.04 
FLAMES D 571   4265 1.10 -0.87 1.95  0.29    0.18   0.37  0.32  0.20  0.37 -0.03     0.01 0.31 P   5.97 
FLAMES D 579   4740 2.28 -0.87 1.65          0.80         0.32  0.35  0.34  0.09     0.36 0.61 E   5.15 
FLAMES D 672   4250 1.40 -0.83 1.75  0.30    0.42   0.50  0.32  0.30  0.42 -0.02     0.25 0.55 I   5.81 
FLAMES E 179   4735 2.54 -0.72 1.40  0.52    0.11   0.25  0.23  0.30  0.33  0.03     0.31 0.38 P   3.84 
FLAMES E 329   4350 1.54 -0.82 1.65  0.04    0.39   0.40  0.27  0.27  0.31 -0.07     0.14 0.36 I   3.44 
FLAMES E 500   4605 2.36 -0.65 1.55  0.50    0.17   0.40  0.14  0.17  0.32  0.03     0.34 0.39 P   2.35 
FLAMES F 111   4465 1.73 -0.81 1.65  0.31    0.24   0.46  0.30  0.33  0.33 -0.02     0.17 0.35 P   1.57 
FLAMES F 188   4700 2.40 -0.76 1.65          0.49   0.51  0.27  0.27  0.35  0.06     0.45      E   1.50 
FLAMES M 11809 4675 2.32 -0.62 1.45          0.17   0.37  0.16  0.25  0.37  0.07     0.31 0.31 E   1.51 
FLAMES M 12722 4750 2.52 -0.71 1.55  0.33    0.43   0.31  0.21  0.17  0.44 -0.12     0.35 0.45 I   2.66 
FLAMES M 12793 4625 2.25 -0.79 1.60 -0.52    0.37   0.39  0.25  0.35  0.37  0.04     0.31 0.33 E   1.63 
FLAMES M 14089 4400 1.60 -0.92 1.60 -0.09    0.57   0.38  0.39  0.26  0.35 -0.06     0.07 0.43 I   0.88 
FLAMES M 14427 4450 1.73 -0.85 1.60 -0.46    0.70   0.50  0.41  0.31  0.32 -0.08    -0.12 0.44 E   2.55 
FLAMES M 25934 4750 2.51 -0.65 1.50  0.00    0.45   0.50  0.14  0.18  0.57  0.09               I   1.25 
FLAMES M 26686 4550 2.05 -1.00 1.50          0.65   0.55  0.43  0.32  0.32  0.03               E   1.58 
FLAMES M 31358 4660 1.86 -0.71 1.50 -0.14    0.36   0.27  0.16  0.27  0.37 -0.07     0.15 0.32 I   2.40 
FLAMES M 33915 4900 1.71 -0.94 1.45          0.08   0.29  0.29  0.25  0.05 -0.17    -0.08      E   5.32 
FLAMES M 5473  4725 2.43 -0.72 1.45  0.09    0.19   0.32  0.15  0.31  0.30  0.03     0.26 0.68 P   5.97 
FLAMES T 1040  4400 1.33 -0.80 1.50  0.00    0.35   0.39  0.32  0.37  0.35 -0.04    -0.06 0.04 I   6.01 
FLAMES T 1140  4675 2.12 -0.63 1.45          0.34   0.27  0.57  0.35  0.37 -0.16     0.22 0.47 E   3.06 
FLAMES T 1661  4515 2.08 -0.77 1.55  0.42    0.14   0.29  0.26  0.19  0.20 -0.04     0.31 0.81 P   5.65 
FLAMES T 1826  4730 2.11 -0.70 1.60          0.26   0.40  0.17  0.25  0.34 -0.10     0.03 0.29 E   5.04 
FLAMES T 2163  4800 2.22 -0.60 1.40          0.50         0.27  0.35  0.39 -0.07          0.54 E   5.24 
FLAMES T 2492  4825 2.87 -0.69 1.55          0.41   0.52  0.34  0.20  0.34  0.03          0.83 E   9.75 
FLAMES T 745   4545 1.89 -0.81 1.40          0.53   0.54  0.28  0.32  0.22 -0.04     0.20 0.45 E   6.00 
