ID,Type,A(Na)_lte,e_A(Na)_lte,A(Na)_nlte,e_A(Na)_nlte
22,AGB,4.83,0.06,4.75,0.05
25,AGB,4.56,0.1,4.51,0.11
31,AGB,4.52,0.04,4.47,0.03
44,AGB,4.52,0.01,4.46,0.01
52,AGB,4.7,0.04,4.61,0.03
53,AGB,4.76,0.03,4.68,0.02
59,AGB,4.71,0.03,4.62,0.02
60,AGB,4.54,0.01,4.47,0.01
61,AGB,4.73,0.04,4.65,0.02
65,AGB,4.95,0.05,4.86,0.05
75,AGB,4.5,0.01,4.44,0.01
76,AGB,4.89,0.14,4.8,0.15
78,AGB,4.86,0.04,4.77,0.02
80,AGB,4.59,0.04,4.51,0.03
83,AGB,4.71,0.01,4.63,0.01
94,AGB,4.73,0.07,4.64,0.06
97,AGB,4.78,0.02,4.69,0.03
104,AGB,4.48,0.01,4.41,0.01
201620,AGB,4.84,0.01,4.75,0.02
12,RGB,5.1,0.05,5.01,0.07
23,RGB,5.12,0.08,5.04,0.04
27,RGB,4.77,0.18,4.7,0.18
29,RGB,4.67,0.04,4.61,0.05
30,RGB,5.1,0.18,5.01,0.13
35,RGB,5.39,0.13,5.28,0.08
43,RGB,5.45,0.11,5.33,0.04
50,RGB,4.95,0.06,4.86,0.03
54,RGB,4.94,0.03,4.85,0.03
64,RGB,5.39,0.15,5.27,0.08
91,RGB,5.1,0.06,5.01,0.06
92,RGB,4.72,0.11,4.64,0.12
107,RGB,5.03,0.08,4.94,0.09
129,RGB,5.04,0.05,4.94,0.06
155,RGB,4.62,0.01,4.54,0.02
161,RGB,5.23,0.06,5.11,0.04
170,RGB,5.4,0.08,5.27,0.02
186,RGB,4.63,0.06,4.54,0.04
193,RGB,4.58,0.01,4.5,0.01
262,RGB,5.17,0.04,5.06,0.01
276,RGB,5.2,0.1,5.08,0.06
200619,RGB,5.41,0.01,5.33,0.01
