ID,Type,[Na/Fe],e_[Na/Fe]
2M00235484-7210009,AGB,0.18,0.05
2M00235632-7210590,AGB,0.26,0.08
2M00235701-7202185,AGB,0.25,0.05
2M00235728-7207274,AGB,0.06,0.07
2M00235852-7206177,AGB,0.44,0.03
2M00240062-7203573,AGB,0.39,0.08
2M00240304-7202193,AGB,0.17,0.06
2M00240310-7203482,AGB,0.08,0.07
2M00240330-7203075,AGB,0.48,0.06
2M00240427-7206074,AGB,0.08,0.06
2M00241142-7206126,AGB,0.05,0.03
2M00241462-7204018,AGB,0.22,0.06
2M00241531-7202231,AGB,-0.04,0.04
2M00241755-7204385,AGB,-0.08,0.06
2M00241912-7208360,AGB,0.25,0.06
2M00241945-7211426,AGB,0.28,0.05
2M00242074-7206332,AGB,0.05,0.03
2M00242572-7203307,AGB,0.3,0.05
2M00242763-7205213,AGB,0.18,0.09
2M00242846-7205019,AGB,0.32,0.05
2M00243106-7207311,AGB,0.49,0.05
2M00243337-7204200,AGB,0.29,0.07
2M00243771-7205100,AGB,0.31,0.1
2M00243851-7203038,AGB,0.23,0.04
2M00245127-7204588,AGB,0.44,0.06
2M00245189-7200031,AGB,0.3,0.06
2M00245600-7212266,AGB,0.36,0.07
2M00250716-7200415,AGB,0.03,0.03
2M00250791-7203490,AGB,0.13,0.07
2M00250809-7204092,AGB,0.22,0.06
2M00251614-7201359,AGB,-0.09,0.11
2M00253428-7157352,AGB,0.62,0.04
2M00253529-7206543,AGB,0.07,0.06
2M00254689-7206494,AGB,-0.11,0.08
2M00255446-7201491,AGB,0.24,0.12
1628,RGB,0.43,0.14
1669,RGB,0.59,0.14
1703,RGB,0.31,0.14
1714,RGB,0.28,0.14
1716,RGB,0.25,0.14
1750,RGB,0.51,0.14
1766,RGB,0.2,0.14
2703,RGB,0.21,0.14
2722,RGB,0.19,0.14
2731,RGB,0.22,0.14
2737,RGB,0.25,0.14
2739,RGB,0.38,0.14
3603,RGB,0.55,0.14
3609,RGB,0.06,0.14
3622,RGB,0.24,0.14
3751,RGB,0.15,0.14
3760,RGB,0.21,0.14
4213,RGB,0.41,0.14
4626,RGB,0.51,0.14
4628,RGB,0.21,0.14
4634,RGB,0.12,0.14
4636,RGB,0.56,0.14
4705,RGB,0.14,0.14
4710,RGB,0.13,0.14
4717,RGB,0.55,0.14
4731,RGB,0.45,0.14
4748,RGB,0.54,0.14
5601,RGB,0.26,0.14
5637,RGB,0.24,0.14
5702,RGB,0.5,0.14
5717,RGB,0.82,0.14
5720,RGB,0.65,0.14
5725,RGB,0.01,0.14
5727,RGB,0.32,0.14
5736,RGB,0.22,0.14
5743,RGB,0.44,0.14
6614,RGB,0.5,0.14
6616,RGB,0.48,0.14
6623,RGB,0.54,0.14
6628,RGB,0.28,0.14
6644,RGB,0.34,0.14
6712,RGB,0.3,0.14
6715,RGB,0.25,0.14
6720,RGB,0.19,0.14
6727,RGB,0.64,0.14
6740,RGB,0.47,0.14
7606,RGB,0.31,0.14
7629,RGB,0.59,0.14
7711,RGB,0.4,0.14
7716,RGB,0.42,0.14
7723,RGB,0.2,0.14
7739,RGB,0.38,0.14
8602,RGB,0.21,0.14
8614,RGB,0.21,0.14
8620,RGB,0.46,0.14
8632,RGB,0.11,0.14
8640,RGB,0.29,0.14
8644,RGB,0.25,0.14
8648,RGB,0.3,0.14
8709,RGB,0.39,0.14
8715,RGB,0.11,0.14
8737,RGB,0.02,0.14
15,RGB,0.66,0.14
20,RGB,0.42,0.14
217,RGB,0.3,0.14
229,RGB,0.27,0.14
23,RGB,0.25,0.14
240,RGB,0.41,0.14
286,RGB,0.31,0.14
289,RGB,0.33,0.14
326,RGB,0.38,0.14
332,RGB,0.23,0.14
336,RGB,0.59,0.14
399,RGB,0.46,0.14
444,RGB,0.21,0.14
458,RGB,0.45,0.14
460,RGB,0.15,0.14
490,RGB,0.36,0.14
495,RGB,0.28,0.14
571,RGB,0.18,0.14
579,RGB,0.32,0.14
672,RGB,0.42,0.14
179,RGB,0.11,0.14
329,RGB,0.39,0.14
500,RGB,0.17,0.14
111,RGB,0.24,0.14
188,RGB,0.51,0.14
11809,RGB,0.37,0.14
12722,RGB,0.43,0.14
12793,RGB,0.37,0.14
14089,RGB,0.57,0.14
14427,RGB,0.7,0.14
25934,RGB,0.45,0.14
26686,RGB,0.55,0.14
31358,RGB,0.36,0.14
33915,RGB,0.29,0.14
5473,RGB,0.19,0.14
1040,RGB,0.35,0.14
1140,RGB,0.27,0.14
1661,RGB,0.14,0.14
1826,RGB,0.4,0.14
2163,RGB,0.27,0.14
2492,RGB,0.52,0.14
745,RGB,0.54,0.14
