Star,Type,[Na/H],e_[Na/H]
56897,AGB,-1.92,0.01
60609,AGB,-1.98,0.01
70509,AGB,-2.15,0.01
70522,AGB,-1.94,0.04
73216,AGB,-2.29,0.04
77677,AGB,-2.29,0.05
80621,AGB,-2.00,0.01
88626,AGB,-1.89,0.03
1,RGB,-2.22,0.01
51303,RGB,-1.77,0.01
63530,RGB,-2.07,0.03
72403,RGB,-2.30,0.07
78315,RGB,-2.06,0.06
90214,RGB,-2.28,0.06
4713,RGB,-2.24,0.08
10500,RGB,-2.46,0.10
11294,RGB,-1.77,0.06
47857,RGB,-2.15,0.03
50306,RGB,-1.95,0.01
50691,RGB,-1.92,0.01
50865,RGB,-2.25,0.09
52638,RGB,-1.96,0.08
52830,RGB,-2.14,0.04
53189,RGB,-2.13,0.04
53514,RGB,-1.95,0.02
53724,RGB,-2.39,0.05
56692,RGB,-2.02,0.06
56909,RGB,-1.88,0.03
59968,RGB,-1.95,0.03
60842,RGB,-2.39,0.04
62839,RGB,-1.99,0.01
63725,RGB,-2.16,0.01
64858,RGB,-1.72,0.06
64898,RGB,-1.88,0.04
65146,RGB,-2.45,0.02
67328,RGB,-1.88,0.05
67793,RGB,-1.91,0.02
68173,RGB,-2.04,0.04
68813,RGB,-1.92,0.05
70613,RGB,-1.96,0.07
70878,RGB,-2.08,0.02
71843,RGB,-1.87,0.04
72149,RGB,-2.29,0.06
73589,RGB,-1.85,0.02
73660,RGB,-2.29,0.08
73832,RGB,-1.84,0.02
74162,RGB,-2.04,0.04
74293,RGB,-1.79,0.01
74668,RGB,-2.07,0.06
76048,RGB,-1.85,0.02
76528,RGB,-2.02,0.01
77708,RGB,-2.07,0.05
78490,RGB,-2.30,0.03
79170,RGB,-1.94,0.05
79458,RGB,-2.11,0.01
87538,RGB,-2.26,0.01
88524,RGB,-2.03,0.02
