dist,_RAJ2000,_DEJ2000,_V,RA_ICRS,e_RA_ICRS,DE_ICRS,e_DE_ICRS,Source,Plx,e_Plx,pmRA,e_pmRA,pmDE,e_pmDE,Dup,FG,e_FG,Gmag,e_Gmag,FBP,e_FBP,BPmag,e_BPmag,FRP,e_FRP,RPmag,e_RPmag,BP-RP,RV,e_RV,Teff,AG,E(BP-RP),Rad,Lum
0.1917,13.160652786916499,-26.831090356544298,VizieR,13.16059817714,0.0213,-26.831129502520003,0.0181,2342707164487606272,1.9465,0.0322,-11.318,0.041,-9.092,0.032,0,35143.0,9.8738,14.3238,0.0003,16165.0,28.314,14.83,0.0019,26996.0,29.035999999999998,13.6837,0.0012,1.1463, , ,4919.5, , ,0.88,0.412
0.1286,13.320545105899502,-26.8035148290836,VizieR,13.32068909806,0.0238,-26.803671584499998,0.0176,2342712382872793600,2.9174,0.0311,29.850,0.044,-36.408,0.032,0,79244.0,18.63,13.441,0.0003,38732.0,39.305,13.8812,0.0011,57896.0,33.073,12.8553,0.0006,1.0259, , ,5087.74,0.0330,0.0150,0.81,0.399
0.1884,13.193679635302,-26.7793274269805,VizieR,13.193677653589999,0.0257,-26.779350386999997,0.0176,2342713280521035008,0.6261,0.0342,-0.411,0.047,-5.333,0.031,0,44936.0,10.953,14.0569,0.0003,20987.0,20.308,14.5465,0.0011,34177.0,31.063000000000002,13.4276,0.001,1.1189, , ,4965.0, , ,3.03,5.037
0.1748,13.2034913846854,-26.7779006821579,VizieR,13.20349005981,0.0261,-26.77795749081,0.0177,2342713280521035136,1.0457,0.0343,-0.275,0.047,-13.194,0.032,0,42329.0,11.388,14.1218,0.0003,23810.0,26.936,14.4095,0.0012,27194.0,22.381,13.6758,0.0009,0.7337, , ,6439.33,0.0927,0.0558,0.98,1.498
0.1708,13.366681687263501,-26.758255469772898,VizieR,13.3666937395,0.0434,-26.758314812929996,0.0306,2342714070795040000,0.1107,0.0571,2.499,0.073,-13.783,0.052,0,13230.0,5.8657,15.3845,0.0005,6300.9,17.862000000000002,15.8529,0.0031,9942.4,12.475999999999999,14.7682,0.0014,1.0847, , ,5012.49, , , , 
0.1792,13.4041233866838,-26.7233894320516,VizieR,13.40420167223,0.0346,-26.72341388386,0.0217,2342714586191130368,1.1797,0.0422,16.240,0.059,-5.679,0.039,0,27686.0,8.2877,14.5827,0.0003,13883.0,20.898000000000003,14.9952,0.0016,19620.0,17.237000000000002,14.0302,0.001,0.965, , ,5347.0,0.2960,0.1477,1.05,0.818
0.0408,13.2425870697362,-26.7149347505327,VizieR,13.242606699589999,0.0373,-26.71495895822,0.0253,2342901537529620352,0.1944,0.0472,4.073,0.066,-5.622,0.046,0,14836.0,5.5715,15.2601,0.0004,7925.8,18.188,15.6038,0.0025,10549.0,43.18899999999999,14.7039,0.0044,0.8999, , ,5374.18, , , , 
0.1259,13.206592429743301,-26.7029561013299,VizieR,13.20661291992,0.0243,-26.702980652789996,0.016,2342901778047787264,0.0689,0.0308,4.251,0.043,-5.702,0.029,0,71172.0,20.785,13.5576,0.0003,29389.0,36.589,14.1809,0.0014,59983.0,50.828,12.8168,0.0009,1.3641, , ,4719.55, , , , 
0.1945,13.373784934440902,-26.6998038579172,VizieR,13.37380392917,0.0346,-26.699808313929996,0.0213,2342714929788498816,0.7196,0.0428,3.941,0.057,-1.035,0.038,0,31330.0,7.3799,14.4485,0.0003,17557.0,22.546,14.7403,0.0014,20212.0,23.962,13.9979,0.0013,0.7424, , ,6214.0,0.3430,0.1710,1.32,2.349
0.2001,13.2141388170802,-26.697739457220504,VizieR,13.2141602729,0.0407,-26.69776012267,0.0255,2342901812407525504,1.1163,0.0516,4.452,0.065,-4.800,0.047,0,17219.0,5.8258,15.0984,0.0004,8588.9,16.704,15.5165,0.0021,12303.0,13.022,14.5369,0.0011,0.9797, , ,5349.0,0.1025,0.0540,0.88,0.568
0.1249,13.274454006635402,-26.6913472400671,VizieR,13.27450523059,0.0353,-26.691377627339996,0.0215,2342715479544311296,1.6701,0.0449,10.629,0.056,-7.058,0.039,1,24514.0,9.2614,14.7148,0.0004,11409.0,17.069000000000003,15.2083,0.0016,18708.0,23.155,14.0818,0.0013,1.1264, , ,4972.67,0.2040,0.1113,0.84,0.386
0.1187,13.0645608698225,-26.684424029916897,VizieR,13.06458130277,0.0311,-26.684448251659997,0.0204,2342899544664775936,0.1010,0.0403,4.240,0.059,-5.626,0.038,0,21153.0,5.2009,14.8749,0.0003,9836.0,14.389000000000001,15.3693,0.0016,16328.0,14.249,14.2296,0.0009,1.1398, , ,4973.0, , , , 
0.2355,12.988603107643002,-26.6772632302468,VizieR,12.98866288469,0.0282,-26.677279909790002,0.0196,2342900094420468224,0.6311,0.0365,12.406,0.055,-3.874,0.035,0,27072.0,6.9536,14.6071,0.0003,14275.0,19.332,14.965,0.0015,18582.0,17.128,14.0892,0.001,0.8758, , ,5648.69, , ,1.72,2.709
0.0995,13.3146831322544,-26.6762176748103,VizieR,13.31460582897,0.0574,-26.67632148875,0.0345,2342715548263788416,3.1711,0.0743,-16.043,0.081,-24.112,0.058,0,461020.0,321.89,11.5291,0.0008,249040.0,203.79,11.8607,0.0009,302620.0,200.54,11.0597,0.0007,0.8011,15.97,0.76,5809.0,0.3215,0.1540,1.33,1.807
0.1732,13.204641830416401,-26.6686518864709,VizieR,13.20466177035,0.0355,-26.668676319990002,0.0216,2342902740120458624,0.1198,0.0451,4.139,0.056,-5.675,0.039,0,24543.0,5.9971,14.7135,0.0003,11327.0,12.899000000000001,15.2161,0.0012,19116.0,13.215,14.0584,0.0008,1.1577, , ,4931.5, , , , 
0.1828,13.1062329758073,-26.6632198740952,VizieR,13.106253270529999,0.0391,-26.66324418692,0.023,2342905385820377728,0.1223,0.0478,4.212,0.067,-5.647,0.043,0,15614.0,5.7675,15.2046,0.0004,7429.8,16.203,15.6739,0.0024,11887.0,18.69,14.5742,0.0017,1.0997, , ,4973.0, , , , 
0.1484,12.823434306361802,-26.6614297828297,VizieR,12.823461309,0.04,-26.661428401760002,0.0274,2342911501853598848,0.6139,0.0531,5.605,0.069,0.321,0.048,0,14724.0,5.2626,15.2683,0.0004,8407.9,10.865,15.5397,0.0014,9382.9,12.96,14.8311,0.0015,0.7086, , ,6258.0,0.0373,0.0115,1.05,1.515
0.1826,13.172825151413699,-26.6564610156245,VizieR,13.17284437946,0.0389,-26.6564858014,0.0236,2342902911919145344,0.0766,0.0482,3.991,0.066,-5.757,0.045,0,15708.0,5.3853,15.1981,0.0004,7424.2,18.892,15.6748,0.0028,12070.0,15.776,14.5577,0.0014,1.1171, , ,4952.21, , , , 
0.1574,13.331829540379,-26.655611515471897,VizieR,13.331891619910001,0.0475,-26.65567586138,0.0259,2342716029300125056,0.3532,0.0518,12.886,0.075,-14.945,0.048,0,16939.0,6.6498,15.1161,0.0004,9856.4,24.645,15.3671,0.0027,10649.0,13.367,14.6936,0.0014,0.6735, , ,6331.0, , , , 
0.1884,13.295136343784002,-26.6553648679916,VizieR,13.29539073585,0.0451,-26.65543558029,0.0289,2342903289876412672,2.5982,0.0620,52.805,0.072,-16.423,0.052,1,170400.0,30.184,12.6097,0.0002,88810.0,78.192,12.9802,0.001,116980.0,73.46,12.0917,0.0007,0.8886,23.74,1.14,5552.18,0.2187,0.1140,1.09,1.014
0.0744,12.8060233548785,-26.651383806272698,VizieR,12.806093227089999,0.0227,-26.651553314010002,0.0141,2342911742371767168,3.6459,0.0281,14.504,0.039,-39.370,0.025,0,104580.0,27.131999999999998,13.1397,0.0003,48494.0,36.635999999999996,13.6372,0.0008,79718.0,54.067,12.508,0.0007,1.1291,28.41,1.43,4977.95,0.1605,0.0760,0.79,0.345
0.1789,13.1304655028771,-26.6502348435924,VizieR,13.130485909819999,0.0298,-26.650259148320004,0.0178,2342905518961521152,0.1131,0.0361,4.236,0.051,-5.645,0.034,1,32188.0,7.7151,14.4191,0.0003,16442.0,27.92,14.8115,0.0018,23309.0,32.12,13.8431,0.0015,0.9684, , ,5349.55, , , , 
0.172,13.1684815806301,-26.6494655460845,VizieR,13.16850128361,0.0394,-26.649489689379998,0.023,2342902907622048640,0.1686,0.0451,4.090,0.067,-5.607,0.044,0,15325.0,5.1897,15.2249,0.0004,7292.2,13.255,15.6942,0.002,11696.0,10.054,14.5918,0.0009,1.1024, , ,5000.5, , , , 
0.1677,13.325580699040401,-26.6493387906695,VizieR,13.325688226830001,0.036,-26.64926540589,0.0246,2342716025004493184,1.6422,0.0455,22.321,0.066,17.044,0.045,0,17297.0,6.0579,15.0934,0.0004,8100.7,18.98,15.5801,0.0025,13196.0,13.43,14.4608,0.0011,1.1193, , ,4998.91,0.0080,0.0052,0.71,0.280
0.1407,13.294171539479,-26.647741977508698,VizieR,13.29413564095,0.0382,-26.64777696177,0.0192,2342903392955627648,1.3248,0.0436,-7.452,0.058,-8.125,0.036,0,41266.0,9.4701,14.1494,0.0002,22391.0,31.511,14.4762,0.0015,27523.0,20.269000000000002,13.6627,0.0008,0.8135, , ,5825.5,0.0450,0.0210,0.94,0.926
0.1361,13.396229334778301,-26.6474552386213,VizieR,13.39630205342,0.0426,-26.64746409706,0.0299,2342715857501434112,0.9812,0.0518,15.096,0.077,-2.057,0.055,0,12525.0,5.8684,15.4439,0.0005,6318.6,17.283,15.8498,0.003,8983.6,13.782,14.8783,0.0017,0.9715, , ,5367.0,0.1357,0.0693,0.84,0.533
0.1434,13.224735957472,-26.6460376539542,VizieR,13.22475636564,0.0528,-26.6460623536,0.0318,2342904251949017088,0.0265,0.0659,4.237,0.083,-5.737,0.058,0,12878.0,6.8814,15.4137,0.0006,8902.4,15.217,15.4776,0.0019,6376.7,12.014000000000001,15.2504,0.002,0.2272, , ,9008.0,0.7310,0.3877, , 
0.1716,13.151460920437401,-26.640437535305,VizieR,13.15146774605,0.0303,-26.640455329699996,0.0183,2342905935576108928,0.8938,0.0365,1.417,0.052,-4.133,0.034,0,30792.0,7.0023,14.4673,0.0002,16478.0,25.908,14.8091,0.0017,20694.0,18.929000000000002,13.9723,0.001,0.8368, , ,5783.9,0.4010,0.1905,1.23,1.522
0.1716,13.1689904339358,-26.6378340310856,VizieR,13.169010393139999,0.0299,-26.63785803757,0.0185,2342903083717827200,0.0509,0.0361,4.144,0.051,-5.576,0.035,0,29206.0,7.0363,14.5247,0.0003,13279.0,17.58,15.0435,0.0014,23159.0,21.081,13.8501,0.001,1.1933, , ,4875.78, , , , 
0.0968,13.338736549713099,-26.635694967645197,VizieR,13.33872622337,0.3678,-26.635640969839997,0.3179,2342716059364222592,1.7426,0.5072,-2.144,0.542,12.541,0.583,0,167910.0,39.438,12.6257,0.0003,94742.0,114.57,12.91,0.0013,107790.0,87.805,12.1804,0.0009,0.7296,12.32,1.73,6257.0,0.2140,0.1060, , 
0.1324,13.211612962567001,-26.6341881983096,VizieR,13.21163359277,0.0614,-26.63421285045,0.0367,2342904320668416512,0.2579,0.0749,4.283,0.098,-5.726,0.069,0,13461.0,6.3482,15.3657,0.0005,9806.1,20.721,15.3726,0.0023,6187.9,8.0368,15.2831,0.0014,0.0896, , ,9593.0, , , , 
0.121,13.1638689745836,-26.6329235742172,VizieR,13.16388946264,0.0319,-26.63294781909,0.0194,2342903083717822848,0.0525,0.0382,4.254,0.054,-5.631,0.037,0,23967.0,5.5287,14.7393,0.0003,11113.0,17.52,15.2368,0.0017,18662.0,23.828000000000003,14.0845,0.0014,1.1523, , ,4930.5, , , , 
0.2068,13.2131419955232,-26.632917476964803,VizieR,13.21316262691,0.0718,-26.632941421640002,0.0372,2342904320668491904,0.1753,0.0760,4.283,0.113,-5.561,0.070,0,12871.0,7.5209,15.4143,0.0006,9079.0,24.054000000000002,15.4563,0.0029,6260.9,13.435,15.2703,0.0023,0.186, , ,9120.67,0.4623,0.2205, , 
0.1403,13.220586858459802,-26.6328143038135,VizieR,13.220606833339998,0.0359,-26.63283844753,0.0214,2342904320668492160,0.2580,0.0405,4.147,0.062,-5.608,0.038,0,25192.0,6.8911,14.6852,0.0003,11529.0,21.08,15.1969,0.002,19747.0,20.285999999999998,14.0232,0.0011,1.1737, , ,4993.88, , , , 
0.1378,13.256245655960699,-26.6325355139634,VizieR,13.25617252926,0.0305,-26.63257043549,0.0209,2342903633473793920,2.2227,0.0398,-15.182,0.053,-8.111,0.037,0,27596.0,8.8131,14.5863,0.0003,12590.0,18.581,15.1013,0.0016,21464.0,17.189,13.9326,0.0009,1.1687, , ,4923.0,0.1255,0.0630,0.68,0.248
0.163,13.1829386644482,-26.631412671719197,VizieR,13.182959488139998,0.0426,-26.6314368248,0.028,2342903083717827712,0.1018,0.0543,4.323,0.075,-5.610,0.052,0,13800.0,5.7367,15.3387,0.0005,6579.5,17.359,15.8059,0.0029,10570.0,13.168,14.7017,0.0014,1.1042, , ,4907.75, , , , 
0.1288,13.243474449758699,-26.6304747862531,VizieR,13.24349520328,0.0373,-26.63049944573,0.0253,2342904286308821760,0.2002,0.0486,4.309,0.066,-5.727,0.046,0,16059.0,4.9816,15.1741,0.0003,7572.5,14.800999999999998,15.6533,0.0021,12317.0,14.993,14.5356,0.0013,1.1176, , ,4934.77, , , , 
0.1491,13.147558883206,-26.628708244404503,VizieR,13.14757908735,0.0306,-26.62873301276,0.0186,2342905935576100736,0.1275,0.0370,4.195,0.051,-5.753,0.035,0,27779.0,6.3732,14.5791,0.0002,12649.0,13.198,15.0963,0.0011,21877.0,20.317,13.9119,0.001,1.1843, , ,4901.0, , , , 
0.2041,13.209711029033599,-26.6266571786119,VizieR,13.2097549089,0.0257,-26.6266939575,0.0174,2342904526826920704,0.8414,0.0333,9.111,0.047,-8.542,0.031,0,43675.0,9.7793,14.0878,0.0002,24532.0,35.806999999999995,14.377,0.0016,28494.0,30.458000000000002,13.625,0.0012,0.752, , ,6040.0,0.2822,0.1100,1.42,2.406
0.2019,13.146505938900301,-26.625950947877197,VizieR,13.14652625984,0.0395,-26.62597510842,0.0235,2342905935576098304,0.1392,0.0463,4.219,0.068,-5.611,0.046,0,14370.0,5.1459,15.2947,0.0004,7203.5,28.726,15.7075,0.0043,11135.0,26.831,14.6452,0.0026,1.0623, , ,5152.74, , , , 
0.1971,13.1927499112257,-26.623869291008898,VizieR,13.19276985375,0.0331,-26.62389353863,0.0241,2342903045061492224,0.0758,0.0428,4.141,0.062,-5.632,0.045,0,222380.0,118.25,12.3206,0.0006,77133.0,137.21,13.1333,0.0019,209700.0,342.23,11.4579,0.0018,1.6754,-49.38,0.23,4064.39, , , , 
0.2926,13.163064232516,-26.6237487629659,VizieR,13.16307255928,0.1804,-26.623775049699997,0.0844,2342906038655316864,0.3332,0.1644,1.729,0.300,-6.105,0.169,0,13593.0,11.505999999999998,15.3551,0.0009,9776.4,24.884,15.3759,0.0028,6760.5,15.068,15.187,0.0024,0.189, , ,9530.75, , , , 
0.1414,13.2684470678635,-26.620712133454102,VizieR,13.268467799719998,0.0385,-26.62073648531,0.0249,2342903667833531264,0.1222,0.0477,4.305,0.065,-5.656,0.045,0,14428.0,5.0853,15.2904,0.0004,6951.6,11.485,15.7462,0.0018,10998.0,15.325,14.6586,0.0015,1.0876, , ,4983.61, , , , 
0.1712,13.158881690064002,-26.619103460738103,VizieR,13.15890108627,0.0332,-26.619127852320002,0.0218,2342906038655311872,0.0809,0.0401,4.027,0.063,-5.665,0.041,0,16577.0,5.1866,15.1396,0.0003,7891.6,14.837,15.6085,0.002,12687.0,19.782,14.5036,0.0017,1.1049, , ,4954.5, , , , 
0.13,13.2275241341996,-26.6189867472844,VizieR,13.227544773710001,0.0247,-26.61901083177,0.017,2342904355028294784,0.1072,0.0323,4.286,0.044,-5.594,0.030,0,57632.0,14.818,13.7867,0.0003,26396.0,25.947,14.2975,0.0011,45033.0,38.159,13.1281,0.0009,1.1694, , ,4927.15, , , , 
0.195,13.1504834433701,-26.618432243881003,VizieR,13.15050166458,0.0597,-26.61845291367,0.0356,2342906107372568960,-0.1592,0.0649,3.783,0.110,-4.801,0.070,0,27340.0,20.779,14.5964,0.0008,12853.0,26.025,15.0789,0.0022,21870.0,25.589000000000002,13.9123,0.0013,1.1666, , ,4933.67, , , , 
0.1909,13.1608498530252,-26.618123686575103,VizieR,13.160870346400001,0.04,-26.61814761186,0.0264,2342906038655311616,0.0268,0.0484,4.255,0.075,-5.557,0.050,0,14177.0,5.7377,15.3094,0.0004,9720.6,22.410999999999998,15.3822,0.0025,7278.1,10.992,15.1069,0.0016,0.2753, , ,8725.0,0.9390,0.4710, , 
0.1374,13.304242387853401,-26.617949008685397,VizieR,13.30426254658,0.0269,-26.61797374477,0.0196,2342904011430916480,0.1339,0.0373,4.186,0.046,-5.745,0.035,0,31744.0,8.0878,14.4342,0.0003,14383.0,19.34,14.9568,0.0015,25007.0,23.768,13.7667,0.001,1.19, , ,4952.5, , , , 
0.1747,13.1960035024265,-26.617799554326602,VizieR,13.19602370422,0.0324,-26.617823402329996,0.0213,2342904595546310912,0.2049,0.0392,4.195,0.060,-5.539,0.040,1,17029.0,4.6898,15.1104,0.0003,8038.6,15.802,15.5884,0.0021,13099.0,15.77,14.4689,0.0013,1.1196, , ,4934.25, , , , 
0.1581,13.2066289885079,-26.6168181636481,VizieR,13.2066496817,0.0425,-26.616842392779997,0.0257,2342904526826917760,0.2147,0.0559,4.297,0.068,-5.627,0.048,0,15330.0,6.3509,15.2245,0.0004,7343.1,19.46,15.6867,0.0029,11806.0,18.054000000000002,14.5817,0.0017,1.105, , ,5058.16, , , , 
0.21899999999999997,13.180429044035401,-26.6158590554133,VizieR,13.18044898948,0.0337,-26.615883565220003,0.0233,2342903118077555840,0.0633,0.0444,4.142,0.063,-5.693,0.043,0,172470.0,85.935,12.5966,0.0005,63968.0,122.12,13.3365,0.0021,156090.0,282.58,11.7785,0.002,1.558,-48.96,0.63,4466.0, , , , 
0.1852,13.2075881600336,-26.6155162765417,VizieR,13.207608757560001,0.0251,-26.61554062471,0.0175,2342904526826917504,0.0817,0.0343,4.277,0.045,-5.655,0.031,0,50526.0,12.71,13.9296,0.0003,21907.0,36.407,14.5,0.0018,41143.0,38.486,13.2262,0.001,1.2738, , ,5014.0, , , , 
0.2,13.181208751566901,-26.612971658341397,VizieR,13.18122878609,0.0361,-26.612995700869998,0.0238,2342903118077553536,0.0792,0.0451,4.160,0.066,-5.584,0.045,0,14363.0,5.6386,15.2952,0.0004,7047.7,29.586,15.7313,0.0046,11168.0,16.633,14.642,0.0016,1.0893, , ,5020.0, , , , 
0.1176,13.2534332908695,-26.612208939223198,VizieR,13.253453934260001,0.0224,-26.61223338249,0.016,2342904423747772416,0.1438,0.0305,4.287,0.040,-5.677,0.029,0,65949.0,17.964000000000002,13.6403,0.0003,27815.0,37.734,14.2407,0.0015,54812.0,63.91,12.9147,0.0013,1.326,-39.79,4.84,5007.0, , , , 
0.2016,13.139298164397,-26.611121768066102,VizieR,13.139318311260002,0.0348,-26.61114575928,0.0225,2342906004295551104,0.1917,0.0422,4.184,0.065,-5.572,0.044,0,15819.0,4.9815,15.1904,0.0003,7491.3,17.838,15.665,0.0026,12132.0,13.22,14.5521,0.0012,1.1129, , ,4987.0,2.4370,1.2395, , 
0.2547,13.1783952758517,-26.610933651732896,VizieR,13.17841867104,0.0763,-26.6109577977,0.0498,2342906073015051520,0.4201,0.0924,4.858,0.139,-5.608,0.096,0,14089.0,12.134,15.3162,0.0009,9807.8,22.851999999999997,15.3725,0.0025,7669.3,15.321,15.05,0.0022,0.3224, , ,8630.0, , , , 
0.1177,13.1298546288101,-26.6106694941459,VizieR,13.12987524325,0.0484,-26.61069379789,0.0318,2342906210453970944,0.0331,0.0580,4.281,0.091,-5.645,0.063,1,11505.0,6.228,15.5362,0.0006,8121.0,19.676,15.5774,0.0026,5639.8,10.066,15.3838,0.0019,0.1936, , ,9219.0,0.8018,0.4143, , 
0.1662,13.1556426102632,-26.6098661167277,VizieR,13.155663074789999,0.0459,-26.60989030381,0.0301,2342906103078199936,0.1315,0.0555,4.250,0.085,-5.618,0.058,0,13587.0,5.8652,15.3555,0.0005,9613.1,24.905,15.3942,0.0028,6603.7,9.7148,15.2125,0.0016,0.1818, , ,9311.33,0.5762,0.2975, , 
0.1634,13.2078582417449,-26.6093656921613,VizieR,13.20787819731,0.0289,-26.609390381009998,0.0191,2342904561186653568,0.0623,0.0357,4.144,0.052,-5.734,0.033,0,53286.0,14.842,13.8718,0.0003,24365.0,32.566,14.3845,0.0015,41698.0,40.650999999999996,13.2116,0.0011,1.1728, , ,4913.0, , , , 
0.1699,13.1681104901806,-26.609110253491203,VizieR,13.16813022318,0.0328,-26.609134663949998,0.0217,2342906073015045504,0.1041,0.0400,4.098,0.060,-5.670,0.041,0,16997.0,7.0243,15.1124,0.0004,8337.8,18.583,15.5488,0.0024,13241.0,14.905,14.4571,0.0012,1.0917, , ,5012.0, , , , 
0.1653,13.187201781202099,-26.6063978798392,VizieR,13.187224194839999,0.0464,-26.606420676210004,0.0303,2342907546187217152,0.1684,0.0550,4.654,0.086,-5.295,0.057,0,16051.0,6.9234,15.1746,0.0005,7785.1,16.489,15.6232,0.0023,12389.0,22.307,14.5293,0.002,1.0939, , ,4985.26, , , , 
0.2543,13.179123314168802,-26.6038742390136,VizieR,13.179143194100002,0.0247,-26.603898941999997,0.0148,2342907546187214848,0.0789,0.0287,4.128,0.045,-5.737,0.027,0,79580.0,27.653000000000002,13.4364,0.0004,36717.0,224.9,13.9392,0.0067,67825.0,316.93,12.6835,0.0051,1.2558, , ,4958.76, , , , 
0.1106,13.1450213081869,-26.6036234223227,VizieR,13.145041580669998,0.033,-26.603647502740003,0.0216,2342906313533287424,0.1069,0.0396,4.210,0.062,-5.593,0.042,0,17745.0,5.6346,15.0657,0.0003,8395.0,16.72,15.5413,0.0022,13609.0,13.981,14.4274,0.0011,1.114, , ,4950.65, , , , 
0.1894,13.234237648231401,-26.603500031413102,VizieR,13.23425766595,0.0353,-26.60352447178,0.0251,2342904664265935488,0.1451,0.0475,4.157,0.061,-5.676,0.046,0,14492.0,5.1341,15.2856,0.0004,6873.7,10.607999999999999,15.7584,0.0017,11078.0,15.005,14.6508,0.0015,1.1076, , ,5018.0, , , , 
0.1851,13.161167396406901,-26.603436211269003,VizieR,13.161187818510001,0.025,-26.603460601089996,0.0165,2342906141734509056,0.0946,0.0307,4.241,0.047,-5.665,0.032,0,38941.0,10.477,14.2124,0.0003,19959.0,24.666999999999998,14.601,0.0013,27841.0,42.195,13.6502,0.0016,0.9508, , ,5321.75, , , , 
0.147,13.254734102195801,-26.601924162112102,VizieR,13.254754695139999,0.0332,-26.601948527470004,0.0241,2342904492467246592,0.0878,0.0462,4.277,0.057,-5.659,0.043,0,183690.0,65.94,12.5282,0.0004,66583.0,101.78,13.293,0.0017,169010.0,202.81,11.6922,0.0013,1.6008, , ,4267.33,0.5070,0.2473, , 
0.23,13.1582180926682,-26.601761406136102,VizieR,13.158238342550002,0.0282,-26.60178623628,0.0187,2342906141734502528,0.1367,0.0342,4.205,0.053,-5.767,0.036,0,26890.0,6.6411,14.6144,0.0003,12354.0,16.384,15.1218,0.0014,21242.0,22.839000000000002,13.9439,0.0012,1.1779, , ,4894.0, , , , 
0.092,13.243563728439801,-26.601701666219697,VizieR,13.24358417205,0.0321,-26.601726408039998,0.0233,2342904488170510592,0.2029,0.0445,4.246,0.056,-5.746,0.042,0,145550.0,48.158,12.7809,0.0004,55146.0,75.666,13.4976,0.0015,130170.0,179.14,11.9757,0.0015,1.5219, , ,4311.08,0.5000,0.2310, , 
0.1646,13.2188123363832,-26.6011205434059,VizieR,13.218831808760001,0.0201,-26.601145293080002,0.0143,2342904659969201024,0.0762,0.0274,4.044,0.036,-5.748,0.026,0,103210.0,36.07,13.154,0.0004,41525.0,34.85,13.8056,0.0009,88787.0,76.425,12.3911,0.0009,1.4146,-42.28,2.19,4702.95, , , , 
0.2149,13.1313019528277,-26.6004858991256,VizieR,13.131322216630002,0.0268,-26.60051023704,0.0177,2342906313533176960,0.1469,0.0330,4.208,0.050,-5.653,0.034,0,31782.0,7.0095,14.4329,0.0002,14652.0,47.065,14.9366,0.0035,25321.0,45.238,13.7532,0.0019,1.1834, , ,4879.0, , , , 
0.1333,13.212048647111402,-26.5981361338132,VizieR,13.21206849827,0.0295,-26.59816121584,0.0221,2342904629906127232,0.1137,0.0412,4.123,0.052,-5.826,0.042,0,23453.0,7.5107,14.7629,0.0003,11388.0,19.903,15.2102,0.0019,18674.0,23.752,14.0838,0.0014,1.1264, , ,4903.33, , , , 
0.1434,13.1927862923314,-26.5970366235774,VizieR,13.19280626877,0.0196,-26.59706093179,0.0135,2342907580546992128,0.1136,0.0248,4.149,0.037,-5.646,0.025,0,98962.0,28.09,13.1997,0.0003,39967.0,37.455999999999996,13.8471,0.001,84981.0,52.968999999999994,12.4386,0.0007,1.4085, , ,4676.95,0.3153,0.1465, , 
0.1874,13.133671428759598,-26.596322391347602,VizieR,13.133691749479999,0.0477,-26.59634636724,0.0309,2342906313533174528,0.1701,0.0570,4.220,0.089,-5.569,0.060,0,11025.0,6.6341,15.5824,0.0007,8079.3,17.779,15.583,0.0024,5064.8,8.843,15.5005,0.0019,0.0824, , ,9593.0, , , , 
0.1629,13.2106441873494,-26.596140306510502,VizieR,13.210664054789998,0.0263,-26.5961636983,0.0194,2342904629906125568,0.0569,0.0369,4.126,0.047,-5.433,0.036,0,32395.0,9.4181,14.4122,0.0003,14839.0,16.612000000000002,14.9229,0.0012,25729.0,26.103,13.7359,0.0011,1.1871,-40.90,9.54,4875.13, , , , 
0.1872,13.1969499907814,-26.5953356791398,VizieR,13.196970119160001,0.0319,-26.595360234050002,0.0226,2342907580546995584,0.1893,0.0413,4.180,0.059,-5.703,0.043,0,14477.0,5.3674,15.2867,0.0004,7277.3,23.429000000000002,15.6965,0.0035,11421.0,22.436999999999998,14.6176,0.0021,1.0788, , ,5003.64,2.3958,1.2490, , 
0.1974,13.1901817719299,-26.595234712561197,VizieR,13.19020173262,0.0252,-26.59525922475,0.0179,2342907584843530368,0.1453,0.0322,4.146,0.047,-5.693,0.034,0,28887.0,7.2306,14.5366,0.0003,13271.0,26.837,15.0441,0.0022,23041.0,26.162,13.8557,0.0012,1.1885, , ,4909.07,0.0650,0.0300, , 
0.1642,13.238621331829501,-26.5925960681949,VizieR,13.238642017019998,0.0308,-26.59261995764,0.022,2342904698625669248,0.0519,0.0423,4.296,0.053,-5.549,0.040,0,19806.0,6.1728,14.9464,0.0003,10863.0,19.963,15.2615,0.002,13369.0,14.772,14.4467,0.0012,0.8148, , ,5852.0,1.7530,0.8923, , 
0.1681,13.1621314495071,-26.5921255859742,VizieR,13.1621523767,0.0208,-26.59215039986,0.0139,2342906141734490880,0.1398,0.0254,4.346,0.040,-5.763,0.026,0,85983.0,21.274,13.3523,0.0003,35328.0,43.593,13.9811,0.0013,73667.0,57.812,12.5937,0.0009,1.3874,-49.15,0.13,4540.09, , , , 
0.162,13.185354922990198,-26.5917946154861,VizieR,13.18537494881,0.0219,-26.59181926598,0.0157,2342907546187248000,0.1410,0.0282,4.159,0.044,-5.725,0.033,0,53433.0,11.456,13.8689,0.0002,24522.0,22.611,14.3775,0.001,41967.0,45.849,13.2047,0.0012,1.1728,-37.19,3.68,4912.0, , , , 
0.17300000000000001,13.203733653711698,-26.5917121590711,VizieR,13.203753123510001,0.0338,-26.5917369382,0.0263,2342904629906121088,0.1036,0.0483,4.044,0.065,-5.755,0.049,0,14383.0,6.3251,15.2938,0.0005,7194.5,15.912,15.7089,0.0024,10992.0,28.362,14.6592,0.0028,1.0497, , ,5083.72, , , , 
0.2058,13.165658362297199,-26.5910459854412,VizieR,13.165678768169998,0.0334,-26.59107081705,0.0223,2342907614906712064,0.1765,0.0412,4.238,0.063,-5.767,0.043,0,16521.0,5.1835,15.1433,0.0003,7895.8,19.332,15.6079,0.0027,12795.0,19.861,14.4943,0.0017,1.1135, , ,5022.88, , , , 
0.1898,13.2192398927966,-26.590823806119104,VizieR,13.21926042576,0.0229,-26.590848110859998,0.0176,2342904732985401344,0.1228,0.0316,4.265,0.042,-5.645,0.031,0,58172.0,12.745,13.7766,0.0002,25015.0,25.480999999999998,14.3559,0.0011,47762.0,31.624000000000002,13.0642,0.0007,1.2917, , ,5040.82,0.2803,0.1480, , 
0.0651,13.1962435590514,-26.590311155135,VizieR,13.196264826330001,0.0433,-26.59033516597,0.0306,2342907580546994816,0.2292,0.0555,4.417,0.080,-5.577,0.059,0,13812.0,6.6409,15.3377,0.0005,9839.5,17.278,15.369,0.0019,7190.4,14.902000000000001,15.12,0.0023,0.2489, , ,9189.0, , , , 
0.1733,13.3929946402915,-26.5896419415597,VizieR,13.39301057856,0.0456,-26.5896667313,0.0308,2344217549866873728,0.4233,0.0545,3.310,0.080,-5.758,0.056,0,11633.0,5.9658,15.5241,0.0006,6646.8,12.012,15.7949,0.002,7357.9,7.7487,15.095,0.0011,0.6998, , ,6298.0,0.2620,0.1335,1.33,2.517
0.1968,13.1910281709679,-26.589124532530604,VizieR,13.191048709879999,0.0449,-26.58914846234,0.0317,2342907584841769984,0.0607,0.0576,4.266,0.082,-5.558,0.061,0,10962.0,5.1989,15.5886,0.0005,8276.2,17.616,15.5568,0.0023,5212.4,11.703,15.4693,0.0024,0.0875, , ,9578.5, , , , 
0.1556,13.220334940079,-26.588914142363,VizieR,13.22035499831,0.0332,-26.588938234510003,0.0267,2342904732985400704,0.1530,0.0465,4.166,0.060,-5.596,0.047,0,141120.0,49.558,12.8144,0.0004,54221.0,45.706,13.516,0.0009,125160.0,108.49,12.0183,0.0009,1.4977,-49.56,0.77,4419.0,0.4250,0.2040, , 
0.2122,13.184096100481998,-26.5880865787606,VizieR,13.18411639461,0.0301,-26.588110894990002,0.0213,2342907649266462208,0.1993,0.0389,4.215,0.057,-5.648,0.043,0,17875.0,5.7469,15.0577,0.0003,8939.6,20.528000000000002,15.4731,0.0025,14142.0,23.111,14.3856,0.0018,1.0875, , ,5022.34,2.5250,1.2620, , 
0.3228,13.192620160404598,-26.587517288429602,VizieR,13.192640434300001,0.0241,-26.587541476240002,0.0173,2342907584843612416,0.1068,0.0314,4.211,0.045,-5.618,0.033,0,31421.0,7.5637,14.4453,0.0003,14603.0,37.499,14.9403,0.0028,25283.0,38.428000000000004,13.7548,0.0017,1.1854, , ,4883.0, , , , 
0.1685,13.198465404631,-26.5873302635358,VizieR,13.19848509625,0.0212,-26.58735399212,0.0157,2342907584843615360,0.1049,0.0278,4.090,0.040,-5.511,0.030,0,53270.0,12.118,13.8722,0.0002,24294.0,40.607,14.3876,0.0018,42306.0,42.448,13.1959,0.0011,1.1917, , ,4882.15, , , , 
0.1489,13.194767834844502,-26.5871068613657,VizieR,13.19478813883,0.0188,-26.587131250240002,0.0136,2342907584843612800,0.0594,0.0249,4.217,0.035,-5.665,0.026,0,82799.0,25.829,13.3933,0.0003,34788.0,41.417,13.9978,0.0013,70411.0,69.47399999999999,12.6428,0.0011,1.355, , ,5027.5,0.7525,0.4150, , 
0.2192,13.177229520734901,-26.5868635550388,VizieR,13.17724978714,0.0204,-26.58688789462,0.0147,2342907614906719104,0.1069,0.0285,4.209,0.038,-5.653,0.027,0,70010.0,19.984,13.5755,0.0003,30312.0,46.019,14.1474,0.0016,59059.0,60.801,12.8337,0.0011,1.3137, , ,4976.0,0.3355,0.1425, , 
0.1572,13.207420540509698,-26.58659439926,VizieR,13.20744168235,0.0239,-26.58661828172,0.0182,2342907683626216960,0.0820,0.0326,4.391,0.046,-5.547,0.034,0,40344.0,11.27,14.1739,0.0003,18103.0,21.98,14.707,0.0013,32576.0,30.785999999999998,13.4797,0.001,1.2273, , ,4865.56,0.1018,0.0490, , 
0.1701,13.17987068431,-26.5850676995568,VizieR,13.17989099266,0.0292,-26.58509225021,0.0211,2342907649266459136,0.1636,0.0401,4.218,0.054,-5.702,0.040,0,19449.0,10.048,14.9661,0.0006,12543.0,63.278,15.1054,0.0055,15314.0,69.007,14.2992,0.0049,0.8062, , ,5902.0, , , , 
0.1598,13.1883587672334,-26.582836089015498,VizieR,13.18837877549,0.02,-26.58286050886,0.0146,2342907653563082368,0.1348,0.0261,4.156,0.038,-5.672,0.028,0,70870.0,19.442,13.5622,0.0003,29965.0,30.124000000000002,14.1599,0.0011,59246.0,49.358000000000004,12.8303,0.0009,1.3296, , ,4795.07,0.3120,0.1480, , 
0.1338,13.2177490456596,-26.5827774581215,VizieR,13.21776964601,0.0261,-26.58280134483,0.0194,2342904732985395456,0.1744,0.0368,4.279,0.045,-5.548,0.035,0,34730.0,8.116,14.3366,0.0003,15728.0,24.834,14.8597,0.0017,27810.0,25.398000000000003,13.6514,0.001,1.2083, , ,4945.54,0.0608,0.0245, , 
0.1681,13.168590084461,-26.582241201286802,VizieR,13.168609933339999,0.0257,-26.58226596053,0.0183,2342907825361664128,0.0825,0.0335,4.123,0.048,-5.751,0.036,0,26922.0,6.8712,14.6131,0.0003,12318.0,18.694000000000003,15.1251,0.0016,21267.0,23.226999999999997,13.9427,0.0012,1.1824, , ,4891.5, , , , 
0.1532,13.237212122748598,-26.5808513625732,VizieR,13.237232344419999,0.0222,-26.58087593725,0.0157,2342904698625661824,0.0916,0.0298,4.200,0.041,-5.708,0.029,0,60469.0,20.554000000000002,13.7345,0.0004,25727.0,28.052,14.3254,0.0012,49992.0,34.824,13.0147,0.0008,1.3108, , ,5009.25, , , , 
0.1306,13.1779206435374,-26.5806547144348,VizieR,13.17794132917,0.0468,-26.5806789654,0.0337,2342907653562974464,0.1124,0.0626,4.297,0.086,-5.632,0.065,0,11747.0,5.8182,15.5135,0.0005,8580.3,20.048,15.5176,0.0025,5695.7,15.661,15.373,0.003,0.1446, , ,9591.25, , , , 
0.1934,13.1422023587755,-26.5804706851077,VizieR,13.14222254388,0.0321,-26.580495243010002,0.022,2342906412315861632,0.1242,0.0413,4.193,0.060,-5.704,0.043,0,18605.0,5.3939,15.0143,0.0003,8886.8,15.339,15.4795,0.0019,14471.0,29.823,14.3607,0.0022,1.1188, , ,4967.27, , , , 
0.1458,13.1845104081111,-26.5804636496666,VizieR,13.18452979388,0.0413,-26.58048746303,0.0291,2342907653563077120,0.0600,0.0532,4.027,0.076,-5.531,0.056,0,26118.0,10.892999999999999,14.646,0.0005,12446.0,22.119,15.1138,0.0019,20438.0,18.213,13.9858,0.001,1.128, , ,4923.41, , , , 
0.2121,13.155156284787099,-26.5798753767076,VizieR,13.155175484919999,0.0284,-26.57989913381,0.0203,2342907825361657344,0.0775,0.0370,3.988,0.053,-5.518,0.040,0,19974.0,5.3641,14.9372,0.0003,9384.2,16.835,15.4204,0.0019,15460.0,16.635,14.2889,0.0012,1.1315, , ,4968.76, , , , 
0.107,13.2227939032882,-26.578363572237897,VizieR,13.2228140848,0.0306,-26.57838772227,0.0238,2342904763048461184,0.0466,0.0428,4.192,0.054,-5.609,0.044,0,34705.0,9.1992,14.3374,0.0003,17229.0,21.1,14.7607,0.0013,26127.0,29.4,13.7192,0.0012,1.0415, , ,5192.78, , , , 
0.1683,13.1856964532498,-26.5780910209558,VizieR,13.18571704915,0.0292,-26.578115508200003,0.022,2342907649266464000,0.1156,0.0381,4.278,0.053,-5.687,0.043,0,18391.0,6.057,15.0269,0.0004,9050.4,28.612,15.4597,0.0034,14600.0,32.3,14.351,0.0024,1.1087, , ,5011.45, , , , 
0.1548,13.2250778967871,-26.578061822849303,VizieR,13.225098370669999,0.0247,-26.5780855825,0.0189,2342904763048461952,0.0875,0.0336,4.253,0.045,-5.518,0.034,0,39685.0,9.2177,14.1918,0.0003,17790.0,23.881,14.7259,0.0015,32161.0,63.993,13.4936,0.0022,1.2323, , ,4894.0, , , , 
0.0895,13.3185852856807,-26.577725288860602,VizieR,13.31842787628,0.034,-26.57824378403,0.0253,2342904217589341056,5.5561,0.0492,-32.696,0.060,-120.425,0.046,0,241260.0,79.429,12.2321,0.0004,115950.0,132.75,12.6907,0.0012,178390.0,171.96,11.6335,0.001,1.0572,43.61,1.30,5072.0,0.1290,0.0640,0.75,0.336
0.1283,13.080682259389,-26.5777156103066,VizieR,13.08065675,0.0392,-26.577721213740002,0.0244,2342907275605811584,1.9807,0.0462,-5.299,0.075,-1.301,0.045,0,215400.0,37.661,12.3553,0.0002,123270.0,155.05,12.6242,0.0014,136180.0,109.08,11.9266,0.0009,0.6976,-1.82,1.53,6319.0,0.1455,0.0755,1.22,2.127
0.1423,13.1706763752608,-26.577487362554397,VizieR,13.17069719831,0.0237,-26.57751112139,0.0169,2342907825361660544,0.1253,0.0311,4.325,0.045,-5.518,0.033,0,33659.0,8.8408,14.3706,0.0003,16264.0,107.19,14.8233,0.0072,27365.0,87.28200000000001,13.6689,0.0035,1.1544, , ,4925.69, , , , 
0.1538,13.220014349310699,-26.577424318614103,VizieR,13.220034749969999,0.0205,-26.5774487871,0.0154,2342904763048460416,0.0900,0.0286,4.238,0.036,-5.683,0.028,0,93872.0,32.079,13.257,0.0004,37994.0,42.82899999999999,13.9021,0.0012,80658.0,80.563,12.4953,0.0011,1.4068, , ,4730.66, , , , 
0.1426,13.3405441256628,-26.576172703978894,VizieR,13.34070515466,0.022,-26.576126629010002,0.0164,2344405360196844544,3.4068,0.0295,33.449,0.040,10.701,0.029,0,66854.0,19.715,13.6255,0.0003,29557.0,32.207,14.1747,0.0012,53063.0,46.74100000000001,12.9499,0.001,1.2248, , ,4845.18,0.1710,0.0895,0.72,0.261
0.1672,13.1872390278756,-26.5751183804208,VizieR,13.18725985937,0.0278,-26.575143020469998,0.0203,2342907649266464768,0.1474,0.0362,4.327,0.051,-5.723,0.039,0,20633.0,6.1985,14.902,0.0003,9857.1,16.07,15.367,0.0018,16179.0,20.874000000000002,14.2396,0.0014,1.1274, , ,4938.39, , , , 
0.1196,13.218865578892801,-26.5749507679233,VizieR,13.218886000280001,0.0592,-26.5749753237,0.0443,2342907722281113984,0.0820,0.0854,4.242,0.092,-5.703,0.076,0,10891.0,7.5405,15.5957,0.0008,7933.4,18.121,15.6027,0.0025,5125.3,16.486,15.4876,0.0035,0.1151, , ,9613.0, , , , 
0.2411,13.147855656971199,-26.5735961194563,VizieR,13.14787623563,0.0446,-26.573620474549998,0.0318,2342907894081122560,0.2380,0.0572,4.275,0.082,-5.657,0.063,0,12292.0,6.2649,15.4643,0.0006,8902.0,16.772000000000002,15.4777,0.002,5980.3,13.292,15.3201,0.0024,0.1576, , ,9579.5, , , , 
0.1433,13.1823269846715,-26.573560264681397,VizieR,13.182346588769999,0.0279,-26.57358483573,0.02,2342907653561101440,0.1746,0.0365,4.072,0.052,-5.707,0.038,0,20145.0,6.2381,14.928,0.0003,9833.1,14.362,15.3697,0.0016,15994.0,18.407,14.252,0.0012,1.1176, , ,4975.26, , , , 
0.1764,13.1675154514229,-26.573121171585,VizieR,13.16753578527,0.0189,-26.57314703441,0.0131,2342907859721395072,0.2316,0.0241,4.224,0.036,-6.007,0.025,0,102950.0,40.628,13.1568,0.0004,41609.0,57.464,13.8034,0.0015,89024.0,104.91,12.3882,0.0013,1.4153, , ,4631.14,0.3190,0.1530,14.95,92.665
0.1239,13.229297114384401,-26.5710995569939,VizieR,13.22931752174,0.0369,-26.57112356385,0.0271,2342904763048462976,0.0362,0.0493,4.239,0.067,-5.576,0.049,0,13417.0,6.3272,15.3692,0.0005,6557.6,18.698,15.8095,0.0031,10271.0,27.893,14.7329,0.0029,1.0767, , ,5043.41,1.8130,0.8890, , 
0.1562,13.2089255200052,-26.5707424819097,VizieR,13.208946631809999,0.0199,-26.57076653567,0.0151,2342907722282623744,0.1392,0.0276,4.386,0.038,-5.587,0.029,0,71797.0,22.01,13.5481,0.0003,30003.0,35.537,14.1585,0.0013,60188.0,43.971000000000004,12.8132,0.0008,1.3453,-45.25,2.88,4906.75,0.2530,0.1183, , 
0.1473,13.1957717981266,-26.570676170494103,VizieR,13.19579234203,0.0382,-26.570697328860003,0.0281,2342907756642288384,0.2017,0.0494,4.268,0.070,-4.914,0.055,0,13562.0,7.9843,15.3575,0.0006,6797.4,13.659,15.7705,0.0022,10654.0,14.597999999999999,14.6932,0.0015,1.0774, , ,5064.5, , , , 
0.1981,13.1568092496525,-26.5695900012438,VizieR,13.15682947016,0.0262,-26.569614117729998,0.0184,2342907889784614912,0.0522,0.0339,4.200,0.049,-5.601,0.036,0,24800.0,6.4378,14.7022,0.0003,11626.0,20.328,15.1878,0.0019,19670.0,23.893,14.0274,0.0013,1.1605, , ,4969.52, , , , 
0.1666,13.2266962112737,-26.568185799127697,VizieR,13.22671670029,0.0343,-26.568210058129996,0.0243,2342907722282627840,0.0988,0.0461,4.256,0.060,-5.634,0.045,0,15087.0,5.7331,15.2419,0.0004,7215.5,12.65,15.7057,0.0019,11545.0,18.381,14.6059,0.0017,1.0998, , ,5043.41, , , , 
0.1155,13.195457251014302,-26.5677547378373,VizieR,13.19547736658,0.0297,-26.56777771973,0.022,2342907756640331008,-0.1629,0.0381,4.179,0.057,-5.338,0.046,0,42764.0,14.295,14.1107,0.0004,19047.0,15.686,14.6518,0.0009,34888.0,48.718999999999994,13.4052,0.0015,1.2466, , ,4855.0, , , , 
0.18899999999999997,13.2138854321931,-26.5670985660469,VizieR,13.213906338169998,0.035,-26.56712238044,0.0238,2342907722282622592,0.1886,0.0422,4.343,0.064,-5.531,0.046,0,14973.0,5.6538,15.2501,0.0004,7141.9,15.017000000000001,15.7168,0.0023,11446.0,10.519,14.6153,0.001,1.1015, , ,4931.05,2.3210,1.1795, , 
0.1373,13.296336826541099,-26.5663512390891,VizieR,13.29635728504,0.0321,-26.56637567856,0.0234,2342904973503575808,0.1268,0.0435,4.250,0.056,-5.676,0.043,0,17896.0,5.555,15.0565,0.0003,8419.8,11.659,15.5381,0.0015,13699.0,14.695,14.4202,0.0012,1.1179, , ,4850.0, , , , 
0.1252,13.3122354074385,-26.5645438928302,VizieR,13.31225558047,0.0297,-26.56456850666,0.0208,2344406184830568960,0.1277,0.0403,4.191,0.052,-5.717,0.038,0,21792.0,6.1567,14.8426,0.0003,10117.0,13.581,15.3387,0.0015,16819.0,17.846,14.1974,0.0012,1.1413, , ,4973.0, , , , 
0.1389,13.1666369964333,-26.5638420383107,VizieR,13.16665713963,0.02,-26.563866257369998,0.0144,2342907855424881152,0.1356,0.0263,4.185,0.038,-5.625,0.027,0,69434.0,17.012,13.5844,0.0003,29105.0,28.535,14.1915,0.0011,58406.0,55.306999999999995,12.8458,0.001,1.3457,-43.03,1.83,4872.3,0.2615,0.1437, , 
0.1588,13.220882790425401,-26.563800873305002,VizieR,13.22090272379,0.0247,-26.5638256282,0.0187,2342907722282622336,0.1057,0.0325,4.141,0.048,-5.750,0.035,0,31638.0,7.5458,14.4378,0.0003,15557.0,17.055,14.8716,0.0012,23511.0,21.211,13.8337,0.001,1.0378, , ,5114.46, , , , 
0.1838,13.1699500995628,-26.5632735211353,VizieR,13.169970662639999,0.0479,-26.563297483070002,0.0306,2342907855424884224,0.1636,0.0589,4.272,0.083,-5.565,0.061,0,11044.0,6.1694,15.5806,0.0006,8142.6,16.772000000000002,15.5745,0.0022,5259.1,15.952,15.4596,0.0033,0.1148, , ,9578.5, , , , 
0.1596,13.157333392751,-26.5629659403228,VizieR,13.157353695929999,0.033,-26.562990044320003,0.0242,2342907928440851456,0.2131,0.0429,4.218,0.063,-5.598,0.049,0,14537.0,6.1026,15.2822,0.0005,6972.2,14.665,15.743,0.0023,11102.0,19.675,14.6484,0.0019,1.0946, , ,5044.75, , , , 
0.1839,13.1537723540322,-26.5629301721881,VizieR,13.15379213977,0.0222,-26.5629546511,0.016,2342907894081112064,0.1145,0.0291,4.110,0.042,-5.685,0.031,0,43370.0,9.5491,14.0954,0.0002,20437.0,26.072,14.5754,0.0014,33338.0,36.943000000000005,13.4546,0.0012,1.1208, , ,4931.72, , , , 
0.2112,13.188204305014802,-26.562916871899,VizieR,13.18822525292,0.0303,-26.56294114843,0.0219,2342907962800710144,0.1517,0.0400,4.352,0.055,-5.638,0.041,0,16284.0,4.9177,15.159,0.0003,8191.3,63.733999999999995,15.568,0.0084,13422.0,83.507,14.4423,0.0068,1.1257, , ,4974.94, , , , 
0.1648,13.1809744739595,-26.5623558021456,VizieR,13.180995176800002,0.034,-26.562380077679997,0.0245,2342907958504104832,0.1445,0.0441,4.301,0.063,-5.638,0.048,0,20382.0,13.744000000000002,14.9153,0.0007,10025.0,24.311999999999998,15.3487,0.0026,16334.0,24.176,14.2292,0.0016,1.1195, , ,4990.38, , , , 
0.1306,13.220706342998199,-26.561854036856197,VizieR,13.2207262042,0.0216,-26.56187881689,0.0163,2342908100239742592,0.1174,0.0282,4.126,0.043,-5.755,0.030,0,50922.0,16.076,13.9211,0.0003,22110.0,27.46,14.4899,0.0013,41376.0,53.681999999999995,13.22,0.0014,1.2699, , ,5114.5,0.3350,0.1760, , 
0.0969,13.0682060406912,-26.5618510571944,VizieR,13.068226521169999,0.035,-26.56187546547,0.025,2342907378685021056,0.0810,0.0466,4.255,0.068,-5.669,0.045,0,15751.0,5.4019,15.1951,0.0004,7453.1,15.097999999999999,15.6705,0.0022,11999.0,12.627,14.564,0.0011,1.1065, , ,4944.94, , , , 
0.10300000000000001,13.1708887904986,-26.5604853612963,VizieR,13.17090878402,0.021,-26.56050932783,0.0142,2342907855424884864,0.1180,0.0263,4.154,0.039,-5.566,0.027,0,64293.0,14.76,13.668,0.0002,29341.0,24.714000000000002,14.1827,0.0009,50570.0,40.665,13.0022,0.0009,1.1805, , ,4876.0, , , , 
0.1232,13.2288107627234,-26.5589654632791,VizieR,13.22883099714,0.024,-26.558990344179996,0.0169,2342908100239743616,0.1638,0.0324,4.204,0.042,-5.779,0.031,0,43007.0,11.032,14.1045,0.0003,21259.0,23.881,14.5326,0.0012,31669.0,24.24,13.5103,0.0008,1.0222, , ,5281.92, , , , 
0.1346,13.188642951004699,-26.5582440280686,VizieR,13.18866333692,0.024,-26.558267779970002,0.0158,2342907958504111360,0.1225,0.0290,4.235,0.044,-5.517,0.030,0,41879.0,10.264000000000001,14.1334,0.0003,20933.0,22.074,14.5493,0.0011,30503.0,24.094,13.5511,0.0009,0.9982, , ,5334.0, , , , 
0.1291,13.2400471753054,-26.5575975463831,VizieR,13.2400675523,0.0349,-26.55762247501,0.0257,2342905179661984896,0.1761,0.0465,4.233,0.063,-5.790,0.047,0,15158.0,6.438,15.2367,0.0005,7230.1,11.999,15.7035,0.0018,11543.0,15.753,14.6061,0.0015,1.0974, , ,4923.41, , , , 
0.1741,13.1713659586562,-26.557504171441604,VizieR,13.171386188769999,0.0313,-26.557528638340003,0.0222,2342907928440967296,0.1433,0.0412,4.203,0.058,-5.683,0.042,0,304410.0,1004.5,11.9797,0.0036,87593.0,1358.7,12.9952,0.0168,325920.0,2655.7,10.9791,0.0088,2.0161,-45.19,3.00,3712.0, , , , 
0.1119,13.240757290869999,-26.5564767917601,VizieR,13.24077956553,0.0692,-26.5565003593,0.0519,2342905179660431616,0.1033,0.0909,4.628,0.125,-5.474,0.096,0,13744.0,9.1163,15.343,0.0007,7266.4,33.116,15.6981,0.0049,11145.0,27.401999999999997,14.6442,0.0027,1.0538, , ,5093.0, , , , 
0.183,13.1532569994843,-26.5553122552064,VizieR,13.15333729592,0.0321,-26.5552533042,0.0227,2342908684355089536,1.3186,0.0416,16.682,0.060,13.692,0.044,0,15662.0,5.5009,15.2012,0.0004,7896.7,12.595999999999998,15.6078,0.0017,11412.0,20.257,14.6185,0.0019,0.9893, , ,5142.21,0.0123,0.0067,0.78,0.382
0.105,13.232293575119,-26.554007832983302,VizieR,13.232313801110001,0.0346,-26.55403192013,0.0245,2342908100239741440,0.1234,0.0474,4.202,0.059,-5.594,0.044,0,15530.0,5.7599,15.2105,0.0004,7408.0,11.812999999999999,15.6771,0.0017,11826.0,13.725,14.5799,0.0013,1.0973, , ,4925.7, , , , 
0.0811,13.197719041765803,-26.5539583382092,VizieR,13.19774055582,0.0376,-26.55398235672,0.0274,2342907992863856640,0.0222,0.0489,4.470,0.071,-5.578,0.052,0,14230.0,5.6972,15.3053,0.0004,9903.1,14.735999999999999,15.362,0.0016,7168.7,15.79,15.1233,0.0024,0.2386, , ,8978.0,0.7910,0.3970, , 
0.1608,13.2003556334704,-26.551279361834197,VizieR,13.2003760664,0.0322,-26.55130377847,0.0227,2342907992863858432,0.0965,0.0417,4.245,0.061,-5.671,0.043,0,15311.0,5.8633,15.2259,0.0004,7329.9,15.262,15.6886,0.0023,11685.0,15.115,14.5929,0.0014,1.0958, , ,5026.41, , , , 
0.1521,13.1950896518698,-26.550648853298696,VizieR,13.195110330599999,0.0359,-26.5506737303,0.0272,2342907992863854208,0.1954,0.0495,4.296,0.062,-5.778,0.048,0,15424.0,5.4559,15.2179,0.0004,8076.4,11.444,15.5833,0.0015,10826.0,15.659,14.6757,0.0016,0.9076, , ,5515.27,1.9770,0.9937, , 
0.1134,13.330145406117001,-26.5466236777571,VizieR,13.33026813414,0.0668,-26.546670236799997,0.0499,2344406219190302976,4.8138,0.0930,25.499,0.106,-10.814,0.087,0,1624000.0,378.38,10.1619,0.0003,908920.0,482.67,10.4551,0.0006,1020300.0,547.24,9.7401,0.0006,0.715,0.67,1.08,5991.43,0.4867,0.2315,1.54,2.739
0.149,13.089699027521998,-26.5449727230441,VizieR,13.08971886071,0.0192,-26.54499728308,0.0142,2342907481764234368,0.1283,0.0254,4.121,0.038,-5.704,0.026,0,112220.0,40.303000000000004,13.0632,0.0004,44076.0,40.1,13.7409,0.001,97891.0,75.493,12.2851,0.0008,1.4558,-43.68,0.91,4594.33,0.3240,0.1020, , 
0.1676,13.167780303278901,-26.54151337454,VizieR,13.167800600089999,0.0344,-26.5415383863,0.0242,2342908787434423040,0.1596,0.0440,4.217,0.066,-5.809,0.049,0,16360.0,101.7,15.1539,0.0067,10741.0,249.78,15.2738,0.0252,9361.9,129.13,14.8335,0.015,0.4403, , ,7500.0, , , , 
0.0928,13.218380578269699,-26.5403289127618,VizieR,13.218400946530002,0.0315,-26.54035313158,0.022,2342908168959208704,0.0296,0.0402,4.232,0.059,-5.625,0.042,0,15592.0,5.1589,15.2061,0.0004,7417.3,11.29,15.6758,0.0017,11876.0,19.42,14.5752,0.0018,1.1006, , ,4973.0, , , , 
0.1143,13.294178848069699,-26.5401907129702,VizieR,13.29419897447,0.0218,-26.540215200229998,0.0159,2344406459708471040,0.1642,0.0294,4.182,0.039,-5.687,0.029,0,69784.0,18.008,13.579,0.0003,29273.0,32.945,14.1852,0.0012,58067.0,51.5,12.8521,0.001,1.3331, , ,4920.35,0.2480,0.1180, , 
0.1081,12.9480415346943,-26.539766643221,VizieR,12.94803798584,0.0241,-26.539773270500003,0.0175,2342919919989518336,0.9407,0.0309,-0.737,0.047,-1.539,0.031,0,45088.0,10.027000000000001,14.0532,0.0002,25363.0,25.55,14.3409,0.0011,28997.0,26.17,13.6061,0.001,0.7348, , ,6293.0,0.2405,0.1270,1.18,1.975
0.16899999999999998,13.1723585273344,-26.5373831413092,VizieR,13.17237816037,0.0309,-26.53740734605,0.0204,2342908031520178560,0.1072,0.0374,4.080,0.061,-5.622,0.041,0,21547.0,5.4173,14.8549,0.0003,10004.0,14.857999999999999,15.351,0.0016,16743.0,20.913,14.2023,0.0014,1.1486, , ,5037.0, , , , 
0.1863,13.160090831193399,-26.5331752402269,VizieR,13.16019650304,0.0222,-26.533211226810003,0.0158,2342908787434422016,1.1222,0.0288,21.958,0.042,-8.358,0.030,0,44955.0,10.225,14.0564,0.0002,25023.0,21.279,14.3555,0.0009,29347.0,26.508000000000003,13.593,0.001,0.7625, , ,5500.0,0.1210,0.0617,1.32,1.442
0.15,13.0361676312913,-26.531348349286297,VizieR,13.036283588369999,0.0268,-26.53135610645,0.0204,2342919404593444480,1.2342,0.0357,24.096,0.051,-1.802,0.036,0,25203.0,6.0307,14.6847,0.0003,13087.0,19.684,15.0593,0.0016,17448.0,17.36,14.1576,0.0011,0.9018, , ,5474.0,0.0277,0.0160,0.91,0.670
0.1292,13.194030561322698,-26.531199237364397,VizieR,13.19405027379,0.0316,-26.531223452079995,0.0212,2342908443837110528,0.1072,0.0413,4.096,0.055,-5.624,0.041,0,19919.0,5.9121,14.9402,0.0003,9379.8,16.941,15.4209,0.002,15418.0,13.45,14.2918,0.0009,1.1291, , ,4946.53, , , , 
0.0711,13.416354808250999,-26.5255257936466,VizieR,13.41641570666,0.0175,-26.525476457079996,0.0155,2344405841233185408,2.0572,0.0265,12.655,0.036,11.459,0.027,0,83019.0,16.932000000000002,13.3904,0.0002,44152.0,38.968,13.739,0.001,56142.0,41.103,12.8887,0.0008,0.8503, , ,5794.25,0.0170,0.0090,0.87,0.774
0.0993,13.160318715203301,-26.5221552572723,VizieR,13.160339160939998,0.0256,-26.52217943462,0.0166,2342908890513635968,0.0986,0.0306,4.249,0.047,-5.615,0.032,0,36079.0,8.3336,14.2952,0.0003,17447.0,27.318,14.7471,0.0017,26994.0,21.544,13.6837,0.0009,1.0633, , ,5077.0, , , , 
0.1663,13.072241907518402,-26.516689367131,VizieR,13.07234198848,0.0316,-26.51667614855,0.0235,2342919335873968000,1.3066,0.0412,20.799,0.062,3.070,0.042,0,620490.0,549.87,11.2065,0.001,271240.0,270.11,11.768,0.0011,484280.0,214.38,10.5492,0.0005,1.2188,-10.55,0.23,4826.94, , ,5.81,16.529
0.0949,13.1537331059383,-26.5162706748856,VizieR,13.15375279649,0.0228,-26.51629474301,0.016,2342908890513634688,0.1573,0.0293,4.092,0.044,-5.590,0.031,0,40417.0,9.4898,14.172,0.0003,17912.0,20.155,14.7186,0.0012,32425.0,29.429000000000002,13.4847,0.001,1.2338, , ,4886.0,0.1520,0.0800, , 
0.139,13.0697594192945,-26.5155989479675,VizieR,13.069811440310001,0.0287,-26.5155637208,0.0228,2342919335873967488,1.1424,0.0378,10.811,0.051,8.182,0.038,0,114620.0,41.562,13.0403,0.0004,65138.0,54.236999999999995,13.3168,0.0009,73251.0,44.363,12.5999,0.0007,0.7169, , ,6077.1,0.8790,0.4360,1.67,3.421
0.0255,13.243718272930801,-26.5154226906891,VizieR,13.2437384201,0.0267,-26.51544719314,0.0184,2342908340757896704,0.0512,0.0347,4.187,0.050,-5.691,0.035,0,23677.0,5.7248,14.7525,0.0003,10959.0,16.205,15.252,0.0016,18378.0,15.7,14.1012,0.0009,1.1508, , ,4957.75, , , , 
0.3258,13.0197358562769,-26.4996994446208,VizieR,13.0197784679,0.0624,-26.49972558237,0.0465,2342920224929486464,1.6835,0.0791,8.857,0.118,-6.071,0.082,0,72561.0,115.34,13.5366,0.0017,43450.0,209.83,13.7564,0.0052,48405.0,424.2,13.0497,0.0095,0.7067, , ,6600.0,0.0680,0.0340,0.76,0.990
0.0146,13.217299387096,-26.495980001132498,VizieR,13.21731978605,0.0205,-26.496004373109997,0.0163,2342908615635797376,0.1097,0.0288,4.240,0.041,-5.661,0.031,0,34547.0,7.496,14.3423,0.0002,16763.0,20.266,14.7905,0.0013,25755.0,19.307000000000002,13.7348,0.0008,1.0557, , ,5291.56, , , , 
0.1025,13.1136606236378,-26.4918037506589,VizieR,13.11366119696,0.0186,-26.49184758678,0.0155,2342920882062193792,2.7061,0.0264,0.119,0.038,-10.181,0.030,0,98147.0,25.971999999999998,13.2087,0.0003,51418.0,43.331,13.5736,0.0009,67557.0,37.028,12.6877,0.0006,0.8859, , ,5681.25,0.0752,0.0440,0.75,0.533
0.0286,13.415889366398499,-26.4822689298381,VizieR,13.41589705916,0.0282,-26.482465758789996,0.0267,2344407623644034944,1.7556,0.0442,1.599,0.056,-45.715,0.046,0,152080.0,27.09,12.7332,0.0002,84831.0,89.21,13.03,0.0011,98990.0,68.762,12.2729,0.0008,0.7571,19.65,1.76,5740.11,0.1835,0.1173,1.41,1.953
0.0528,13.2843297899,-26.467741812635197,VizieR,13.284350382489999,0.0256,-26.467766035889998,0.025,2344409930042044416,0.1549,0.0452,4.281,0.045,-5.626,0.048,0,30964.0,8.2166,14.4612,0.0003,14033.0,19.729,14.9835,0.0015,24341.0,18.734,13.7961,0.0008,1.1875, , ,4937.5,0.2490,0.1610, , 
0.0692,13.1690435330875,-26.4675827953294,VizieR,13.169063527389998,0.0232,-26.46760750573,0.0197,2342909680787683584,0.1693,0.0348,4.157,0.047,-5.739,0.038,0,20311.0,5.2173,14.919,0.0003,9475.2,14.948,15.4099,0.0017,15658.0,19.715999999999998,14.2751,0.0014,1.1348, , ,4937.86, , , , 
0.1026,13.2901730341028,-26.467339881009803,VizieR,13.290191474270001,0.0337,-26.4672587658,0.0311,2344409930042044544,2.5457,0.0537,3.834,0.062,18.840,0.052,0,715980.0,365.03,11.0511,0.0006,404160.0,285.34,11.335,0.0008,448570.0,299.74,10.6324,0.0007,0.7027,-4.76,0.42,6141.8,1.2330,0.6133,1.83,4.296
0.0738,12.9319101134615,-26.4635620805591,VizieR,12.93196914915,0.0242,-26.46358552422,0.0173,2342923390323091584,0.6460,0.0319,12.275,0.044,-5.445,0.030,0,46433.0,9.8711,14.0213,0.0002,26276.0,29.559,14.3025,0.0012,29681.0,32.911,13.5807,0.0012,0.7218, , ,6138.0, , ,1.84,4.327
0.0275,13.1975236620656,-26.4483063854185,VizieR,13.197568337519998,0.0264,-26.44838206462,0.0219,2344410926474455552,3.4329,0.0404,9.290,0.053,-17.577,0.042,1,167050.0,22.886999999999997,12.6313,0.0001,81601.0,66.703,13.0721,0.0009,121160.0,94.68,12.0535,0.0008,1.0186,31.46,0.88,5264.14,0.2440,0.1200,0.92,0.589
0.0434,13.3740290959056,-26.429987757574395,VizieR,13.374137665280001,0.0264,-26.43001950632,0.0228,2344408761810945792,2.2359,0.0416,22.580,0.049,-7.374,0.040,0,132090.0,24.589000000000002,12.8862,0.0002,73046.0,83.758,13.1924,0.0012,86452.0,62.917,12.42,0.0008,0.7724, , ,5687.84,0.0685,0.0333,1.06,1.050
0.1297,13.1420970210243,-26.429537073341198,VizieR,13.1421027019,0.0281,-26.42954362457,0.0255,2342921706696110976,0.6145,0.0420,1.182,0.059,-1.522,0.049,1,15796.0,5.233,15.192,0.0004,9266.1,14.69,15.4341,0.0017,9720.6,15.345,14.7927,0.0017,0.6415, , ,6785.0,0.0235,0.0127,0.92,1.619
0.1584,13.1348993044594,-26.408416378126898,VizieR,13.134920337810001,0.0269,-26.40846082531,0.0233,2342921809775325952,4.8607,0.0403,4.375,0.054,-10.323,0.043,0,137100.0,55.95399999999999,12.8458,0.0004,61885.0,96.20299999999999,13.3724,0.0017,107610.0,91.81299999999999,12.1823,0.0009,1.1901,-12.77,1.08,5007.01,0.1172,0.0580,0.67,0.253
0.1102,12.822748437167402,-26.4073336625029,VizieR,12.822752695610001,0.0201,-26.407358303649996,0.0167,2342971631395738624,1.1995,0.0311,0.886,0.039,-5.723,0.029,0,45477.0,8.4045,14.0439,0.0002,24309.0,24.750999999999998,14.387,0.0011,30507.0,20.653000000000002,13.5509,0.0007,0.8361, , ,5931.58,0.1832,0.0840,1.05,1.238
0.1446,13.0962817187812,-26.400405672531,VizieR,13.09626876233,0.0229,-26.40046433371,0.0204,2342922806207672192,1.2926,0.0344,-2.695,0.048,-13.625,0.038,0,22290.0,5.3836,14.8181,0.0003,11093.0,14.933,15.2388,0.0015,16084.0,12.91,14.2459,0.0009,0.9928, , ,5320.0,0.0965,0.0470,0.87,0.550
0.0727,12.957494546036198,-26.3966788730412,VizieR,12.957520188810001,0.0278,-26.39680062941,0.0239,2342924764712758528,2.7896,0.0421,5.335,0.055,-28.279,0.041,0,200570.0,28.596999999999998,12.4327,0.0002,110980.0,100.04,12.7383,0.001,130690.0,77.497,11.9713,0.0006,0.767,-17.83,1.07,5952.0,0.0685,0.0430,0.94,1.009
0.1248,13.052398068863699,-26.3929154427668,VizieR,13.052318592410002,0.0224,-26.39298362823,0.0202,2342925688128288000,1.0377,0.0346,-16.535,0.048,-15.837,0.035,1,28514.0,7.3873,14.5507,0.0003,15349.0,22.747,14.8862,0.0016,19233.0,23.392,14.0518,0.0013,0.8344, , ,5804.33,0.1430,0.0627,1.01,1.044
0.2064,13.355856382015,-26.387609817108498,VizieR,13.35585638201,2.3444,-26.38760981711,2.0775,2344412094705567232, , , , , , ,1,12855.0,110.97,15.4157,0.0094,8181.3,18.435,15.5693,0.0024,9503.9,12.857999999999999,14.8172,0.0015,0.7522, , ,5956.75, , , , 
0.1017,12.9794833019634,-26.3823624976315,VizieR,12.97952620738,0.0299,-26.38233956622,0.0252,2342926276541112704,0.7072,0.0428,8.927,0.062,5.326,0.044,0,13489.0,4.3379,15.3634,0.0003,7299.1,11.982000000000001,15.6932,0.0018,9049.1,11.289000000000001,14.8704,0.0014,0.8228, , ,5833.0,0.1070,0.0530,1.01,1.062
0.1442,13.029157264886198,-26.369549051909104,VizieR,13.02916329685,0.0292,-26.36954873508,0.0237,2342925967303601792,0.5110,0.0416,1.255,0.058,0.074,0.043,0,17516.0,5.0181,15.0798,0.0003,10037.0,17.194000000000003,15.3474,0.0019,11000.0,12.415,14.6584,0.0012,0.6889, , ,6350.5,0.2657,0.1210,1.33,2.598
0.0265,12.915312584135,-26.346851028713196,VizieR,12.915384267489998,0.0307,-26.34691902419,0.024,2342973521181367808,1.4323,0.0448,14.920,0.058,-15.792,0.042,0,14118.0,4.8602,15.314,0.0004,6542.6,13.427,15.812,0.0022,10851.0,13.075,14.6732,0.0013,1.1388, , ,4996.0,0.1845,0.0903,0.73,0.300
0.0981,12.950390320416,-26.346128498076602,VizieR,12.95039428365,0.0203,-26.346227360629996,0.0175,2342926723217710976,1.6483,0.0322,0.825,0.038,-22.962,0.030,0,41792.0,8.4805,14.1356,0.0002,23157.0,22.565,14.4397,0.0011,27535.0,22.844,13.6622,0.0009,0.7775, , ,6340.03,0.0140,0.0072,0.64,0.596
0.0668,13.1755416768889,-26.343764179685998,VizieR,13.17558288047,0.0186,-26.343780294899997,0.0169,2344424395491894912,1.3865,0.0280,8.576,0.039,-3.743,0.032,0,40512.0,7.519,14.1694,0.0002,21565.0,19.758,14.517,0.001,27428.0,30.904,13.6664,0.0012,0.8506, , ,5742.0,0.1150,0.0460,0.92,0.834
0.0362,13.417244863352302,-26.2619521437396,VizieR,13.4174880096,0.0205,-26.26198212428,0.0152,2344419825646713216,1.8233,0.0294,50.644,0.044,-6.963,0.026,0,87931.0,19.625,13.328,0.0002,47543.0,47.176,13.6587,0.0011,58651.0,49.801,12.8412,0.0009,0.8174, , ,5846.0,0.0990,0.0535,0.99,1.040
0.0227,13.138208194009499,-26.2507879900668,VizieR,13.13818101558,0.028,-26.250815558249997,0.0243,2344428140703384704,0.5393,0.0402,-5.661,0.059,-6.403,0.046,0,15935.0,5.214,15.1825,0.0004,8567.6,9.7729,15.5192,0.0012,10813.0,11.620999999999999,14.677,0.0012,0.8422, , ,5770.25,0.5337,0.2685,1.47,2.165
0.1888,13.123514485605801,-26.246056425225703,VizieR,13.12405251098,0.0274,-26.2460746945,0.0228,2344428862257880448,6.0443,0.0385,112.078,0.057,-4.243,0.042,0,367850.0,106.8,11.7742,0.0003,176140.0,136.66,12.2367,0.0008,271640.0,138.34,11.177,0.0006,1.0598,-1.53,0.39,5106.62,0.1580,0.0780,0.84,0.430
0.0936,13.0744141766333,-26.234784868603395,VizieR,13.07445141089,0.0241,-26.23484030683,0.019,2344429034056571776,0.9443,0.0333,7.757,0.051,-12.876,0.036,0,27730.0,6.597,14.581,0.0003,14768.0,22.857,14.928,0.0017,18959.0,17.46,14.0674,0.001,0.8607, , ,5765.0,0.3077,0.1450,1.11,1.229
