star,Teff,logg,micro,rawFeI,rawFeIstdev,FeI/H,errFeI/H,rawFeII,rawFeIIstdev,FeII/H,errFeII/H,delFe,errdelFe,rawLiI,rawLiIstdev,LiI/H,errLiI/H,LiI/Fe,errLiI/Fe,rawNaI,rawNaIstdev,NaI/H,errNaI/H,NaI/Fe,errNaI/Fe,rawAlI,rawAlIstdev,AlI/H,errAlI/H,AlI/Fe,errAlI/Fe,rawMgI,rawMgIstdev,MgI/H,errMgI/H,MgI/Fe,errMgI/Fe,rawSiI,rawSiIstdev,SiI/H,errSiI/H,SiI/Fe,errSiI/Fe,rawCaI,rawCaIstdev,CaI/H,errCaI/H,CaI/Fe,errCaI/Fe,rawScII,rawScIIstdev,ScII/H,errScII/H,ScII/Fe,errScII/Fe,rawTiI,rawTiIstdev,TiI/H,errTiI/H,TiI/Fe,errTiI/Fe,rawTiII,rawTiIIstdev,TiII/H,errTiII/H,TiII/Fe,errTiII/Fe,rawVI,rawVIstdev,VI/H,errVI/H,VI/Fe,errVI/Fe,rawCrI,rawCrIstdev,CrI/H,errCrI/H,CrI/Fe,erCrI/Fe,rawCrII,rawCrIIstdev,CrII/H,errCrII/H,CrII/Fe,errCrII/Fe,rawMnI,rawMnIstdev,MnI/H,errMnI/H,MnI/Fe,errMnI/Fe,rawNiI,rawNiIstdev,NiI/H,errNiI/H,NiI/Fe,errNiI/Fe,rawZnI,rawZnIstdev,ZnI/H,errZnI/H,ZnI/Fe,errZnI/Fe,rawYII,rawYIIstdev,YII/H,errYII/H,YII/Fe,errYII/Fe,rawBaII,rawBaIIstdev,BaII/H,errBaII/H,BaII/Fe,errBaII/Fe,rawEuII,rawEuIIstdev,EuII/H,errEuII/H,EuII/Fe,errEuII/Fe,DS(3839)
AGBSYAZ017762,4843.61,1.65,1.69,6.215,0.107,-1.265,0.122674365700418,6.278,0.068,-1.202,0.090686272390037,-0.063,0.152554908147853,,,,,,,4.934,0.042,-1.366,0.051613951602256,-0.101,0.133090194980697,5.564,0.197,-0.906,0.209066974914739,0.359,0.242400495048999,6.64,0.121,-0.9,0.135059246258818,0.365,0.182455474020375,6.709,0.092,-0.811,0.109836241741968,1.37483624174197,0.16466025628548,5.414,0.155,-0.916,0.170073513516949,0.349,0.209699785407616,1.816,0.021,-1.284,0.102181211580212,-0.019,0.15965587994183,3.785,0.172,-1.115,0.182164760587771,0.15,0.219620126582242,4.006,0.169,-0.894,0.17933488227336,0.371,0.2172786229706,2.477,0.111,-1.523,0.112787410644983,-0.258,0.166643331699771,5.759,1.604,0.119000000000001,1.60403117176693,1.384,1.60871532596666,4.309,0.167,-1.331,0.16729913329124,-0.065999999999999,0.207456019435446,3.932,0.646,-1.438,0.647932095207515,-0.173,0.659442946736107,4.949,0.118,-1.281,0.12459534501738,-0.016,0.174851365450774,3.455,0.234,-1.165,0.277949635725611,0.100000000000001,0.303817379358061,1.194,0,-1.016,0.02,0.249000000000001,0.124294006291534,1.639,0.217,-0.561,0.238933045014707,0.704,0.268585182018666,-0.297,0,-0.817,0.02,0.448000000000001,0.124294006291534,-0.09
AGBSYAZ018498,4623.45,1.37,1.78,6.154,0.102,-1.326,0.118338497539896,6.417,0.309,-1.063,0.31477134558279,-0.263,0.336281132387769,,,,,,,4.926,0.104,-1.374,0.108240473021878,-0.048,0.160374561573836,5.535,0.16,-0.935,0.17464249196573,0.391,0.210959711793508,6.593,0.197,-0.947,0.205934455592065,0.379,0.237514210101206,6.668,0.141,-0.851999999999999,0.153235113469466,1.47923511346947,0.193610433603151,5.391,0.167,-0.939,0.181077331546497,0.387,0.216316897167096,1.791,0.053,-1.309,0.11317685275709,0.017,0.163746755693052,3.688,0.152,-1.212,0.163413585726524,0.114,0.201762236307987,3.986,0.103,-0.914000000000001,0.119201510057549,0.412,0.16796725871431,2.465,0.078,-1.535,0.08052328855679,-0.209,0.143136298680663,5.474,1.637,-0.165999999999999,1.63703054339252,1.16,1.64130222689181,4.293,0.022,-1.347,0.024166091947189,-0.020999999999999,0.120780793175074,3.77,0.488,-1.6,0.490554787969703,-0.274,0.504626594622202,5.004,0.246,-1.226,0.249230816714145,0.1,0.275898532072934,3.232,0.033,-1.388,0.153587108834042,-0.061999999999999,0.193889143584678,0.85,0,-1.36,0.02,-0.033999999999999,0.12001666550942,1.578,0.177,-0.622,0.203295351643858,0.704,0.235229674998713,-0.233,0,-0.753,0.02,0.573000000000001,0.12001666550942,-0.06
AGBSYAZ020268,4852.89,1.65,1.69,6.178,0.101,-1.302,0.117477657450257,6.241,0.028,-1.239,0.066211781428987,-0.063,0.134851770474102,,,,,,,4.791,0.174,-1.509,0.176567267634746,-0.206999999999999,0.212077815907275,5.433,0,-1.037,0.07,0.265,0.136751599625013,6.64,0.045,-0.9,0.075,0.402,0.13937718608151,6.643,0.131,-0.877,0.144086779407411,1.44608677940741,0.185908579683671,5.373,0.116,-0.957,0.13548431643552,0.345000000000001,0.179323729606541,1.764,0.005,-1.336,0.100124921972504,-0.034,0.154356729688083,3.686,0.104,-1.214,0.120066648158429,0.088,0.167979165374757,3.882,0.141,-1.018,0.153235113469466,0.284,0.193085473301334,2.378,0.057,-1.622,0.060406953242156,-0.319999999999999,0.132098448136229,5.542,1.603,-0.098,1.60303119121245,1.204,1.6073300843324,4.185,0.121,-1.455,0.121412519947491,-0.153,0.168943777630311,3.934,0.637,-1.436,0.638959310128587,-0.133999999999999,0.649669146566158,4.987,0.3,-1.243,0.302654919008431,0.059,0.324655201714065,3.243,0.089,-1.377,0.174416168975242,-0.075,0.210290275571649,1.171,0,-1.039,0.02,0.263000000000001,0.119167948711052,1.748,0.118,-0.452,0.154673850407882,0.85,0.19422924599555,-0.281,0,-0.801,0.02,0.501,0.119167948711052,-0.09
AGBSYAZ020908,4775.47,1.61,1.7,6.227,0.096,-1.253,0.113207773584679,6.053,0.175,-1.427,0.185,0.174,0.216889372722593,,,,,,,5.012,0.007,-1.288,0.030805843601499,-0.035,0.117324336776305,5.601,0.061,-0.869,0.092849340331529,0.384,0.146413797164065,6.667,0.028,-0.873,0.066211781428987,0.38,0.13114877048604,6.637,0.046,-0.882999999999999,0.075604232685743,1.32860423268574,0.136132288601933,5.591,0.148,-0.739,0.163719271926063,0.514,0.199047732968753,1.837,0.045,-1.263,0.109658560997307,-0.01,0.157610278852618,3.93,0.124,-0.97,0.137753402861781,0.283,0.178303112704181,4,0.159,-0.9,0.169944108459223,0.353,0.2041984329029,2.697,0.125,-1.303,0.126589889011722,-0.05,0.169826381931666,5.532,1.689,-0.108,1.68902960305615,1.145,1.69281924610987,4.165,0,-1.475,0.01,-0.222,0.113648581161403,4.065,0.602,-1.305,0.604072843289615,-0.052,0.614589293756408,5.06,0.26,-1.17,0.263058928759318,0.082999999999999,0.2863843571147,3.117,0.102,-1.503,0.181394597493972,-0.25,0.213822356174466,0.857,0,-1.353,0.02,-0.1,0.114960862905599,1.171,0.002,-1.029,0.1000199980004,0.224,0.151062900806254,-0.16,0,-0.68,0.02,0.573,0.114960862905599,-0.06
AGBSYAZ024409,5113.75,1.98,1.58,6.316,0.155,-1.164,0.166207701385947,6.443,0.105,-1.037,0.120933866224478,-0.127,0.205548047910945,,,,,,,4.814,0.181,-1.486,0.183469343488224,-0.322,0.247560093714638,,,,,,,6.546,0.043,-0.994,0.073817342135842,0.17,0.181862585486955,6.642,0.107,-0.877999999999999,0.122674365700418,1.28667436570042,0.206576862208719,5.497,0.246,-0.833,0.255765517613301,0.331,0.305026228380446,1.881,0.076,-1.219,0.125602547744861,-0.055,0.208329066622975,4.068,0.153,-0.832000000000001,0.164344151097628,0.332,0.23373917087215,4.062,0.15,-0.838,0.161554944214035,0.326000000000001,0.231786539729985,2.762,0.094,-1.238,0.096104110213872,-0.073999999999999,0.191992187341048,5.739,1.817,0.099,1.81702751767825,1.263,1.82461338370626,4.398,0,-1.242,0.01,-0.077999999999999,0.166508258053467,4.141,0.598,-1.229,0.600086660408311,-0.065,0.62267888995854,5.246,0.397,-0.984,0.399010024936718,0.180000000000001,0.432242987218995,3.677,0.153,-0.943,0.214263856028029,0.221000000000001,0.271171532429199,1.068,0,-1.142,0.02,0.022000000000001,0.167406690427832,1.755,0.278,-0.445,0.295438656915442,0.719,0.338982300422898,-0.117,0,-0.637,0.02,0.527000000000001,0.167406690427832,
AGBSYAZ024529,4797.9,1.71,1.67,6.044,0.134,-1.436,0.146819617217864,6.313,0.206,-1.167,0.214560014914243,-0.269,0.259984614929423,,,,,,,4.796,0.173,-1.504,0.175581889726703,-0.068,0.228877696597987,,,,,,,6.504,0.085,-1.036,0.104043260233424,0.4,0.17994721448247,6.606,0.086,-0.914,0.104861813831347,1.54086181383135,0.180421728181503,5.232,0.122,-1.098,0.140655607780138,0.338000000000001,0.203322404077859,1.847,0.05,-1.253,0.11180339887499,0.183000000000001,0.184542677990756,3.628,0.143,-1.272,0.155077400029792,0.164000000000001,0.213553272042364,4.077,0.214,-0.823,0.222252109101354,0.613,0.266368166266166,2.317,0.058,-1.683,0.061351446600712,-0.246999999999999,0.159122594247329,5.546,1.699,-0.094,1.69902942882106,1.342,1.70536125205189,4.364,0,-1.276,0.01,0.160000000000001,0.147159777113177,3.696,0.648,-1.674,0.649926149650866,-0.237999999999999,0.666303234271004,4.846,0.066,-1.384,0.077175125526299,0.052000000000001,0.165867416932923,3.478,0.094,-1.142,0.17701977290687,0.294000000000001,0.229982608038086,0.962,0,-1.248,0.02,0.188000000000001,0.148175571535932,1.611,0.094,-0.589,0.137244307714382,0.847000000000001,0.200977610693331,-0.214,0,-0.734,0.02,0.702000000000001,0.148175571535932,-0.1
AGBSYAZ024850,4793.39,1.54,1.72,6.058,0.103,-1.422,0.119201510057549,6.298,0.214,-1.182,0.222252109101354,-0.24,0.252200317208365,,,,,,,5.378,0.123,-0.922,0.126605687076055,0.5,0.17389077031286,5.316,0,-1.154,0.07,0.268,0.138235306633291,6.518,0.13,-1.022,0.143178210632764,0.4,0.186303515801501,6.602,0.08,-0.917999999999999,0.1,1.522,0.155592416267632,5.287,0.151,-1.043,0.16643617395266,0.379,0.204719320045764,1.77,0.045,-1.33,0.109658560997307,0.092000000000001,0.161969132861789,3.624,0.111,-1.276,0.126178445068879,0.146,0.173579952759528,3.911,0.099,-0.989,0.115762688289448,0.433,0.166162570995998,2.39,0.073,-1.61,0.075690157880665,-0.187999999999999,0.141201982988908,5.525,1.758,-0.114999999999999,1.75802844118063,1.307,1.76206498177564,4.35,0.081,-1.29,0.081614949610963,0.132000000000001,0.144464528518249,3.783,0.71,-1.587,0.71175838597097,-0.165,0.721670977662259,4.846,0.092,-1.384,0.100319489631876,0.038,0.155797946071185,3.426,0.026,-1.194,0.152236657871881,0.228000000000001,0.19335201059208,1.087,0,-1.123,0.02,0.299000000000001,0.120867696263311,1.652,0.33,-0.548,0.344818792991333,0.874000000000001,0.364841061285596,-0.317,0,-0.837,0.02,0.585000000000001,0.120867696263311,0.12
AGBSYAZ025094,5175.41,1.89,1.61,6.14,0.129,-1.34,0.142270868416553,6.584,0.394,-0.896000000000001,0.39854234404891,-0.443999999999999,0.423174904737982,,,,,,,5.475,0.192,-0.825,0.19432961688842,0.515,0.240842272037116,5.839,0,-0.630999999999999,0.07,0.709000000000001,0.158559137232769,6.699,0.233,-0.841,0.240601330004636,0.499,0.27951744131628,6.684,0.101,-0.835999999999999,0.117477657450257,1.45747765745026,0.184504742486474,5.421,0.334,-0.909,0.341256501769563,0.431000000000001,0.369725573905836,1.85,0.121,-1.25,0.156974520225417,0.090000000000001,0.211853723120459,3.691,0.207,-1.209,0.215520300667942,0.131,0.258244070599888,3.894,0.137,-1.006,0.1495626958837,0.334000000000001,0.206421898063166,,,-4,0.02,-2.66,0.14366976021418,7.108,0,1.468,0.01,2.808,0.142621877704649,4.282,0,-1.358,0.01,-0.017999999999999,0.142621877704649,3.851,0.296,-1.519,0.300193271077151,-0.178999999999999,0.332200240818696,5.234,0.443,-0.996,0.444802203231953,0.344,0.467001070662584,3.463,0.218,-1.157,0.264620482956252,0.183000000000001,0.300441342028689,1.637,0,-0.573,0.02,0.767000000000001,0.14366976021418,2.011,0.102,-0.189,0.142842570685353,1.151,0.201606051496477,-0.431,0,-0.951,0.02,0.389000000000001,0.14366976021418,-0.12
AGBSYAZ028230,5041.57,1.9,1.61,6.215,0.139,-1.265,0.151396829557293,6.452,0.419,-1.028,0.423274142843619,-0.237,0.449535315631598,,,,,,,4.844,0.085,-1.456,0.0901387818866,-0.190999999999999,0.176198751414418,5.449,0,-1.021,0.07,0.244,0.166796282932205,6.808,0.285,-0.732,0.291247317584214,0.533,0.328246858324646,6.712,0.09,-0.808,0.10816653826392,1.37316653826392,0.186067192164551,5.347,0.248,-0.983,0.257689735922873,0.282000000000001,0.298872882677569,1.821,0.064,-1.279,0.118726576637247,-0.013999999999999,0.192398024937888,3.838,0.102,-1.062,0.118338497539896,0.203,0.192158788505756,4.066,0.047,-0.834000000000001,0.076216796049165,0.431,0.169499262535269,2.466,0.082,-1.534,0.084403791384037,-0.268999999999999,0.173334935890028,5.822,1.815,0.182,1.81502754800031,1.447,1.82133083211151,4.396,0.16,-1.244,0.160312195418814,0.021000000000001,0.220501700673714,3.924,0.39,-1.446,0.39319206502675,-0.181,0.421332410336542,5.14,0.379,-1.09,0.381104972415737,0.175,0.410075602785633,3.68,0.2,-0.94,0.25,0.325000000000001,0.292268711975812,1.145,0,-1.065,0.02,0.200000000000001,0.152712147519443,1.79,0.076,-0.41,0.125602547744861,0.855,0.196715530652768,-0.466,0,-0.986,0.02,0.279000000000001,0.152712147519443,-0.13
AGBSYAZ029428,5155.74,1.97,1.59,6.311,0.141,-1.169,0.153235113469466,6.536,0.213,-0.944000000000001,0.22128940327092,-0.224999999999999,0.269165376673895,,,,,,,5.227,0.108,-1.073,0.112089250153616,0.096000000000001,0.189855207987561,,,,,,,6.787,0.064,-0.753,0.087726848797845,0.416,0.17657009939398,6.75,0.155,-0.77,0.166207701385947,1.33520770138595,0.226066361938259,5.502,0.362,-0.828,0.368705844813993,0.341,0.399280603085098,1.965,0.007,-1.135,0.100244700608062,0.034,0.183111987592293,3.853,0.142,-1.047,0.154155765380345,0.122,0.217359149795908,4.194,0.303,-0.706,0.308883473173946,0.463,0.344804292316671,2.743,0.083,-1.257,0.085375640553966,-0.088,0.17541379649275,6.831,0,1.191,0.01,2.36,0.153561062773087,4.493,0.139,-1.147,0.139359247988786,0.022000000000001,0.207127979761306,4.06,0.609,-1.31,0.611049097863666,-0.141,0.629969840547942,5.119,0.218,-1.111,0.221639346687361,0.058,0.269453149916641,3.629,0.025,-0.991,0.152069063257455,0.178,0.21588422823356,1.47,0,-0.74,0.02,0.429,0.154534785728004,1.931,0.262,-0.269,0.280435375799844,0.9,0.319570023625496,-0.142,0,-0.662,0.02,0.507,0.154534785728004,
BAGBYAZ014218,5265.23,2.02,1.57,6.273,0.163,-1.207,0.173692256591939,6.333,0.034,-1.147,0.068963758598267,-0.06,0.186882315910308,,,,,,,5.576,0.08,-0.723999999999999,0.085440037453175,0.483000000000001,0.193569109105766,5.675,0,-0.795,0.07,0.412,0.187267188797184,6.589,0.05,-0.951,0.078102496759067,0.256,0.190444217554642,6.722,0.119,-0.798,0.133270401815257,1.34027040181526,0.218929212303886,5.445,0.398,-0.885,0.404108896214869,0.322000000000001,0.439855658142532,1.859,0.099,-1.241,0.140716026095111,-0.033999999999999,0.223539705645328,3.84,0.247,-1.06,0.254183004939355,0.147,0.307860357954706,4.081,0.212,-0.819,0.220327029662727,0.388000000000001,0.280558371823049,2.934,0.181,-1.066,0.182101619981811,0.141000000000001,0.25165452509343,5.658,1.628,0.018000000000001,1.62803071224102,1.225,1.63726998384506,4.459,0,-1.181,0.01,0.026000000000001,0.173979883894662,3.766,0.12,-1.604,0.13,-0.396999999999999,0.216953912156476,5.371,0.408,-0.859,0.409956095210207,0.348000000000001,0.445233646527304,3.367,0.164,-1.253,0.222252109101354,-0.045999999999999,0.282072685668074,1.119,0,-1.091,0.02,0.116000000000001,0.174839926790193,1.955,0.357,-0.245,0.370741149590924,0.962000000000001,0.409411773157539,-0.119,0,-0.639,0.02,0.568000000000001,0.174839926790193,-0.22
BGBSYAZ009280,4313.45,1.15,1.85,6.166,0.105,-1.314,0.120933866224478,6.356,0.362,-1.124,0.366938686976448,-0.19,0.386353465106759,,,,,,,5.095,0.138,-1.205,0.141223227551278,0.109,0.185927405188154,5.467,0.041,-1.003,0.081123362849428,0.311,0.145622800412573,6.65,0.096,-0.89,0.113207773584679,0.424,0.165653252307342,6.685,0.115,-0.834999999999999,0.129711217710728,1.44371121771073,0.177341478509682,5.544,0.115,-0.786,0.134629120178363,0.528000000000001,0.180969610708539,1.934,0.031,-1.166,0.104694794521982,0.148,0.159956244016919,3.767,0.225,-1.133,0.2328626204439,0.181,0.262392835268039,3.989,0.065,-0.911000000000001,0.088459030064771,0.403,0.149833240637717,2.793,0.157,-1.207,0.158268758761797,0.107,0.199183332636042,5.549,1.418,-0.090999999999999,1.41803526049249,1.223,1.42318270085046,4.863,0,-0.777,0.01,0.537,0.121346610995116,3.943,0.766,-1.427,0.767630119263177,-0.113,0.777097805942084,4.931,0.051,-1.299,0.064815121692395,0.015,0.137207871494313,3.224,0.029,-1.396,0.152777616161531,-0.082,0.194848659220432,0.979,0,-1.231,0.02,0.083,0.122576506721313,1.205,0,-0.995,0.1,0.319,0.156923548264752,-0.331,0,-0.851,0.02,0.463,0.122576506721313,
BGBSYAZ012027,4523.41,1.45,1.75,6.277,0.1,-1.203,0.116619037896906,6.242,0.268,-1.238,0.27463430230035,0.035,0.298368899183544,,,,,,,5.16,0.135,-1.14,0.138293166859393,0.063,0.180900525151255,5.685,0.056,-0.784999999999999,0.08964373932406,0.418000000000001,0.147091808065575,6.738,0.075,-0.802000000000001,0.096046863561493,0.401,0.151079449297381,6.75,0.165,-0.77,0.175570498660794,1.37857049866079,0.21077238908358,5.662,0.353,-0.668,0.359873588916997,0.535,0.378297501974306,1.885,0.024,-1.215,0.10283968105746,-0.012,0.155486333804614,3.972,0.204,-0.928,0.212640541760032,0.275,0.242520102259586,4.047,0.083,-0.853000000000001,0.102415819090607,0.35,0.155206314304541,2.951,0.139,-1.049,0.140431477952772,0.154,0.182540406485797,5.706,1.479,0.066,1.47903380623974,1.269,1.48362427858269,4.39,0.312,-1.25,0.312160215274144,-0.047,0.333232651461408,4.164,0.758,-1.206,0.7596472865745,-0.003,0.768546680430018,5.064,0.099,-1.166,0.10677546534668,0.037,0.158117045254457,3.208,0.026,-1.412,0.152236657871881,-0.209,0.19177069640589,0.975,0,-1.235,0.02,-0.032,0.118321595661992,1.409,0.108,-0.791,0.147186955943793,0.412,0.187787113508888,-0.133,0,-0.653,0.02,0.55,0.118321595661992,
RGBSYAZ007869,4980.89,2.19,1.51,6.386,0.139,-1.094,0.151396829557293,6.383,0.461,-1.097,0.46488815859301,0.003,0.488919216231066,,,,,,,5.933,0.109,-0.367,0.113053084876088,0.727,0.188949728764029,5.555,0,-0.915,0.07,0.179,0.166796282932205,6.765,0.052,-0.775,0.079397732965117,0.319,0.170953209972788,6.729,0.195,-0.791,0.204022057631032,1.29802205763103,0.254059048254535,5.779,0.201,-0.551,0.212840315729892,0.543,0.261193414924649,1.944,0.037,-1.156,0.106625512894429,-0.062,0.185175592344132,4.03,0.219,-0.87,0.227070473641995,0.224,0.272913905838453,4.142,0.02,-0.758,0.063245553203368,0.336,0.164076201808794,2.867,0.07,-1.133,0.072801098892805,-0.039,0.167991071191299,5.771,1.424,0.131,1.42403511192667,1.225,1.43206040375398,4.284,0,-1.356,0.01,-0.262,0.151726728034318,4.234,0.521,-1.136,0.523393733244868,-0.042,0.544850438193822,5.186,0.345,-1.044,0.347311099736245,0.05,0.378874649455463,3.44,0.092,-1.18,0.175965905788593,-0.086,0.232131428290096,1.499,0,-0.711,0.02,0.383,0.152712147519443,1.517,0.221,-0.683,0.24257163890282,0.411,0.285940553262387,-0.31,0,-0.83,0.02,0.264,0.152712147519443,
RGBSYAZ013369,4914.36,2.1,1.54,6.282,0.127,-1.198,0.140459958707099,6.303,0.294,-1.177,0.3000599940012,-0.021,0.331308013787774,1.01,0.252,-0.02,0.253779431790679,1.178,0.290056890971409,5.58,0.23,-0.72,0.231948270094864,0.478,0.271162313015655,5.812,0.165,-0.658,0.179234483289349,0.540000000000001,0.227714733822825,6.66,0.133,-0.88,0.145907504947484,0.318,0.202529010267665,6.745,0.183,-0.775,0.192585046148448,1.39058504614845,0.238365265926057,5.688,0.24,-0.642,0.25,0.556,0.286755993834479,2.004,0.118,-1.096,0.154673850407882,0.102,0.208933003615992,4.136,0.108,-0.764,0.123547561691844,0.434,0.187064160116255,4.169,0.251,-0.731000000000001,0.258071695464652,0.467,0.293819672588477,2.727,0.147,-1.273,0.148354305633507,-0.075,0.204298800779642,5.702,1.644,0.062,1.64403041334399,1.26,1.65001969685213,4.323,0,-1.317,0.01,-0.118999999999999,0.140815482103354,4.034,0.474,-1.336,0.476629835406891,-0.138,0.496895361218034,5.112,0.284,-1.118,0.286803068323894,0.08,0.319350904179086,3.506,0.052,-1.114,0.158757676979729,0.084000000000001,0.211974055016174,1.087,0,-1.123,0.02,0.075,0.141876707038189,1.481,0.273,-0.719,0.290738714312353,0.479,0.322890074173859,-0.227,0,-0.747,0.02,0.451,0.141876707038189,
RGBSYAZ015658,4815.13,2.01,1.57,6.312,0.167,-1.168,0.177451401797788,6.439,0.45,-1.041,0.453982378512647,-0.127,0.487431020760887,,,,,,,4.987,0.027,-1.313,0.040360872141221,-0.145,0.181983515737003,5.762,0,-0.707999999999999,0.07,0.460000000000001,0.190759010272123,6.768,0.029,-0.772,0.066640828326185,0.396,0.189552103654905,6.678,0.199,-0.842,0.207848502520466,1.37584850252047,0.273294712718706,5.544,0.351,-0.786,0.35791200035763,0.382000000000001,0.399487171258352,1.886,0.045,-1.214,0.109658560997307,-0.046,0.208600095877255,3.991,0.16,-0.909,0.170880074906351,0.259,0.246351375072274,4.062,0.297,-0.838,0.303,0.33,0.351138149451181,2.822,0.12,-1.178,0.121655250605964,-0.01,0.215148785727459,5.581,1.435,-0.059,1.43503484278257,1.109,1.44596472986031,4.162,0,-1.478,0.01,-0.31,0.177732945736012,4.173,0.781,-1.197,0.782598875542254,-0.029,0.802464952505715,5.141,0.259,-1.089,0.262070601174569,0.079,0.31649644547767,3.394,0.309,-1.226,0.343483624063797,-0.058,0.386613502092206,1.256,0,-0.954,0.02,0.214,0.178574914251694,1.385,0.026,-0.815,0.103324730824716,0.353,0.205341179503771,-0.005,0,-0.525,0.02,0.643,0.178574914251694,-0.01
RGBSYAZ017382,4565.55,1.52,1.73,6.28,0.097,-1.2,0.114057003292213,6.208,0.143,-1.272,0.155077400029792,0.072,0.192504545400881,,,,,,,5.175,0.106,-1.125,0.110163514831363,0.075,0.158571750321424,5.66,0.033,-0.81,0.077388629655784,0.39,0.137833232567476,6.806,0.056,-0.734,0.082073138114733,0.466,0.140516902897836,6.759,0.165,-0.760999999999999,0.175570498660794,1.37557049866079,0.209365708749069,5.629,0.162,-0.701000000000001,0.176476627347646,0.499,0.210126152584584,2.091,0.153,-1.009,0.182781290070948,0.191,0.215448369685175,3.973,0.22,-0.927000000000001,0.228035085019828,0.273,0.254968625520867,4.056,0.08,-0.844,0.1,0.356,0.151687178100194,2.927,0.132,-1.073,0.133506554146229,0.127,0.175593280053651,5.585,1.501,-0.055,1.50103331075629,1.145,1.50536042195881,4.477,0,-1.163,0.01,0.037000000000001,0.114494541354599,4.061,0.763,-1.309,0.764636514953347,-0.109,0.773096371741583,5.127,0.228,-1.103,0.231482180739685,0.097,0.258056195430375,3.25,0.14,-1.37,0.205182845286832,-0.17,0.234753061747872,1.167,0,-1.043,0.02,0.157,0.11579723658188,1.453,0.111,-0.747,0.149402141885583,0.453,0.187962762269552,-0.241,0,-0.761,0.02,0.439,0.11579723658188,
RGBSYAZ021600,4519.56,1.47,1.75,6.193,0.084,-1.287,0.103227903204512,6.291,0.229,-1.189,0.236729803784821,-0.098,0.258257623314395,,,,,,,5.406,0.154,-0.894,0.156894869259642,0.393,0.187808413017096,5.721,0.065,-0.749,0.095524865872714,0.538,0.140644943030313,6.721,0.023,-0.819,0.064257295305669,0.468,0.121593585357124,6.666,0.15,-0.853999999999999,0.161554944214035,1.44855494421404,0.191718543704046,5.535,0.137,-0.795,0.153847326918605,0.492000000000001,0.185270073136489,1.888,0.077,-1.212,0.126210142223199,0.075000000000001,0.1630490723678,3.775,0.168,-1.125,0.178392824967822,0.162,0.206106768447812,4.008,0.171,-0.892,0.181220859726467,0.395,0.208559344072616,2.77,0.096,-1.23,0.09806120537705,0.057000000000001,0.142379773844461,5.551,1.539,-0.089,1.53903248828607,1.198,1.54249051860943,4.413,0.095,-1.227,0.095524865872714,0.060000000000001,0.140644943030313,4.156,0.848,-1.214,0.849472777668596,0.073,0.855721917447485,4.947,0.072,-1.283,0.082365041127896,0.004,0.132060592153753,3.157,0.094,-1.463,0.17701977290687,-0.175999999999999,0.204919496388216,1.267,0,-0.943,0.02,0.344000000000001,0.105147515424759,1.358,0.244,-0.842,0.263696795581592,0.445000000000001,0.283181920326846,-0.176,0,-0.696,0.02,0.591000000000001,0.105147515424759,
RGBSYAZ021904,4582.24,1.57,1.71,6.261,0.106,-1.219,0.121803119828681,6.298,0.294,-1.182,0.3000599940012,-0.037,0.323839466402723,,,,,,,5.132,0.17,-1.168,0.172626765016321,0.051,0.211272336097275,5.649,0.035,-0.821,0.078262379212493,0.398,0.144779142144164,6.744,0.016,-0.796,0.06209669878504,0.423,0.136718689285701,6.761,0.11,-0.758999999999999,0.125299640861417,1.34429964086142,0.174745529270422,5.635,0.222,-0.695,0.232774569057704,0.524,0.262716577322406,1.918,0.005,-1.182,0.100124921972504,0.037,0.157673713725529,3.933,0.156,-0.967000000000001,0.167140659326209,0.252,0.206813926030139,4.013,0.021,-0.887,0.063568860301251,0.332,0.137393595192789,2.927,0.05,-1.073,0.053851648071345,0.146,0.133176574516692,5.594,1.502,-0.045999999999999,1.50203328857918,1.173,1.50696383500069,4.392,0.145,-1.248,0.145344418537486,-0.028999999999999,0.189633857736428,4.151,0.824,-1.219,0.825515596460782,0,0.83445311432099,5.017,0.103,-1.213,0.110494343746637,0.006,0.164453640883989,3.479,0.008,-1.141,0.150213181845003,0.078,0.193390796058137,1.425,0,-0.785,0.02,0.434,0.123434192993676,1.39,0.182,-0.81,0.207663188841932,0.409,0.240748831772867,-0.079,0,-0.599,0.02,0.62,0.123434192993676,0.03
RGBSYAZ023021,4879.12,2.18,1.52,6.272,0.168,-1.208,0.178392824967822,6.052,0.068,-1.428,0.090686272390037,0.22,0.200119964021584,1.206,0,0.176,0.03,1.384,0.180897761180176,5.113,0.175,-1.187,0.177552809045647,0.021000000000001,0.251692272428058,5.718,0,-0.752,0.07,0.456,0.191635069859355,6.574,0.109,-0.966,0.124422666745252,0.242,0.217497126417799,6.711,0.1,-0.808999999999999,0.116619037896906,1.32461903789691,0.213129068876116,5.676,0.062,-0.654,0.093509357820488,0.554,0.201414994476578,2.009,0.218,-1.091,0.239841614404173,0.117,0.298911358098015,3.959,0.211,-0.941,0.219364992649237,0.267,0.282745468575537,4.224,0.267,-0.676,0.273658546367549,0.532,0.326669557810335,2.658,0.099,-1.342,0.101,-0.134,0.205,5.496,1.619,-0.143999999999999,1.61903088296672,1.064,1.62882933421522,4.323,0,-1.317,0.01,-0.108999999999999,0.178672885463911,4.415,0.601,-0.955,0.60307628041567,0.253,0.628907783383224,5.127,0.273,-1.103,0.275914841934971,0.105,0.328562018498791,3.137,0.197,-1.483,0.247606542724541,-0.275,0.305176997822575,1.132,0,-1.078,0.02,0.13,0.179510445378535,1.35,0.149,-0.85,0.179446370818693,0.358,0.2530316185776,0.098,0,-0.422,0.02,0.786,0.179510445378535,
RGBSYAZ028562,4703.8,1.81,1.64,6.247,0.099,-1.233,0.115762688289448,6.357,0.138,-1.123,0.150479234447813,-0.11,0.18985520798756,,,,,,,5.557,0.083,-0.742999999999999,0.088255311454892,0.490000000000001,0.145567853594123,5.582,0.013,-0.888,0.07119691004531,0.345,0.135904378148755,6.653,0.193,-0.887,0.202111355445457,0.346000000000001,0.232916293977042,6.696,0.093,-0.824,0.11067520047418,1.34367520047418,0.16015617378047,5.584,0.152,-0.746,0.167343957166072,0.487,0.203482185952481,1.99,0.038,-1.11,0.106976632962531,0.123,0.157622967869534,3.976,0.167,-0.924,0.177451401797788,0.309,0.211872603231281,3.996,0.097,-0.904,0.114057003292213,0.329,0.162511538051918,2.78,0.123,-1.22,0.124615408357073,0.013000000000001,0.170088212407562,5.611,1.636,-0.029,1.63603056206172,1.204,1.64012103211928,4.378,0,-1.262,0.01,-0.028999999999999,0.116193803621364,4.198,0.705,-1.172,0.706770825657087,0.061000000000001,0.716188522667042,4.989,0.1,-1.241,0.10770329614269,-0.008,0.158117045254457,3.405,0.082,-1.215,0.170950285170865,0.018000000000001,0.206458228220626,1.122,0,-1.088,0.02,0.145,0.117477657450257,1.354,0.055,-0.846,0.114127122105133,0.387,0.162560757872249,-0.155,0,-0.675,0.02,0.558,0.117477657450257,0.38
RGBSYAZ028604,4900.95,2.13,1.54,6.368,0.15,-1.112,0.161554944214035,6.128,0.094,-1.352,0.111516814875605,0.24,0.19630588376307,,,,,,,5.647,0.195,-0.653,0.197294196569489,0.459000000000001,0.255,5.781,0.064,-0.689,0.094847245611035,0.423,0.187339264437544,6.795,0.016,-0.745,0.06209669878504,0.367,0.173078017090559,6.793,0.09,-0.726999999999999,0.10816653826392,1.22016653826392,0.194422220952236,5.785,0.121,-0.545,0.139789126901916,0.567,0.213637543517051,1.992,0.14,-1.108,0.172046505340853,0.004,0.236008474424119,4.143,0.218,-0.757000000000001,0.226106169752176,0.355,0.277892065377909,4.307,0.187,-0.593,0.196389918274844,0.519,0.254301002750677,2.714,0.246,-1.286,0.246811669092043,-0.174,0.294984745368299,5.519,1.598,-0.121,1.59803128880507,0.991000000000001,1.60617682712708,4.495,0,-1.145,0.01,-0.033,0.161864140562386,4.404,0.499,-0.966,0.501498753737235,0.146,0.526878543878947,5.219,0.211,-1.011,0.214758003343298,0.101,0.26873965096353,3.397,0.013,-1.223,0.150562279472649,-0.111,0.220837043993982,1.549,0,-0.661,0.02,0.451,0.162788205960997,1.664,0.274,-0.536,0.291677904545408,0.576,0.333430652460148,-0.067,0,-0.587,0.02,0.525,0.162788205960997,0.38
RGBSYAZ030421,4895.23,2.19,1.51,6.267,0.165,-1.213,0.175570498660794,6.37,0.304,-1.11,0.309864486509829,-0.103,0.356147441377865,,,,,,,5.594,0.1,-0.706,0.104403065089106,0.507000000000001,0.204266982158155,5.907,0,-0.563,0.07,0.65,0.189010581714358,6.807,0.041,-0.733,0.072670489196097,0.48,0.190015788817666,6.76,0.118,-0.76,0.132378245946983,1.34537824594698,0.21988406035909,5.618,0.2,-0.712,0.211896201004171,0.501,0.27518175811634,1.999,0.054,-1.101,0.113648581161403,0.112,0.209143491411997,3.994,0.102,-0.906000000000001,0.118338497539896,0.306999999999999,0.211728599863127,4.178,0.184,-0.722,0.193535526454447,0.491,0.261306333639275,2.609,0.199,-1.391,0.200002499984375,-0.178,0.266131546420187,5.516,1.23,-0.124,1.2300406497348,1.089,1.24250754524872,4.439,0,-1.201,0.01,0.012000000000001,0.17585505395069,4.146,0.277,-1.224,0.281476464380239,-0.011,0.331743877110038,5.156,0.334,-1.074,0.33638668225719,0.138999999999999,0.379448283696211,3.345,0.182,-1.275,0.235847408296127,-0.062,0.294022108012306,0.979,0,-1.231,0.02,-0.018,0.176705970470723,1.391,0.035,-0.809,0.105948100502085,0.404,0.205060966544099,-0.008,0,-0.528,0.02,0.685,0.176705970470723,
RGBSYAZ031599,4822.44,1.94,1.59,6.398,0.16,-1.082,0.170880074906351,6.175,0.235,-1.305,0.242538656712698,0.223,0.296690073982936,,,,,,,5.695,0.074,-0.605,0.079849859110709,0.477000000000001,0.188616012045638,5.785,0.013,-0.685,0.07119691004531,0.397,0.185118880722632,6.971,0.121,-0.569,0.135059246258818,0.513,0.217809549836549,6.843,0.115,-0.677,0.129711217710728,1.21171121771073,0.214534379529249,5.626,0.151,-0.704,0.16643617395266,0.378000000000001,0.238539304937362,1.938,0.01,-1.162,0.100498756211209,-0.079999999999999,0.19824227601599,4.221,0.218,-0.679,0.226106169752176,0.403000000000001,0.283414890222797,4.25,0.215,-0.65,0.223215142855497,0.432,0.281113855937412,2.861,0.242,-1.139,0.242825039894983,-0.057,0.296924232759807,5.803,1.455,0.163,1.45503436385537,1.245,1.46503412929529,4.149,0,-1.491,0.01,-0.408999999999999,0.171172427686237,4.718,1.024,-0.652,1.02521997639531,0.430000000000001,1.03936326662048,5.209,0.414,-1.021,0.415927878363545,0.061,0.449662095356057,3.464,0.092,-1.156,0.175965905788593,-0.073999999999999,0.245283509433472,1.304,0,-0.906,0.02,0.176000000000001,0.172046505340853,1.556,0.24,-0.644,0.26,0.438000000000001,0.311126983722081,-0.203,0,-0.723,0.02,0.359000000000001,0.172046505340853,
RGBSYAZ032119,4952.23,2.17,1.52,6.311,0.152,-1.169,0.163413585726524,6.512,0.436,-0.968,0.440109077388776,-0.201,0.46946778377222,,,,,,,5.233,0.018,-1.067,0.034985711369072,0.102,0.167116725674003,5.773,0.038,-0.697,0.07964923100696,0.472,0.181791088890517,7.04,0.179,-0.5,0.188788241159242,0.669,0.249689807561302,6.733,0.067,-0.787,0.08993886812719,1.25893886812719,0.186528818148832,5.674,0.216,-0.656,0.227059463577275,0.513000000000001,0.279749888293097,1.94,0.071,-1.16,0.122641754716736,0.009,0.204315931831074,4.176,0.281,-0.724,0.287334300075713,0.445,0.330552567680241,4.269,0.24,-0.631,0.24738633753706,0.538,0.296486087363303,2.786,0.258,-1.214,0.258774032700346,-0.045,0.306052283115157,5.893,1.743,0.253,1.74302868593721,1.422,1.75067215663013,4.412,0,-1.228,0.01,-0.058999999999999,0.163719271926063,4.093,0.859,-1.277,0.860453949958974,-0.108,0.875833888360116,5.214,0.292,-1.016,0.294726992316618,0.153,0.336998516317209,3.39,0.315,-1.23,0.34889110048839,-0.061,0.385264843971001,1.126,0,-1.084,0.02,0.085,0.164632925018053,1.668,0.106,-0.532,0.145725769855575,0.637,0.2189520495451,0.098,0,-0.422,0.02,0.747,0.164632925018053,
RGBSYAZ032345,4532.68,1.47,1.75,6.182,0.139,-1.298,0.151396829557293,6.261,0.287,-1.219,0.29320470664708,-0.079,0.329984848137002,,,,,,,5.657,0.233,-0.643,0.234923391768466,0.655,0.279481663083645,5.529,0.001,-0.941,0.070007142492749,0.357,0.166799280573988,6.652,0.237,-0.888,0.244476992782552,0.41,0.28755868966178,6.628,0.072,-0.891999999999999,0.09372299611088,1.39172299611088,0.178058978992917,5.646,0.221,-0.684,0.231821051675641,0.614,0.276879034959312,1.857,0.016,-1.243,0.101271911209377,0.055,0.182145546198638,3.783,0.147,-1.117,0.158773423468791,0.181,0.219385505446463,3.97,0.147,-0.930000000000001,0.158773423468791,0.367999999999999,0.219385505446463,2.74,0.114,-1.26,0.115741090369842,0.038,0.190570197040356,5.546,1.43,-0.094,1.43003496460751,1.204,1.43802677304701,4.352,0.042,-1.288,0.043174066289846,0.010000000000001,0.157432525229064,3.977,0.732,-1.393,0.733705663055697,-0.095,0.749162866137931,4.935,0.076,-1.295,0.085883642214336,0.003,0.174060334367138,3.173,0.006,-1.447,0.150119952038362,-0.149,0.213206472697242,0.983,0,-1.227,0.02,0.071,0.152712147519443,1.734,0,-0.466,0.1,0.832,0.181441450611485,-0.293,0,-0.813,0.02,0.485,0.152712147519443,0.41
RGBSYAZ032767,4816.96,1.96,1.59,6.306,0.097,-1.174,0.114057003292213,6.543,0.635,-0.937,0.637828346814407,-0.237,0.647945985403104,0.707,0,-0.323,0.03,0.851,0.117936423550996,5.714,0.19,-0.585999999999999,0.192353840616713,0.588000000000001,0.22362692145625,5.808,0.148,-0.662,0.163719271926063,0.512,0.199531952328443,6.771,0.026,-0.769,0.065391130897087,0.405,0.131472430570062,6.725,0.201,-0.795,0.20976415327696,1.38376415327696,0.238767669503222,5.622,0.133,-0.708,0.150296373875087,0.466,0.188674322577292,1.953,0.121,-1.147,0.156974520225417,0.027,0.194036079119323,3.998,0.2,-0.902,0.208806130178211,0.272,0.237926459226375,4.099,0.121,-0.801,0.135059246258818,0.373,0.176776695296637,2.772,0.155,-1.228,0.156284996080878,-0.053999999999999,0.193478680996124,5.652,1.608,0.012000000000001,1.60803109422673,1.186,1.61207102821185,4.495,0.197,-1.145,0.197253643819322,0.029000000000001,0.227855217188459,4.45,0.607,-0.92,0.609055826669444,0.254,0.619643445862215,5.069,0.13,-1.161,0.136014705087354,0.013,0.177507746309844,3.504,0.094,-1.116,0.17701977290687,0.058,0.210582525390878,1.31,0,-0.9,0.02,0.274,0.11579723658188,1.529,0.304,-0.671,0.320024999023514,0.503,0.339742549587184,-0.063,0,-0.583,0.02,0.591,0.11579723658188,
