type, abundance, uncertainty
AGB, -0.99, 0.12
AGB, -1.37, 0.05
AGB, -1.38, 0.11
AGB, -1.51, 0.18
AGB, -1.29, 0.03
AGB, -1.34, 0.19
AGB, -1.5, 0.18
AGB, -0.93, 0.12
AGB, -0.83, 0.19
AGB, -1.46, 0.09
AGB, -1.07, 0.11
AGB, -1.28, 0.16
AGB, -0.73, 0.08
RGB, -1.22, 0.13
RGB, -1.15, 0.14
RGB, -0.97, 0.17
RGB, -0.68, 0.07
RGB, -0.37, 0.11
RGB, -0.48, 0.12
RGB, -0.73, 0.23
RGB, -0.61, 0.05
RGB, -1.32, 0.04
RGB, -0.62, 0.3
RGB, -1.13, 0.11
RGB, -0.65, 0.13
RGB, -0.9, 0.16
RGB, -1.29, 0.03
RGB, -1.19, 0.18
RGB, -0.54, 0.2
RGB, -0.64, 0.16
RGB, -0.45, 0.16
RGB, -1.21, 0.11
RGB, -0.75, 0.09
RGB, -0.66, 0.2
RGB, -0.71, 0.1
RGB, -0.61, 0.08
RGB, -0.59, 0.04
RGB, -1.07, 0.04
RGB, -0.65, 0.23
RGB, -0.59, 0.19
